%TF.GenerationSoftware,KiCad,Pcbnew,(5.1.9)-1*%
%TF.CreationDate,2021-04-10T22:57:16+02:00*%
%TF.ProjectId,reform2-trackball,7265666f-726d-4322-9d74-7261636b6261,rev?*%
%TF.SameCoordinates,Original*%
%TF.FileFunction,Soldermask,Top*%
%TF.FilePolarity,Negative*%
%FSLAX46Y46*%
G04 Gerber Fmt 4.6, Leading zero omitted, Abs format (unit mm)*
G04 Created by KiCad (PCBNEW (5.1.9)-1) date 2021-04-10 22:57:16*
%MOMM*%
%LPD*%
G01*
G04 APERTURE LIST*
%ADD10R,1.060000X0.650000*%
%ADD11R,1.200000X1.400000*%
%ADD12R,0.900000X1.200000*%
%ADD13C,3.429000*%
%ADD14C,2.032000*%
%ADD15C,1.701800*%
%ADD16O,1.750000X1.200000*%
%ADD17R,0.300000X1.300000*%
%ADD18R,1.800000X2.200000*%
%ADD19R,1.500000X1.100000*%
%ADD20R,1.000000X0.900000*%
%ADD21C,4.400000*%
%ADD22C,0.100000*%
G04 APERTURE END LIST*
D10*
X114750000Y-62300000D03*
X114750000Y-63250000D03*
X114750000Y-61350000D03*
X116950000Y-61350000D03*
X116950000Y-62300000D03*
X116950000Y-63250000D03*
D11*
X111750000Y-94300000D03*
X111750000Y-92100000D03*
X113450000Y-92100000D03*
X113450000Y-94300000D03*
G36*
G01*
X117343750Y-55750000D02*
X117856250Y-55750000D01*
G75*
G02*
X118075000Y-55968750I0J-218750D01*
G01*
X118075000Y-56406250D01*
G75*
G02*
X117856250Y-56625000I-218750J0D01*
G01*
X117343750Y-56625000D01*
G75*
G02*
X117125000Y-56406250I0J218750D01*
G01*
X117125000Y-55968750D01*
G75*
G02*
X117343750Y-55750000I218750J0D01*
G01*
G37*
G36*
G01*
X117343750Y-54175000D02*
X117856250Y-54175000D01*
G75*
G02*
X118075000Y-54393750I0J-218750D01*
G01*
X118075000Y-54831250D01*
G75*
G02*
X117856250Y-55050000I-218750J0D01*
G01*
X117343750Y-55050000D01*
G75*
G02*
X117125000Y-54831250I0J218750D01*
G01*
X117125000Y-54393750D01*
G75*
G02*
X117343750Y-54175000I218750J0D01*
G01*
G37*
G36*
G01*
X114825000Y-57025000D02*
X115975000Y-57025000D01*
G75*
G02*
X116225000Y-57275000I0J-250000D01*
G01*
X116225000Y-58375000D01*
G75*
G02*
X115975000Y-58625000I-250000J0D01*
G01*
X114825000Y-58625000D01*
G75*
G02*
X114575000Y-58375000I0J250000D01*
G01*
X114575000Y-57275000D01*
G75*
G02*
X114825000Y-57025000I250000J0D01*
G01*
G37*
G36*
G01*
X114825000Y-54175000D02*
X115975000Y-54175000D01*
G75*
G02*
X116225000Y-54425000I0J-250000D01*
G01*
X116225000Y-55525000D01*
G75*
G02*
X115975000Y-55775000I-250000J0D01*
G01*
X114825000Y-55775000D01*
G75*
G02*
X114575000Y-55525000I0J250000D01*
G01*
X114575000Y-54425000D01*
G75*
G02*
X114825000Y-54175000I250000J0D01*
G01*
G37*
D12*
X120950000Y-58600000D03*
X117650000Y-58600000D03*
D13*
X127720000Y-91940000D03*
D14*
X132720000Y-95740000D03*
X127720000Y-97840000D03*
D15*
X122220000Y-91940000D03*
X133220000Y-91940000D03*
D13*
X150710000Y-91940000D03*
D14*
X155710000Y-95740000D03*
X150710000Y-97840000D03*
D15*
X145210000Y-91940000D03*
X156210000Y-91940000D03*
D13*
X173710000Y-91940000D03*
D14*
X178710000Y-95740000D03*
X173710000Y-97840000D03*
D15*
X168210000Y-91940000D03*
X179210000Y-91940000D03*
D13*
X126010000Y-67240000D03*
D14*
X131010000Y-71040000D03*
X126010000Y-73140000D03*
D15*
X120510000Y-67240000D03*
X131510000Y-67240000D03*
D13*
X175420000Y-67240000D03*
D14*
X180420000Y-71040000D03*
X175420000Y-73140000D03*
D15*
X169920000Y-67240000D03*
X180920000Y-67240000D03*
D16*
X110100000Y-59250000D03*
X110100000Y-61250000D03*
X110100000Y-63250000D03*
G36*
G01*
X110725001Y-65850000D02*
X109474999Y-65850000D01*
G75*
G02*
X109225000Y-65600001I0J249999D01*
G01*
X109225000Y-64899999D01*
G75*
G02*
X109474999Y-64650000I249999J0D01*
G01*
X110725001Y-64650000D01*
G75*
G02*
X110975000Y-64899999I0J-249999D01*
G01*
X110975000Y-65600001D01*
G75*
G02*
X110725001Y-65850000I-249999J0D01*
G01*
G37*
D17*
X152000000Y-101150000D03*
X151500000Y-101150000D03*
X151000000Y-101150000D03*
X150500000Y-101150000D03*
X150000000Y-101150000D03*
X149500000Y-101150000D03*
D18*
X147600000Y-104400000D03*
X153900000Y-104400000D03*
G36*
G01*
X140493750Y-103350000D02*
X141006250Y-103350000D01*
G75*
G02*
X141225000Y-103568750I0J-218750D01*
G01*
X141225000Y-104006250D01*
G75*
G02*
X141006250Y-104225000I-218750J0D01*
G01*
X140493750Y-104225000D01*
G75*
G02*
X140275000Y-104006250I0J218750D01*
G01*
X140275000Y-103568750D01*
G75*
G02*
X140493750Y-103350000I218750J0D01*
G01*
G37*
G36*
G01*
X140493750Y-101775000D02*
X141006250Y-101775000D01*
G75*
G02*
X141225000Y-101993750I0J-218750D01*
G01*
X141225000Y-102431250D01*
G75*
G02*
X141006250Y-102650000I-218750J0D01*
G01*
X140493750Y-102650000D01*
G75*
G02*
X140275000Y-102431250I0J218750D01*
G01*
X140275000Y-101993750D01*
G75*
G02*
X140493750Y-101775000I218750J0D01*
G01*
G37*
G36*
G01*
X142243750Y-104100000D02*
X142756250Y-104100000D01*
G75*
G02*
X142975000Y-104318750I0J-218750D01*
G01*
X142975000Y-104756250D01*
G75*
G02*
X142756250Y-104975000I-218750J0D01*
G01*
X142243750Y-104975000D01*
G75*
G02*
X142025000Y-104756250I0J218750D01*
G01*
X142025000Y-104318750D01*
G75*
G02*
X142243750Y-104100000I218750J0D01*
G01*
G37*
G36*
G01*
X142243750Y-102525000D02*
X142756250Y-102525000D01*
G75*
G02*
X142975000Y-102743750I0J-218750D01*
G01*
X142975000Y-103181250D01*
G75*
G02*
X142756250Y-103400000I-218750J0D01*
G01*
X142243750Y-103400000D01*
G75*
G02*
X142025000Y-103181250I0J218750D01*
G01*
X142025000Y-102743750D01*
G75*
G02*
X142243750Y-102525000I218750J0D01*
G01*
G37*
G36*
G01*
X110256250Y-73150000D02*
X109743750Y-73150000D01*
G75*
G02*
X109525000Y-72931250I0J218750D01*
G01*
X109525000Y-72493750D01*
G75*
G02*
X109743750Y-72275000I218750J0D01*
G01*
X110256250Y-72275000D01*
G75*
G02*
X110475000Y-72493750I0J-218750D01*
G01*
X110475000Y-72931250D01*
G75*
G02*
X110256250Y-73150000I-218750J0D01*
G01*
G37*
G36*
G01*
X110256250Y-74725000D02*
X109743750Y-74725000D01*
G75*
G02*
X109525000Y-74506250I0J218750D01*
G01*
X109525000Y-74068750D01*
G75*
G02*
X109743750Y-73850000I218750J0D01*
G01*
X110256250Y-73850000D01*
G75*
G02*
X110475000Y-74068750I0J-218750D01*
G01*
X110475000Y-74506250D01*
G75*
G02*
X110256250Y-74725000I-218750J0D01*
G01*
G37*
G36*
G01*
X111343750Y-73850000D02*
X111856250Y-73850000D01*
G75*
G02*
X112075000Y-74068750I0J-218750D01*
G01*
X112075000Y-74506250D01*
G75*
G02*
X111856250Y-74725000I-218750J0D01*
G01*
X111343750Y-74725000D01*
G75*
G02*
X111125000Y-74506250I0J218750D01*
G01*
X111125000Y-74068750D01*
G75*
G02*
X111343750Y-73850000I218750J0D01*
G01*
G37*
G36*
G01*
X111343750Y-72275000D02*
X111856250Y-72275000D01*
G75*
G02*
X112075000Y-72493750I0J-218750D01*
G01*
X112075000Y-72931250D01*
G75*
G02*
X111856250Y-73150000I-218750J0D01*
G01*
X111343750Y-73150000D01*
G75*
G02*
X111125000Y-72931250I0J218750D01*
G01*
X111125000Y-72493750D01*
G75*
G02*
X111343750Y-72275000I218750J0D01*
G01*
G37*
D10*
X126550000Y-53050000D03*
X126550000Y-54950000D03*
X124350000Y-54950000D03*
X124350000Y-54000000D03*
X124350000Y-53050000D03*
G36*
G01*
X121943750Y-54850000D02*
X122456250Y-54850000D01*
G75*
G02*
X122675000Y-55068750I0J-218750D01*
G01*
X122675000Y-55506250D01*
G75*
G02*
X122456250Y-55725000I-218750J0D01*
G01*
X121943750Y-55725000D01*
G75*
G02*
X121725000Y-55506250I0J218750D01*
G01*
X121725000Y-55068750D01*
G75*
G02*
X121943750Y-54850000I218750J0D01*
G01*
G37*
G36*
G01*
X121943750Y-53275000D02*
X122456250Y-53275000D01*
G75*
G02*
X122675000Y-53493750I0J-218750D01*
G01*
X122675000Y-53931250D01*
G75*
G02*
X122456250Y-54150000I-218750J0D01*
G01*
X121943750Y-54150000D01*
G75*
G02*
X121725000Y-53931250I0J218750D01*
G01*
X121725000Y-53493750D01*
G75*
G02*
X121943750Y-53275000I218750J0D01*
G01*
G37*
G36*
G01*
X127400000Y-85243750D02*
X127400000Y-85756250D01*
G75*
G02*
X127181250Y-85975000I-218750J0D01*
G01*
X126743750Y-85975000D01*
G75*
G02*
X126525000Y-85756250I0J218750D01*
G01*
X126525000Y-85243750D01*
G75*
G02*
X126743750Y-85025000I218750J0D01*
G01*
X127181250Y-85025000D01*
G75*
G02*
X127400000Y-85243750I0J-218750D01*
G01*
G37*
G36*
G01*
X128975000Y-85243750D02*
X128975000Y-85756250D01*
G75*
G02*
X128756250Y-85975000I-218750J0D01*
G01*
X128318750Y-85975000D01*
G75*
G02*
X128100000Y-85756250I0J218750D01*
G01*
X128100000Y-85243750D01*
G75*
G02*
X128318750Y-85025000I218750J0D01*
G01*
X128756250Y-85025000D01*
G75*
G02*
X128975000Y-85243750I0J-218750D01*
G01*
G37*
G36*
G01*
X150400000Y-85243750D02*
X150400000Y-85756250D01*
G75*
G02*
X150181250Y-85975000I-218750J0D01*
G01*
X149743750Y-85975000D01*
G75*
G02*
X149525000Y-85756250I0J218750D01*
G01*
X149525000Y-85243750D01*
G75*
G02*
X149743750Y-85025000I218750J0D01*
G01*
X150181250Y-85025000D01*
G75*
G02*
X150400000Y-85243750I0J-218750D01*
G01*
G37*
G36*
G01*
X151975000Y-85243750D02*
X151975000Y-85756250D01*
G75*
G02*
X151756250Y-85975000I-218750J0D01*
G01*
X151318750Y-85975000D01*
G75*
G02*
X151100000Y-85756250I0J218750D01*
G01*
X151100000Y-85243750D01*
G75*
G02*
X151318750Y-85025000I218750J0D01*
G01*
X151756250Y-85025000D01*
G75*
G02*
X151975000Y-85243750I0J-218750D01*
G01*
G37*
G36*
G01*
X173400000Y-85243750D02*
X173400000Y-85756250D01*
G75*
G02*
X173181250Y-85975000I-218750J0D01*
G01*
X172743750Y-85975000D01*
G75*
G02*
X172525000Y-85756250I0J218750D01*
G01*
X172525000Y-85243750D01*
G75*
G02*
X172743750Y-85025000I218750J0D01*
G01*
X173181250Y-85025000D01*
G75*
G02*
X173400000Y-85243750I0J-218750D01*
G01*
G37*
G36*
G01*
X174975000Y-85243750D02*
X174975000Y-85756250D01*
G75*
G02*
X174756250Y-85975000I-218750J0D01*
G01*
X174318750Y-85975000D01*
G75*
G02*
X174100000Y-85756250I0J218750D01*
G01*
X174100000Y-85243750D01*
G75*
G02*
X174318750Y-85025000I218750J0D01*
G01*
X174756250Y-85025000D01*
G75*
G02*
X174975000Y-85243750I0J-218750D01*
G01*
G37*
G36*
G01*
X125650000Y-60493750D02*
X125650000Y-61006250D01*
G75*
G02*
X125431250Y-61225000I-218750J0D01*
G01*
X124993750Y-61225000D01*
G75*
G02*
X124775000Y-61006250I0J218750D01*
G01*
X124775000Y-60493750D01*
G75*
G02*
X124993750Y-60275000I218750J0D01*
G01*
X125431250Y-60275000D01*
G75*
G02*
X125650000Y-60493750I0J-218750D01*
G01*
G37*
G36*
G01*
X127225000Y-60493750D02*
X127225000Y-61006250D01*
G75*
G02*
X127006250Y-61225000I-218750J0D01*
G01*
X126568750Y-61225000D01*
G75*
G02*
X126350000Y-61006250I0J218750D01*
G01*
X126350000Y-60493750D01*
G75*
G02*
X126568750Y-60275000I218750J0D01*
G01*
X127006250Y-60275000D01*
G75*
G02*
X127225000Y-60493750I0J-218750D01*
G01*
G37*
G36*
G01*
X175150000Y-60493750D02*
X175150000Y-61006250D01*
G75*
G02*
X174931250Y-61225000I-218750J0D01*
G01*
X174493750Y-61225000D01*
G75*
G02*
X174275000Y-61006250I0J218750D01*
G01*
X174275000Y-60493750D01*
G75*
G02*
X174493750Y-60275000I218750J0D01*
G01*
X174931250Y-60275000D01*
G75*
G02*
X175150000Y-60493750I0J-218750D01*
G01*
G37*
G36*
G01*
X176725000Y-60493750D02*
X176725000Y-61006250D01*
G75*
G02*
X176506250Y-61225000I-218750J0D01*
G01*
X176068750Y-61225000D01*
G75*
G02*
X175850000Y-61006250I0J218750D01*
G01*
X175850000Y-60493750D01*
G75*
G02*
X176068750Y-60275000I218750J0D01*
G01*
X176506250Y-60275000D01*
G75*
G02*
X176725000Y-60493750I0J-218750D01*
G01*
G37*
G36*
G01*
X116506250Y-89650000D02*
X115993750Y-89650000D01*
G75*
G02*
X115775000Y-89431250I0J218750D01*
G01*
X115775000Y-88993750D01*
G75*
G02*
X115993750Y-88775000I218750J0D01*
G01*
X116506250Y-88775000D01*
G75*
G02*
X116725000Y-88993750I0J-218750D01*
G01*
X116725000Y-89431250D01*
G75*
G02*
X116506250Y-89650000I-218750J0D01*
G01*
G37*
G36*
G01*
X116506250Y-91225000D02*
X115993750Y-91225000D01*
G75*
G02*
X115775000Y-91006250I0J218750D01*
G01*
X115775000Y-90568750D01*
G75*
G02*
X115993750Y-90350000I218750J0D01*
G01*
X116506250Y-90350000D01*
G75*
G02*
X116725000Y-90568750I0J-218750D01*
G01*
X116725000Y-91006250D01*
G75*
G02*
X116506250Y-91225000I-218750J0D01*
G01*
G37*
G36*
G01*
X116243750Y-72350000D02*
X116756250Y-72350000D01*
G75*
G02*
X116975000Y-72568750I0J-218750D01*
G01*
X116975000Y-73006250D01*
G75*
G02*
X116756250Y-73225000I-218750J0D01*
G01*
X116243750Y-73225000D01*
G75*
G02*
X116025000Y-73006250I0J218750D01*
G01*
X116025000Y-72568750D01*
G75*
G02*
X116243750Y-72350000I218750J0D01*
G01*
G37*
G36*
G01*
X116243750Y-70775000D02*
X116756250Y-70775000D01*
G75*
G02*
X116975000Y-70993750I0J-218750D01*
G01*
X116975000Y-71431250D01*
G75*
G02*
X116756250Y-71650000I-218750J0D01*
G01*
X116243750Y-71650000D01*
G75*
G02*
X116025000Y-71431250I0J218750D01*
G01*
X116025000Y-70993750D01*
G75*
G02*
X116243750Y-70775000I218750J0D01*
G01*
G37*
G36*
G01*
X114506250Y-73150000D02*
X113993750Y-73150000D01*
G75*
G02*
X113775000Y-72931250I0J218750D01*
G01*
X113775000Y-72493750D01*
G75*
G02*
X113993750Y-72275000I218750J0D01*
G01*
X114506250Y-72275000D01*
G75*
G02*
X114725000Y-72493750I0J-218750D01*
G01*
X114725000Y-72931250D01*
G75*
G02*
X114506250Y-73150000I-218750J0D01*
G01*
G37*
G36*
G01*
X114506250Y-74725000D02*
X113993750Y-74725000D01*
G75*
G02*
X113775000Y-74506250I0J218750D01*
G01*
X113775000Y-74068750D01*
G75*
G02*
X113993750Y-73850000I218750J0D01*
G01*
X114506250Y-73850000D01*
G75*
G02*
X114725000Y-74068750I0J-218750D01*
G01*
X114725000Y-74506250D01*
G75*
G02*
X114506250Y-74725000I-218750J0D01*
G01*
G37*
G36*
G01*
X113243750Y-86600000D02*
X113756250Y-86600000D01*
G75*
G02*
X113975000Y-86818750I0J-218750D01*
G01*
X113975000Y-87256250D01*
G75*
G02*
X113756250Y-87475000I-218750J0D01*
G01*
X113243750Y-87475000D01*
G75*
G02*
X113025000Y-87256250I0J218750D01*
G01*
X113025000Y-86818750D01*
G75*
G02*
X113243750Y-86600000I218750J0D01*
G01*
G37*
G36*
G01*
X113243750Y-85025000D02*
X113756250Y-85025000D01*
G75*
G02*
X113975000Y-85243750I0J-218750D01*
G01*
X113975000Y-85681250D01*
G75*
G02*
X113756250Y-85900000I-218750J0D01*
G01*
X113243750Y-85900000D01*
G75*
G02*
X113025000Y-85681250I0J218750D01*
G01*
X113025000Y-85243750D01*
G75*
G02*
X113243750Y-85025000I218750J0D01*
G01*
G37*
G36*
G01*
X111900000Y-88993750D02*
X111900000Y-89506250D01*
G75*
G02*
X111681250Y-89725000I-218750J0D01*
G01*
X111243750Y-89725000D01*
G75*
G02*
X111025000Y-89506250I0J218750D01*
G01*
X111025000Y-88993750D01*
G75*
G02*
X111243750Y-88775000I218750J0D01*
G01*
X111681250Y-88775000D01*
G75*
G02*
X111900000Y-88993750I0J-218750D01*
G01*
G37*
G36*
G01*
X113475000Y-88993750D02*
X113475000Y-89506250D01*
G75*
G02*
X113256250Y-89725000I-218750J0D01*
G01*
X112818750Y-89725000D01*
G75*
G02*
X112600000Y-89506250I0J218750D01*
G01*
X112600000Y-88993750D01*
G75*
G02*
X112818750Y-88775000I218750J0D01*
G01*
X113256250Y-88775000D01*
G75*
G02*
X113475000Y-88993750I0J-218750D01*
G01*
G37*
G36*
G01*
X112250000Y-96743750D02*
X112250000Y-97256250D01*
G75*
G02*
X112031250Y-97475000I-218750J0D01*
G01*
X111593750Y-97475000D01*
G75*
G02*
X111375000Y-97256250I0J218750D01*
G01*
X111375000Y-96743750D01*
G75*
G02*
X111593750Y-96525000I218750J0D01*
G01*
X112031250Y-96525000D01*
G75*
G02*
X112250000Y-96743750I0J-218750D01*
G01*
G37*
G36*
G01*
X113825000Y-96743750D02*
X113825000Y-97256250D01*
G75*
G02*
X113606250Y-97475000I-218750J0D01*
G01*
X113168750Y-97475000D01*
G75*
G02*
X112950000Y-97256250I0J218750D01*
G01*
X112950000Y-96743750D01*
G75*
G02*
X113168750Y-96525000I218750J0D01*
G01*
X113606250Y-96525000D01*
G75*
G02*
X113825000Y-96743750I0J-218750D01*
G01*
G37*
D19*
X127450000Y-104250000D03*
X118550000Y-104250000D03*
D20*
X136550000Y-105050000D03*
X136550000Y-103450000D03*
X132450000Y-105050000D03*
X132450000Y-103450000D03*
D21*
X132700000Y-80100000D03*
X132700000Y-54100000D03*
X168700000Y-80100000D03*
X168700000Y-54100000D03*
X110050000Y-106200000D03*
X191300000Y-106200000D03*
X191300000Y-52910000D03*
X110050000Y-52950000D03*
D22*
G36*
X112893666Y-82185445D02*
G01*
X112504757Y-81796536D01*
X113636128Y-80665165D01*
X114025037Y-81054074D01*
X112893666Y-82185445D01*
G37*
G36*
X113459352Y-82751130D02*
G01*
X113070443Y-82362221D01*
X114201814Y-81230850D01*
X114590723Y-81619759D01*
X113459352Y-82751130D01*
G37*
G36*
X114025037Y-83316816D02*
G01*
X113636128Y-82927907D01*
X114767499Y-81796536D01*
X115156408Y-82185445D01*
X114025037Y-83316816D01*
G37*
G36*
X114590722Y-83882501D02*
G01*
X114201813Y-83493592D01*
X115333184Y-82362221D01*
X115722093Y-82751130D01*
X114590722Y-83882501D01*
G37*
G36*
X115156408Y-84448187D02*
G01*
X114767499Y-84059278D01*
X115898870Y-82927907D01*
X116287779Y-83316816D01*
X115156408Y-84448187D01*
G37*
G36*
X115722093Y-85013872D02*
G01*
X115333184Y-84624963D01*
X116464555Y-83493592D01*
X116853464Y-83882501D01*
X115722093Y-85013872D01*
G37*
G36*
X116287779Y-85579557D02*
G01*
X115898870Y-85190648D01*
X117030241Y-84059277D01*
X117419150Y-84448186D01*
X116287779Y-85579557D01*
G37*
G36*
X116853464Y-86145243D02*
G01*
X116464555Y-85756334D01*
X117595926Y-84624963D01*
X117984835Y-85013872D01*
X116853464Y-86145243D01*
G37*
G36*
X120035445Y-85756334D02*
G01*
X119646536Y-86145243D01*
X118515165Y-85013872D01*
X118904074Y-84624963D01*
X120035445Y-85756334D01*
G37*
G36*
X120601130Y-85190648D02*
G01*
X120212221Y-85579557D01*
X119080850Y-84448186D01*
X119469759Y-84059277D01*
X120601130Y-85190648D01*
G37*
G36*
X121166816Y-84624963D02*
G01*
X120777907Y-85013872D01*
X119646536Y-83882501D01*
X120035445Y-83493592D01*
X121166816Y-84624963D01*
G37*
G36*
X121732501Y-84059278D02*
G01*
X121343592Y-84448187D01*
X120212221Y-83316816D01*
X120601130Y-82927907D01*
X121732501Y-84059278D01*
G37*
G36*
X122298187Y-83493592D02*
G01*
X121909278Y-83882501D01*
X120777907Y-82751130D01*
X121166816Y-82362221D01*
X122298187Y-83493592D01*
G37*
G36*
X122863872Y-82927907D02*
G01*
X122474963Y-83316816D01*
X121343592Y-82185445D01*
X121732501Y-81796536D01*
X122863872Y-82927907D01*
G37*
G36*
X123429557Y-82362221D02*
G01*
X123040648Y-82751130D01*
X121909277Y-81619759D01*
X122298186Y-81230850D01*
X123429557Y-82362221D01*
G37*
G36*
X123995243Y-81796536D02*
G01*
X123606334Y-82185445D01*
X122474963Y-81054074D01*
X122863872Y-80665165D01*
X123995243Y-81796536D01*
G37*
G36*
X122863872Y-80134835D02*
G01*
X122474963Y-79745926D01*
X123606334Y-78614555D01*
X123995243Y-79003464D01*
X122863872Y-80134835D01*
G37*
G36*
X122298186Y-79569150D02*
G01*
X121909277Y-79180241D01*
X123040648Y-78048870D01*
X123429557Y-78437779D01*
X122298186Y-79569150D01*
G37*
G36*
X121732501Y-79003464D02*
G01*
X121343592Y-78614555D01*
X122474963Y-77483184D01*
X122863872Y-77872093D01*
X121732501Y-79003464D01*
G37*
G36*
X121166816Y-78437779D02*
G01*
X120777907Y-78048870D01*
X121909278Y-76917499D01*
X122298187Y-77306408D01*
X121166816Y-78437779D01*
G37*
G36*
X120601130Y-77872093D02*
G01*
X120212221Y-77483184D01*
X121343592Y-76351813D01*
X121732501Y-76740722D01*
X120601130Y-77872093D01*
G37*
G36*
X120035445Y-77306408D02*
G01*
X119646536Y-76917499D01*
X120777907Y-75786128D01*
X121166816Y-76175037D01*
X120035445Y-77306408D01*
G37*
G36*
X119469759Y-76740723D02*
G01*
X119080850Y-76351814D01*
X120212221Y-75220443D01*
X120601130Y-75609352D01*
X119469759Y-76740723D01*
G37*
G36*
X118904074Y-76175037D02*
G01*
X118515165Y-75786128D01*
X119646536Y-74654757D01*
X120035445Y-75043666D01*
X118904074Y-76175037D01*
G37*
G36*
X117984835Y-75786128D02*
G01*
X117595926Y-76175037D01*
X116464555Y-75043666D01*
X116853464Y-74654757D01*
X117984835Y-75786128D01*
G37*
G36*
X117419150Y-76351814D02*
G01*
X117030241Y-76740723D01*
X115898870Y-75609352D01*
X116287779Y-75220443D01*
X117419150Y-76351814D01*
G37*
G36*
X116853464Y-76917499D02*
G01*
X116464555Y-77306408D01*
X115333184Y-76175037D01*
X115722093Y-75786128D01*
X116853464Y-76917499D01*
G37*
G36*
X116287779Y-77483184D02*
G01*
X115898870Y-77872093D01*
X114767499Y-76740722D01*
X115156408Y-76351813D01*
X116287779Y-77483184D01*
G37*
G36*
X115722093Y-78048870D02*
G01*
X115333184Y-78437779D01*
X114201813Y-77306408D01*
X114590722Y-76917499D01*
X115722093Y-78048870D01*
G37*
G36*
X115156408Y-78614555D02*
G01*
X114767499Y-79003464D01*
X113636128Y-77872093D01*
X114025037Y-77483184D01*
X115156408Y-78614555D01*
G37*
G36*
X114590723Y-79180241D02*
G01*
X114201814Y-79569150D01*
X113070443Y-78437779D01*
X113459352Y-78048870D01*
X114590723Y-79180241D01*
G37*
G36*
X114025037Y-79745926D02*
G01*
X113636128Y-80134835D01*
X112504757Y-79003464D01*
X112893666Y-78614555D01*
X114025037Y-79745926D01*
G37*
M02*
