%TF.GenerationSoftware,KiCad,Pcbnew,(5.1.9)-1*%
%TF.CreationDate,2021-04-10T22:57:16+02:00*%
%TF.ProjectId,reform2-trackball,7265666f-726d-4322-9d74-7261636b6261,rev?*%
%TF.SameCoordinates,Original*%
%TF.FileFunction,Legend,Bot*%
%TF.FilePolarity,Positive*%
%FSLAX46Y46*%
G04 Gerber Fmt 4.6, Leading zero omitted, Abs format (unit mm)*
G04 Created by KiCad (PCBNEW (5.1.9)-1) date 2021-04-10 22:57:16*
%MOMM*%
%LPD*%
G01*
G04 APERTURE LIST*
%ADD10C,0.120000*%
%ADD11C,0.150000*%
G04 APERTURE END LIST*
D10*
X126227500Y-86515000D02*
X128512500Y-86515000D01*
X126227500Y-87985000D02*
X126227500Y-86515000D01*
X128512500Y-87985000D02*
X126227500Y-87985000D01*
X149265000Y-86515000D02*
X151550000Y-86515000D01*
X149265000Y-87985000D02*
X149265000Y-86515000D01*
X151550000Y-87985000D02*
X149265000Y-87985000D01*
X172265000Y-86515000D02*
X174550000Y-86515000D01*
X172265000Y-87985000D02*
X172265000Y-86515000D01*
X174550000Y-87985000D02*
X172265000Y-87985000D01*
X124515000Y-61765000D02*
X126800000Y-61765000D01*
X124515000Y-63235000D02*
X124515000Y-61765000D01*
X126800000Y-63235000D02*
X124515000Y-63235000D01*
X174015000Y-61765000D02*
X176300000Y-61765000D01*
X174015000Y-63235000D02*
X174015000Y-61765000D01*
X176300000Y-63235000D02*
X174015000Y-63235000D01*
D11*
X129053333Y-100644761D02*
X128910476Y-100692380D01*
X128672380Y-100692380D01*
X128577142Y-100644761D01*
X128529523Y-100597142D01*
X128481904Y-100501904D01*
X128481904Y-100406666D01*
X128529523Y-100311428D01*
X128577142Y-100263809D01*
X128672380Y-100216190D01*
X128862857Y-100168571D01*
X128958095Y-100120952D01*
X129005714Y-100073333D01*
X129053333Y-99978095D01*
X129053333Y-99882857D01*
X129005714Y-99787619D01*
X128958095Y-99740000D01*
X128862857Y-99692380D01*
X128624761Y-99692380D01*
X128481904Y-99740000D01*
X128148571Y-99692380D02*
X127910476Y-100692380D01*
X127720000Y-99978095D01*
X127529523Y-100692380D01*
X127291428Y-99692380D01*
X126434285Y-99692380D02*
X126910476Y-99692380D01*
X126958095Y-100168571D01*
X126910476Y-100120952D01*
X126815238Y-100073333D01*
X126577142Y-100073333D01*
X126481904Y-100120952D01*
X126434285Y-100168571D01*
X126386666Y-100263809D01*
X126386666Y-100501904D01*
X126434285Y-100597142D01*
X126481904Y-100644761D01*
X126577142Y-100692380D01*
X126815238Y-100692380D01*
X126910476Y-100644761D01*
X126958095Y-100597142D01*
X152033333Y-100504761D02*
X151890476Y-100552380D01*
X151652380Y-100552380D01*
X151557142Y-100504761D01*
X151509523Y-100457142D01*
X151461904Y-100361904D01*
X151461904Y-100266666D01*
X151509523Y-100171428D01*
X151557142Y-100123809D01*
X151652380Y-100076190D01*
X151842857Y-100028571D01*
X151938095Y-99980952D01*
X151985714Y-99933333D01*
X152033333Y-99838095D01*
X152033333Y-99742857D01*
X151985714Y-99647619D01*
X151938095Y-99600000D01*
X151842857Y-99552380D01*
X151604761Y-99552380D01*
X151461904Y-99600000D01*
X151128571Y-99552380D02*
X150890476Y-100552380D01*
X150700000Y-99838095D01*
X150509523Y-100552380D01*
X150271428Y-99552380D01*
X149461904Y-99885714D02*
X149461904Y-100552380D01*
X149700000Y-99504761D02*
X149938095Y-100219047D01*
X149319047Y-100219047D01*
X175043333Y-100644761D02*
X174900476Y-100692380D01*
X174662380Y-100692380D01*
X174567142Y-100644761D01*
X174519523Y-100597142D01*
X174471904Y-100501904D01*
X174471904Y-100406666D01*
X174519523Y-100311428D01*
X174567142Y-100263809D01*
X174662380Y-100216190D01*
X174852857Y-100168571D01*
X174948095Y-100120952D01*
X174995714Y-100073333D01*
X175043333Y-99978095D01*
X175043333Y-99882857D01*
X174995714Y-99787619D01*
X174948095Y-99740000D01*
X174852857Y-99692380D01*
X174614761Y-99692380D01*
X174471904Y-99740000D01*
X174138571Y-99692380D02*
X173900476Y-100692380D01*
X173710000Y-99978095D01*
X173519523Y-100692380D01*
X173281428Y-99692380D01*
X172995714Y-99692380D02*
X172376666Y-99692380D01*
X172710000Y-100073333D01*
X172567142Y-100073333D01*
X172471904Y-100120952D01*
X172424285Y-100168571D01*
X172376666Y-100263809D01*
X172376666Y-100501904D01*
X172424285Y-100597142D01*
X172471904Y-100644761D01*
X172567142Y-100692380D01*
X172852857Y-100692380D01*
X172948095Y-100644761D01*
X172995714Y-100597142D01*
X127343333Y-75944761D02*
X127200476Y-75992380D01*
X126962380Y-75992380D01*
X126867142Y-75944761D01*
X126819523Y-75897142D01*
X126771904Y-75801904D01*
X126771904Y-75706666D01*
X126819523Y-75611428D01*
X126867142Y-75563809D01*
X126962380Y-75516190D01*
X127152857Y-75468571D01*
X127248095Y-75420952D01*
X127295714Y-75373333D01*
X127343333Y-75278095D01*
X127343333Y-75182857D01*
X127295714Y-75087619D01*
X127248095Y-75040000D01*
X127152857Y-74992380D01*
X126914761Y-74992380D01*
X126771904Y-75040000D01*
X126438571Y-74992380D02*
X126200476Y-75992380D01*
X126010000Y-75278095D01*
X125819523Y-75992380D01*
X125581428Y-74992380D01*
X125248095Y-75087619D02*
X125200476Y-75040000D01*
X125105238Y-74992380D01*
X124867142Y-74992380D01*
X124771904Y-75040000D01*
X124724285Y-75087619D01*
X124676666Y-75182857D01*
X124676666Y-75278095D01*
X124724285Y-75420952D01*
X125295714Y-75992380D01*
X124676666Y-75992380D01*
X176753333Y-75944761D02*
X176610476Y-75992380D01*
X176372380Y-75992380D01*
X176277142Y-75944761D01*
X176229523Y-75897142D01*
X176181904Y-75801904D01*
X176181904Y-75706666D01*
X176229523Y-75611428D01*
X176277142Y-75563809D01*
X176372380Y-75516190D01*
X176562857Y-75468571D01*
X176658095Y-75420952D01*
X176705714Y-75373333D01*
X176753333Y-75278095D01*
X176753333Y-75182857D01*
X176705714Y-75087619D01*
X176658095Y-75040000D01*
X176562857Y-74992380D01*
X176324761Y-74992380D01*
X176181904Y-75040000D01*
X175848571Y-74992380D02*
X175610476Y-75992380D01*
X175420000Y-75278095D01*
X175229523Y-75992380D01*
X174991428Y-74992380D01*
X174086666Y-75992380D02*
X174658095Y-75992380D01*
X174372380Y-75992380D02*
X174372380Y-74992380D01*
X174467619Y-75135238D01*
X174562857Y-75230476D01*
X174658095Y-75278095D01*
X128450595Y-89382380D02*
X128450595Y-88382380D01*
X128212500Y-88382380D01*
X128069642Y-88430000D01*
X127974404Y-88525238D01*
X127926785Y-88620476D01*
X127879166Y-88810952D01*
X127879166Y-88953809D01*
X127926785Y-89144285D01*
X127974404Y-89239523D01*
X128069642Y-89334761D01*
X128212500Y-89382380D01*
X128450595Y-89382380D01*
X126974404Y-88382380D02*
X127450595Y-88382380D01*
X127498214Y-88858571D01*
X127450595Y-88810952D01*
X127355357Y-88763333D01*
X127117261Y-88763333D01*
X127022023Y-88810952D01*
X126974404Y-88858571D01*
X126926785Y-88953809D01*
X126926785Y-89191904D01*
X126974404Y-89287142D01*
X127022023Y-89334761D01*
X127117261Y-89382380D01*
X127355357Y-89382380D01*
X127450595Y-89334761D01*
X127498214Y-89287142D01*
X151488095Y-89382380D02*
X151488095Y-88382380D01*
X151250000Y-88382380D01*
X151107142Y-88430000D01*
X151011904Y-88525238D01*
X150964285Y-88620476D01*
X150916666Y-88810952D01*
X150916666Y-88953809D01*
X150964285Y-89144285D01*
X151011904Y-89239523D01*
X151107142Y-89334761D01*
X151250000Y-89382380D01*
X151488095Y-89382380D01*
X150059523Y-88715714D02*
X150059523Y-89382380D01*
X150297619Y-88334761D02*
X150535714Y-89049047D01*
X149916666Y-89049047D01*
X174488095Y-89382380D02*
X174488095Y-88382380D01*
X174250000Y-88382380D01*
X174107142Y-88430000D01*
X174011904Y-88525238D01*
X173964285Y-88620476D01*
X173916666Y-88810952D01*
X173916666Y-88953809D01*
X173964285Y-89144285D01*
X174011904Y-89239523D01*
X174107142Y-89334761D01*
X174250000Y-89382380D01*
X174488095Y-89382380D01*
X173583333Y-88382380D02*
X172964285Y-88382380D01*
X173297619Y-88763333D01*
X173154761Y-88763333D01*
X173059523Y-88810952D01*
X173011904Y-88858571D01*
X172964285Y-88953809D01*
X172964285Y-89191904D01*
X173011904Y-89287142D01*
X173059523Y-89334761D01*
X173154761Y-89382380D01*
X173440476Y-89382380D01*
X173535714Y-89334761D01*
X173583333Y-89287142D01*
X126738095Y-64632380D02*
X126738095Y-63632380D01*
X126500000Y-63632380D01*
X126357142Y-63680000D01*
X126261904Y-63775238D01*
X126214285Y-63870476D01*
X126166666Y-64060952D01*
X126166666Y-64203809D01*
X126214285Y-64394285D01*
X126261904Y-64489523D01*
X126357142Y-64584761D01*
X126500000Y-64632380D01*
X126738095Y-64632380D01*
X125785714Y-63727619D02*
X125738095Y-63680000D01*
X125642857Y-63632380D01*
X125404761Y-63632380D01*
X125309523Y-63680000D01*
X125261904Y-63727619D01*
X125214285Y-63822857D01*
X125214285Y-63918095D01*
X125261904Y-64060952D01*
X125833333Y-64632380D01*
X125214285Y-64632380D01*
X176238095Y-64632380D02*
X176238095Y-63632380D01*
X176000000Y-63632380D01*
X175857142Y-63680000D01*
X175761904Y-63775238D01*
X175714285Y-63870476D01*
X175666666Y-64060952D01*
X175666666Y-64203809D01*
X175714285Y-64394285D01*
X175761904Y-64489523D01*
X175857142Y-64584761D01*
X176000000Y-64632380D01*
X176238095Y-64632380D01*
X174714285Y-64632380D02*
X175285714Y-64632380D01*
X175000000Y-64632380D02*
X175000000Y-63632380D01*
X175095238Y-63775238D01*
X175190476Y-63870476D01*
X175285714Y-63918095D01*
M02*
