%TF.GenerationSoftware,KiCad,Pcbnew,(5.1.9)-1*%
%TF.CreationDate,2021-04-10T22:56:49+02:00*%
%TF.ProjectId,reform2-oled,7265666f-726d-4322-9d6f-6c65642e6b69,D-1*%
%TF.SameCoordinates,Original*%
%TF.FileFunction,Paste,Bot*%
%TF.FilePolarity,Positive*%
%FSLAX46Y46*%
G04 Gerber Fmt 4.6, Leading zero omitted, Abs format (unit mm)*
G04 Created by KiCad (PCBNEW (5.1.9)-1) date 2021-04-10 22:56:49*
%MOMM*%
%LPD*%
G01*
G04 APERTURE LIST*
%ADD10R,1.000000X0.400000*%
%ADD11R,1.300000X2.000000*%
G04 APERTURE END LIST*
G36*
G01*
X177050000Y-99262500D02*
X177050000Y-99737500D01*
G75*
G02*
X176812500Y-99975000I-237500J0D01*
G01*
X176237500Y-99975000D01*
G75*
G02*
X176000000Y-99737500I0J237500D01*
G01*
X176000000Y-99262500D01*
G75*
G02*
X176237500Y-99025000I237500J0D01*
G01*
X176812500Y-99025000D01*
G75*
G02*
X177050000Y-99262500I0J-237500D01*
G01*
G37*
G36*
G01*
X178800000Y-99262500D02*
X178800000Y-99737500D01*
G75*
G02*
X178562500Y-99975000I-237500J0D01*
G01*
X177987500Y-99975000D01*
G75*
G02*
X177750000Y-99737500I0J237500D01*
G01*
X177750000Y-99262500D01*
G75*
G02*
X177987500Y-99025000I237500J0D01*
G01*
X178562500Y-99025000D01*
G75*
G02*
X178800000Y-99262500I0J-237500D01*
G01*
G37*
D10*
X169790000Y-96400000D03*
X169790000Y-95400000D03*
X169790000Y-94400000D03*
X169790000Y-93400000D03*
D11*
X172490000Y-99200000D03*
X172490000Y-90600000D03*
G36*
G01*
X181550000Y-99737500D02*
X181550000Y-99262500D01*
G75*
G02*
X181787500Y-99025000I237500J0D01*
G01*
X182362500Y-99025000D01*
G75*
G02*
X182600000Y-99262500I0J-237500D01*
G01*
X182600000Y-99737500D01*
G75*
G02*
X182362500Y-99975000I-237500J0D01*
G01*
X181787500Y-99975000D01*
G75*
G02*
X181550000Y-99737500I0J237500D01*
G01*
G37*
G36*
G01*
X179800000Y-99737500D02*
X179800000Y-99262500D01*
G75*
G02*
X180037500Y-99025000I237500J0D01*
G01*
X180612500Y-99025000D01*
G75*
G02*
X180850000Y-99262500I0J-237500D01*
G01*
X180850000Y-99737500D01*
G75*
G02*
X180612500Y-99975000I-237500J0D01*
G01*
X180037500Y-99975000D01*
G75*
G02*
X179800000Y-99737500I0J237500D01*
G01*
G37*
G36*
G01*
X161262500Y-94850000D02*
X161737500Y-94850000D01*
G75*
G02*
X161975000Y-95087500I0J-237500D01*
G01*
X161975000Y-95662500D01*
G75*
G02*
X161737500Y-95900000I-237500J0D01*
G01*
X161262500Y-95900000D01*
G75*
G02*
X161025000Y-95662500I0J237500D01*
G01*
X161025000Y-95087500D01*
G75*
G02*
X161262500Y-94850000I237500J0D01*
G01*
G37*
G36*
G01*
X161262500Y-93100000D02*
X161737500Y-93100000D01*
G75*
G02*
X161975000Y-93337500I0J-237500D01*
G01*
X161975000Y-93912500D01*
G75*
G02*
X161737500Y-94150000I-237500J0D01*
G01*
X161262500Y-94150000D01*
G75*
G02*
X161025000Y-93912500I0J237500D01*
G01*
X161025000Y-93337500D01*
G75*
G02*
X161262500Y-93100000I237500J0D01*
G01*
G37*
G36*
G01*
X164850000Y-97537500D02*
X164850000Y-97062500D01*
G75*
G02*
X165087500Y-96825000I237500J0D01*
G01*
X165662500Y-96825000D01*
G75*
G02*
X165900000Y-97062500I0J-237500D01*
G01*
X165900000Y-97537500D01*
G75*
G02*
X165662500Y-97775000I-237500J0D01*
G01*
X165087500Y-97775000D01*
G75*
G02*
X164850000Y-97537500I0J237500D01*
G01*
G37*
G36*
G01*
X163100000Y-97537500D02*
X163100000Y-97062500D01*
G75*
G02*
X163337500Y-96825000I237500J0D01*
G01*
X163912500Y-96825000D01*
G75*
G02*
X164150000Y-97062500I0J-237500D01*
G01*
X164150000Y-97537500D01*
G75*
G02*
X163912500Y-97775000I-237500J0D01*
G01*
X163337500Y-97775000D01*
G75*
G02*
X163100000Y-97537500I0J237500D01*
G01*
G37*
G36*
G01*
X162050000Y-99262500D02*
X162050000Y-99737500D01*
G75*
G02*
X161812500Y-99975000I-237500J0D01*
G01*
X161237500Y-99975000D01*
G75*
G02*
X161000000Y-99737500I0J237500D01*
G01*
X161000000Y-99262500D01*
G75*
G02*
X161237500Y-99025000I237500J0D01*
G01*
X161812500Y-99025000D01*
G75*
G02*
X162050000Y-99262500I0J-237500D01*
G01*
G37*
G36*
G01*
X163800000Y-99262500D02*
X163800000Y-99737500D01*
G75*
G02*
X163562500Y-99975000I-237500J0D01*
G01*
X162987500Y-99975000D01*
G75*
G02*
X162750000Y-99737500I0J237500D01*
G01*
X162750000Y-99262500D01*
G75*
G02*
X162987500Y-99025000I237500J0D01*
G01*
X163562500Y-99025000D01*
G75*
G02*
X163800000Y-99262500I0J-237500D01*
G01*
G37*
G36*
G01*
X164150000Y-89662500D02*
X164150000Y-90137500D01*
G75*
G02*
X163912500Y-90375000I-237500J0D01*
G01*
X163337500Y-90375000D01*
G75*
G02*
X163100000Y-90137500I0J237500D01*
G01*
X163100000Y-89662500D01*
G75*
G02*
X163337500Y-89425000I237500J0D01*
G01*
X163912500Y-89425000D01*
G75*
G02*
X164150000Y-89662500I0J-237500D01*
G01*
G37*
G36*
G01*
X165900000Y-89662500D02*
X165900000Y-90137500D01*
G75*
G02*
X165662500Y-90375000I-237500J0D01*
G01*
X165087500Y-90375000D01*
G75*
G02*
X164850000Y-90137500I0J237500D01*
G01*
X164850000Y-89662500D01*
G75*
G02*
X165087500Y-89425000I237500J0D01*
G01*
X165662500Y-89425000D01*
G75*
G02*
X165900000Y-89662500I0J-237500D01*
G01*
G37*
G36*
G01*
X161737500Y-90050000D02*
X161262500Y-90050000D01*
G75*
G02*
X161025000Y-89812500I0J237500D01*
G01*
X161025000Y-89237500D01*
G75*
G02*
X161262500Y-89000000I237500J0D01*
G01*
X161737500Y-89000000D01*
G75*
G02*
X161975000Y-89237500I0J-237500D01*
G01*
X161975000Y-89812500D01*
G75*
G02*
X161737500Y-90050000I-237500J0D01*
G01*
G37*
G36*
G01*
X161737500Y-91800000D02*
X161262500Y-91800000D01*
G75*
G02*
X161025000Y-91562500I0J237500D01*
G01*
X161025000Y-90987500D01*
G75*
G02*
X161262500Y-90750000I237500J0D01*
G01*
X161737500Y-90750000D01*
G75*
G02*
X161975000Y-90987500I0J-237500D01*
G01*
X161975000Y-91562500D01*
G75*
G02*
X161737500Y-91800000I-237500J0D01*
G01*
G37*
G36*
G01*
X163737500Y-94150000D02*
X163262500Y-94150000D01*
G75*
G02*
X163025000Y-93912500I0J237500D01*
G01*
X163025000Y-93337500D01*
G75*
G02*
X163262500Y-93100000I237500J0D01*
G01*
X163737500Y-93100000D01*
G75*
G02*
X163975000Y-93337500I0J-237500D01*
G01*
X163975000Y-93912500D01*
G75*
G02*
X163737500Y-94150000I-237500J0D01*
G01*
G37*
G36*
G01*
X163737500Y-95900000D02*
X163262500Y-95900000D01*
G75*
G02*
X163025000Y-95662500I0J237500D01*
G01*
X163025000Y-95087500D01*
G75*
G02*
X163262500Y-94850000I237500J0D01*
G01*
X163737500Y-94850000D01*
G75*
G02*
X163975000Y-95087500I0J-237500D01*
G01*
X163975000Y-95662500D01*
G75*
G02*
X163737500Y-95900000I-237500J0D01*
G01*
G37*
G36*
G01*
X165737500Y-94150000D02*
X165262500Y-94150000D01*
G75*
G02*
X165025000Y-93912500I0J237500D01*
G01*
X165025000Y-93337500D01*
G75*
G02*
X165262500Y-93100000I237500J0D01*
G01*
X165737500Y-93100000D01*
G75*
G02*
X165975000Y-93337500I0J-237500D01*
G01*
X165975000Y-93912500D01*
G75*
G02*
X165737500Y-94150000I-237500J0D01*
G01*
G37*
G36*
G01*
X165737500Y-95900000D02*
X165262500Y-95900000D01*
G75*
G02*
X165025000Y-95662500I0J237500D01*
G01*
X165025000Y-95087500D01*
G75*
G02*
X165262500Y-94850000I237500J0D01*
G01*
X165737500Y-94850000D01*
G75*
G02*
X165975000Y-95087500I0J-237500D01*
G01*
X165975000Y-95662500D01*
G75*
G02*
X165737500Y-95900000I-237500J0D01*
G01*
G37*
M02*
