%TF.GenerationSoftware,KiCad,Pcbnew,(5.1.9)-1*%
%TF.CreationDate,2021-04-10T17:42:20+02:00*%
%TF.ProjectId,reform2-motherboard,7265666f-726d-4322-9d6d-6f7468657262,2.0*%
%TF.SameCoordinates,Original*%
%TF.FileFunction,Soldermask,Bot*%
%TF.FilePolarity,Negative*%
%FSLAX46Y46*%
G04 Gerber Fmt 4.6, Leading zero omitted, Abs format (unit mm)*
G04 Created by KiCad (PCBNEW (5.1.9)-1) date 2021-04-10 17:42:20*
%MOMM*%
%LPD*%
G01*
G04 APERTURE LIST*
%TA.AperFunction,Profile*%
%ADD10C,0.050000*%
%TD*%
%ADD11O,1.802000X1.802000*%
%ADD12O,1.102000X1.102000*%
%ADD13C,5.102000*%
%ADD14C,0.802000*%
%ADD15C,1.402000*%
%ADD16C,3.402000*%
%ADD17C,1.500000*%
%ADD18C,2.007000*%
%ADD19C,2.457000*%
%ADD20O,1.302000X1.852000*%
%ADD21O,1.452000X1.452000*%
%ADD22C,3.902000*%
%ADD23C,1.202000*%
%ADD24C,1.702000*%
%ADD25C,1.102000*%
%ADD26C,1.302000*%
%ADD27O,3.658000X1.880000*%
%ADD28O,3.102000X1.602000*%
%ADD29C,2.502000*%
%ADD30C,1.752000*%
%ADD31O,1.852000X4.102000*%
%ADD32O,4.102000X1.902000*%
%ADD33O,2.102000X4.102000*%
%ADD34C,0.100000*%
G04 APERTURE END LIST*
D10*
X315500000Y-133000000D02*
X315000000Y-133500000D01*
X315500000Y-41000000D02*
X315500000Y-133000000D01*
X40000000Y-133500000D02*
X39500000Y-133000000D01*
X40500000Y-40000000D02*
X39500000Y-41000000D01*
X314500000Y-40000000D02*
X315500000Y-41000000D01*
X315000000Y-133500000D02*
X40000000Y-133500000D01*
X39500000Y-133000000D02*
X39500000Y-41000000D01*
X40500000Y-40000000D02*
X314500000Y-40000000D01*
X315500000Y-133000000D02*
X315000000Y-133500000D01*
X315500000Y-41000000D02*
X315500000Y-133000000D01*
X40000000Y-133500000D02*
X39500000Y-133000000D01*
X40500000Y-40000000D02*
X39500000Y-41000000D01*
X314500000Y-40000000D02*
X315500000Y-41000000D01*
X315000000Y-133500000D02*
X40000000Y-133500000D01*
X39500000Y-133000000D02*
X39500000Y-41000000D01*
X40500000Y-40000000D02*
X314500000Y-40000000D01*
D11*
%TO.C,J22*%
X234460000Y-81820000D03*
X237000000Y-81820000D03*
X234460000Y-84360000D03*
X237000000Y-84360000D03*
X234460000Y-86900000D03*
X237000000Y-86900000D03*
X234460000Y-89440000D03*
X237000000Y-89440000D03*
X234460000Y-91980000D03*
X237000000Y-91980000D03*
X234460000Y-94520000D03*
X237000000Y-94520000D03*
X234460000Y-97060000D03*
X237000000Y-97060000D03*
X234460000Y-99600000D03*
G36*
G01*
X237901000Y-98750000D02*
X237901000Y-100450000D01*
G75*
G02*
X237850000Y-100501000I-51000J0D01*
G01*
X236150000Y-100501000D01*
G75*
G02*
X236099000Y-100450000I0J51000D01*
G01*
X236099000Y-98750000D01*
G75*
G02*
X236150000Y-98699000I51000J0D01*
G01*
X237850000Y-98699000D01*
G75*
G02*
X237901000Y-98750000I0J-51000D01*
G01*
G37*
%TD*%
D12*
%TO.C,J19*%
X235420000Y-70470000D03*
X235420000Y-69200000D03*
X236690000Y-70470000D03*
X236690000Y-69200000D03*
X237960000Y-70470000D03*
X237960000Y-69200000D03*
X239230000Y-70470000D03*
X239230000Y-69200000D03*
X240500000Y-70470000D03*
G36*
G01*
X240000000Y-68649000D02*
X241000000Y-68649000D01*
G75*
G02*
X241051000Y-68700000I0J-51000D01*
G01*
X241051000Y-69700000D01*
G75*
G02*
X241000000Y-69751000I-51000J0D01*
G01*
X240000000Y-69751000D01*
G75*
G02*
X239949000Y-69700000I0J51000D01*
G01*
X239949000Y-68700000D01*
G75*
G02*
X240000000Y-68649000I51000J0D01*
G01*
G37*
%TD*%
D13*
%TO.C,H3*%
X142400000Y-88750000D03*
%TD*%
%TO.C,H2*%
X142400000Y-106750000D03*
%TD*%
%TO.C,H1*%
X142400000Y-126750000D03*
%TD*%
D14*
%TO.C,J8*%
X155625000Y-129350000D03*
X151475000Y-129350000D03*
%TD*%
D15*
%TO.C,J17*%
X53560000Y-75000000D03*
X53560000Y-73000000D03*
X53560000Y-71000000D03*
X53560000Y-77000000D03*
X53560000Y-79000000D03*
X52060000Y-76000000D03*
X52060000Y-74000000D03*
X52060000Y-78500000D03*
X52060000Y-71500000D03*
D16*
X50060000Y-81570000D03*
X50060000Y-68430000D03*
%TD*%
D15*
%TO.C,J6*%
X53560000Y-97500000D03*
X53560000Y-95500000D03*
X53560000Y-93500000D03*
X53560000Y-99500000D03*
X53560000Y-101500000D03*
X52060000Y-98500000D03*
X52060000Y-96500000D03*
X52060000Y-101000000D03*
X52060000Y-94000000D03*
D16*
X50060000Y-104070000D03*
X50060000Y-90930000D03*
%TD*%
%TO.C,J5*%
X50060000Y-113430000D03*
X50060000Y-126570000D03*
D15*
X52060000Y-116500000D03*
X52060000Y-123500000D03*
X52060000Y-119000000D03*
X52060000Y-121000000D03*
X53560000Y-124000000D03*
X53560000Y-122000000D03*
X53560000Y-116000000D03*
X53560000Y-118000000D03*
X53560000Y-120000000D03*
%TD*%
D11*
%TO.C,J18*%
X186520000Y-127500000D03*
X189060000Y-127500000D03*
G36*
G01*
X190750000Y-126599000D02*
X192450000Y-126599000D01*
G75*
G02*
X192501000Y-126650000I0J-51000D01*
G01*
X192501000Y-128350000D01*
G75*
G02*
X192450000Y-128401000I-51000J0D01*
G01*
X190750000Y-128401000D01*
G75*
G02*
X190699000Y-128350000I0J51000D01*
G01*
X190699000Y-126650000D01*
G75*
G02*
X190750000Y-126599000I51000J0D01*
G01*
G37*
%TD*%
D17*
%TO.C,P1*%
X293860000Y-70035000D03*
X293860000Y-72065000D03*
X293860000Y-74095000D03*
X293860000Y-65965000D03*
X293860000Y-63935000D03*
X293860000Y-61905000D03*
X296400000Y-69015000D03*
X296400000Y-66985000D03*
X296400000Y-64955000D03*
G36*
G01*
X295701000Y-62175000D02*
X297099000Y-62175000D01*
G75*
G02*
X297150000Y-62226000I0J-51000D01*
G01*
X297150000Y-63624000D01*
G75*
G02*
X297099000Y-63675000I-51000J0D01*
G01*
X295701000Y-63675000D01*
G75*
G02*
X295650000Y-63624000I0J51000D01*
G01*
X295650000Y-62226000D01*
G75*
G02*
X295701000Y-62175000I51000J0D01*
G01*
G37*
X296400000Y-71045000D03*
X296400000Y-73075000D03*
D18*
X311890000Y-75520000D03*
X309350000Y-75520000D03*
X306810000Y-75520000D03*
X311890000Y-60480000D03*
X309350000Y-60480000D03*
D19*
X303000000Y-76790000D03*
X303000000Y-59210000D03*
%TD*%
D20*
%TO.C,J21*%
X292570000Y-43730000D03*
X294570000Y-43730000D03*
X296570000Y-43730000D03*
G36*
G01*
X299221000Y-43075248D02*
X299221000Y-44384752D01*
G75*
G02*
X298949752Y-44656000I-271248J0D01*
G01*
X298190248Y-44656000D01*
G75*
G02*
X297919000Y-44384752I0J271248D01*
G01*
X297919000Y-43075248D01*
G75*
G02*
X298190248Y-42804000I271248J0D01*
G01*
X298949752Y-42804000D01*
G75*
G02*
X299221000Y-43075248I0J-271248D01*
G01*
G37*
%TD*%
D21*
%TO.C,J16*%
X300300000Y-95825000D03*
X302300000Y-95825000D03*
G36*
G01*
X303625000Y-95099000D02*
X304975000Y-95099000D01*
G75*
G02*
X305026000Y-95150000I0J-51000D01*
G01*
X305026000Y-96500000D01*
G75*
G02*
X304975000Y-96551000I-51000J0D01*
G01*
X303625000Y-96551000D01*
G75*
G02*
X303574000Y-96500000I0J51000D01*
G01*
X303574000Y-95150000D01*
G75*
G02*
X303625000Y-95099000I51000J0D01*
G01*
G37*
%TD*%
D20*
%TO.C,J23*%
X241000000Y-75100000D03*
X239000000Y-75100000D03*
X237000000Y-75100000D03*
G36*
G01*
X234349000Y-75754752D02*
X234349000Y-74445248D01*
G75*
G02*
X234620248Y-74174000I271248J0D01*
G01*
X235379752Y-74174000D01*
G75*
G02*
X235651000Y-74445248I0J-271248D01*
G01*
X235651000Y-75754752D01*
G75*
G02*
X235379752Y-76026000I-271248J0D01*
G01*
X234620248Y-76026000D01*
G75*
G02*
X234349000Y-75754752I0J271248D01*
G01*
G37*
%TD*%
%TO.C,J14*%
X74900000Y-131000000D03*
X76900000Y-131000000D03*
X78900000Y-131000000D03*
G36*
G01*
X81551000Y-130345248D02*
X81551000Y-131654752D01*
G75*
G02*
X81279752Y-131926000I-271248J0D01*
G01*
X80520248Y-131926000D01*
G75*
G02*
X80249000Y-131654752I0J271248D01*
G01*
X80249000Y-130345248D01*
G75*
G02*
X80520248Y-130074000I271248J0D01*
G01*
X81279752Y-130074000D01*
G75*
G02*
X81551000Y-130345248I0J-271248D01*
G01*
G37*
%TD*%
%TO.C,J9*%
X62800000Y-131000000D03*
X64800000Y-131000000D03*
X66800000Y-131000000D03*
G36*
G01*
X69451000Y-130345248D02*
X69451000Y-131654752D01*
G75*
G02*
X69179752Y-131926000I-271248J0D01*
G01*
X68420248Y-131926000D01*
G75*
G02*
X68149000Y-131654752I0J271248D01*
G01*
X68149000Y-130345248D01*
G75*
G02*
X68420248Y-130074000I271248J0D01*
G01*
X69179752Y-130074000D01*
G75*
G02*
X69451000Y-130345248I0J-271248D01*
G01*
G37*
%TD*%
D13*
%TO.C,H25*%
X169500000Y-117000000D03*
%TD*%
%TO.C,H27*%
X205250000Y-107000000D03*
%TD*%
%TO.C,H24*%
X192500000Y-117000000D03*
%TD*%
%TO.C,H22*%
X205250000Y-47000000D03*
%TD*%
D22*
%TO.C,H8*%
X312928000Y-130480000D03*
%TD*%
%TO.C,H6*%
X312928000Y-43940000D03*
%TD*%
%TO.C,H7*%
X42040000Y-130480000D03*
%TD*%
%TO.C,H5*%
X42040000Y-43940000D03*
%TD*%
D21*
%TO.C,J24*%
X64500000Y-44000000D03*
X64500000Y-42000000D03*
X66500000Y-44000000D03*
X66500000Y-42000000D03*
X68500000Y-44000000D03*
X68500000Y-42000000D03*
X70500000Y-44000000D03*
X70500000Y-42000000D03*
X72500000Y-44000000D03*
X72500000Y-42000000D03*
X74500000Y-44000000D03*
X74500000Y-42000000D03*
X76500000Y-44000000D03*
X76500000Y-42000000D03*
X78500000Y-44000000D03*
X78500000Y-42000000D03*
X80500000Y-44000000D03*
X80500000Y-42000000D03*
X82500000Y-44000000D03*
X82500000Y-42000000D03*
X84500000Y-44000000D03*
X84500000Y-42000000D03*
X86500000Y-44000000D03*
X86500000Y-42000000D03*
X88500000Y-44000000D03*
X88500000Y-42000000D03*
X90500000Y-44000000D03*
X90500000Y-42000000D03*
X92500000Y-44000000D03*
G36*
G01*
X91825000Y-41274000D02*
X93175000Y-41274000D01*
G75*
G02*
X93226000Y-41325000I0J-51000D01*
G01*
X93226000Y-42675000D01*
G75*
G02*
X93175000Y-42726000I-51000J0D01*
G01*
X91825000Y-42726000D01*
G75*
G02*
X91774000Y-42675000I0J51000D01*
G01*
X91774000Y-41325000D01*
G75*
G02*
X91825000Y-41274000I51000J0D01*
G01*
G37*
%TD*%
D23*
%TO.C,U1*%
X161000000Y-110400000D03*
D24*
X161000000Y-43600000D03*
%TD*%
D25*
%TO.C,J3*%
X312000000Y-126200000D03*
D26*
X307000000Y-100000000D03*
%TD*%
D11*
%TO.C,J20*%
X186520000Y-123700000D03*
X189060000Y-123700000D03*
G36*
G01*
X190750000Y-122799000D02*
X192450000Y-122799000D01*
G75*
G02*
X192501000Y-122850000I0J-51000D01*
G01*
X192501000Y-124550000D01*
G75*
G02*
X192450000Y-124601000I-51000J0D01*
G01*
X190750000Y-124601000D01*
G75*
G02*
X190699000Y-124550000I0J51000D01*
G01*
X190699000Y-122850000D01*
G75*
G02*
X190750000Y-122799000I51000J0D01*
G01*
G37*
%TD*%
D27*
%TO.C,J4*%
X48700000Y-48450000D03*
X48700000Y-62950000D03*
D28*
X42700000Y-48450000D03*
X42700000Y-62950000D03*
%TD*%
D24*
%TO.C,J10*%
X152500000Y-48750000D03*
D23*
X132500000Y-48750000D03*
%TD*%
D29*
%TO.C,J11*%
X123240000Y-97400000D03*
D30*
X99040000Y-97400000D03*
%TD*%
D31*
%TO.C,J1*%
X308750000Y-51500000D03*
D32*
X305500000Y-46700000D03*
D33*
X302500000Y-51500000D03*
%TD*%
D34*
G36*
X52759614Y-123540972D02*
G01*
X52761395Y-123559057D01*
X52768395Y-123582132D01*
X52779760Y-123603396D01*
X52795055Y-123622033D01*
X52813692Y-123637328D01*
X52834956Y-123648693D01*
X52858031Y-123655693D01*
X52882022Y-123658056D01*
X52906013Y-123655693D01*
X52929088Y-123648693D01*
X52950352Y-123637328D01*
X52968989Y-123622033D01*
X52980511Y-123607992D01*
X52982383Y-123607288D01*
X52983929Y-123608556D01*
X52983720Y-123610372D01*
X52943546Y-123670498D01*
X52891109Y-123797092D01*
X52864376Y-123931489D01*
X52864376Y-123958832D01*
X52863376Y-123960564D01*
X52861376Y-123960564D01*
X52860386Y-123959028D01*
X52858605Y-123940943D01*
X52851605Y-123917868D01*
X52840240Y-123896604D01*
X52824945Y-123877967D01*
X52806308Y-123862672D01*
X52785044Y-123851307D01*
X52761969Y-123844307D01*
X52737978Y-123841944D01*
X52713987Y-123844307D01*
X52690912Y-123851307D01*
X52669648Y-123862672D01*
X52651011Y-123877967D01*
X52639489Y-123892008D01*
X52637617Y-123892712D01*
X52636071Y-123891444D01*
X52636280Y-123889628D01*
X52676454Y-123829502D01*
X52728891Y-123702908D01*
X52755624Y-123568511D01*
X52755624Y-123541168D01*
X52756624Y-123539436D01*
X52758624Y-123539436D01*
X52759614Y-123540972D01*
G37*
G36*
X52863541Y-116039542D02*
G01*
X52864376Y-116041168D01*
X52864376Y-116068511D01*
X52891109Y-116202908D01*
X52943546Y-116329502D01*
X52983720Y-116389628D01*
X52983851Y-116391624D01*
X52982188Y-116392735D01*
X52980511Y-116392008D01*
X52968989Y-116377967D01*
X52950352Y-116362672D01*
X52929088Y-116351307D01*
X52906013Y-116344307D01*
X52882022Y-116341944D01*
X52858031Y-116344307D01*
X52834956Y-116351307D01*
X52813692Y-116362672D01*
X52795055Y-116377967D01*
X52779760Y-116396604D01*
X52768395Y-116417868D01*
X52761395Y-116440943D01*
X52759614Y-116459028D01*
X52758449Y-116460654D01*
X52756459Y-116460458D01*
X52755624Y-116458832D01*
X52755624Y-116431489D01*
X52728891Y-116297092D01*
X52676454Y-116170498D01*
X52636280Y-116110372D01*
X52636149Y-116108376D01*
X52637812Y-116107265D01*
X52639489Y-116107992D01*
X52651011Y-116122033D01*
X52669648Y-116137328D01*
X52690912Y-116148693D01*
X52713987Y-116155693D01*
X52737978Y-116158056D01*
X52761969Y-116155693D01*
X52785044Y-116148693D01*
X52806308Y-116137328D01*
X52824945Y-116122033D01*
X52840240Y-116103396D01*
X52851605Y-116082132D01*
X52858605Y-116059057D01*
X52860386Y-116040972D01*
X52861551Y-116039346D01*
X52863541Y-116039542D01*
G37*
G36*
X52759614Y-101040972D02*
G01*
X52761395Y-101059057D01*
X52768395Y-101082132D01*
X52779760Y-101103396D01*
X52795055Y-101122033D01*
X52813692Y-101137328D01*
X52834956Y-101148693D01*
X52858031Y-101155693D01*
X52882022Y-101158056D01*
X52906013Y-101155693D01*
X52929088Y-101148693D01*
X52950352Y-101137328D01*
X52968989Y-101122033D01*
X52980511Y-101107992D01*
X52982383Y-101107288D01*
X52983929Y-101108556D01*
X52983720Y-101110372D01*
X52943546Y-101170498D01*
X52891109Y-101297092D01*
X52864376Y-101431489D01*
X52864376Y-101458832D01*
X52863376Y-101460564D01*
X52861376Y-101460564D01*
X52860386Y-101459028D01*
X52858605Y-101440943D01*
X52851605Y-101417868D01*
X52840240Y-101396604D01*
X52824945Y-101377967D01*
X52806308Y-101362672D01*
X52785044Y-101351307D01*
X52761969Y-101344307D01*
X52737978Y-101341944D01*
X52713987Y-101344307D01*
X52690912Y-101351307D01*
X52669648Y-101362672D01*
X52651011Y-101377967D01*
X52639489Y-101392008D01*
X52637617Y-101392712D01*
X52636071Y-101391444D01*
X52636280Y-101389628D01*
X52676454Y-101329502D01*
X52728891Y-101202908D01*
X52755624Y-101068511D01*
X52755624Y-101041168D01*
X52756624Y-101039436D01*
X52758624Y-101039436D01*
X52759614Y-101040972D01*
G37*
G36*
X52863541Y-93539542D02*
G01*
X52864376Y-93541168D01*
X52864376Y-93568511D01*
X52891109Y-93702908D01*
X52943546Y-93829502D01*
X52983720Y-93889628D01*
X52983851Y-93891624D01*
X52982188Y-93892735D01*
X52980511Y-93892008D01*
X52968989Y-93877967D01*
X52950352Y-93862672D01*
X52929088Y-93851307D01*
X52906013Y-93844307D01*
X52882022Y-93841944D01*
X52858031Y-93844307D01*
X52834956Y-93851307D01*
X52813692Y-93862672D01*
X52795055Y-93877967D01*
X52779760Y-93896604D01*
X52768395Y-93917868D01*
X52761395Y-93940943D01*
X52759614Y-93959028D01*
X52758449Y-93960654D01*
X52756459Y-93960458D01*
X52755624Y-93958832D01*
X52755624Y-93931489D01*
X52728891Y-93797092D01*
X52676454Y-93670498D01*
X52636280Y-93610372D01*
X52636149Y-93608376D01*
X52637812Y-93607265D01*
X52639489Y-93607992D01*
X52651011Y-93622033D01*
X52669648Y-93637328D01*
X52690912Y-93648693D01*
X52713987Y-93655693D01*
X52737978Y-93658056D01*
X52761969Y-93655693D01*
X52785044Y-93648693D01*
X52806308Y-93637328D01*
X52824945Y-93622033D01*
X52840240Y-93603396D01*
X52851605Y-93582132D01*
X52858605Y-93559057D01*
X52860386Y-93540972D01*
X52861551Y-93539346D01*
X52863541Y-93539542D01*
G37*
G36*
X52759614Y-78540972D02*
G01*
X52761395Y-78559057D01*
X52768395Y-78582132D01*
X52779760Y-78603396D01*
X52795055Y-78622033D01*
X52813692Y-78637328D01*
X52834956Y-78648693D01*
X52858031Y-78655693D01*
X52882022Y-78658056D01*
X52906013Y-78655693D01*
X52929088Y-78648693D01*
X52950352Y-78637328D01*
X52968989Y-78622033D01*
X52980511Y-78607992D01*
X52982383Y-78607288D01*
X52983929Y-78608556D01*
X52983720Y-78610372D01*
X52943546Y-78670498D01*
X52891109Y-78797092D01*
X52864376Y-78931489D01*
X52864376Y-78958832D01*
X52863376Y-78960564D01*
X52861376Y-78960564D01*
X52860386Y-78959028D01*
X52858605Y-78940943D01*
X52851605Y-78917868D01*
X52840240Y-78896604D01*
X52824945Y-78877967D01*
X52806308Y-78862672D01*
X52785044Y-78851307D01*
X52761969Y-78844307D01*
X52737978Y-78841944D01*
X52713987Y-78844307D01*
X52690912Y-78851307D01*
X52669648Y-78862672D01*
X52651011Y-78877967D01*
X52639489Y-78892008D01*
X52637617Y-78892712D01*
X52636071Y-78891444D01*
X52636280Y-78889628D01*
X52676454Y-78829502D01*
X52728891Y-78702908D01*
X52755624Y-78568511D01*
X52755624Y-78541168D01*
X52756624Y-78539436D01*
X52758624Y-78539436D01*
X52759614Y-78540972D01*
G37*
G36*
X52863541Y-71039542D02*
G01*
X52864376Y-71041168D01*
X52864376Y-71068511D01*
X52891109Y-71202908D01*
X52943546Y-71329502D01*
X52983720Y-71389628D01*
X52983851Y-71391624D01*
X52982188Y-71392735D01*
X52980511Y-71392008D01*
X52968989Y-71377967D01*
X52950352Y-71362672D01*
X52929088Y-71351307D01*
X52906013Y-71344307D01*
X52882022Y-71341944D01*
X52858031Y-71344307D01*
X52834956Y-71351307D01*
X52813692Y-71362672D01*
X52795055Y-71377967D01*
X52779760Y-71396604D01*
X52768395Y-71417868D01*
X52761395Y-71440943D01*
X52759614Y-71459028D01*
X52758449Y-71460654D01*
X52756459Y-71460458D01*
X52755624Y-71458832D01*
X52755624Y-71431489D01*
X52728891Y-71297092D01*
X52676454Y-71170498D01*
X52636280Y-71110372D01*
X52636149Y-71108376D01*
X52637812Y-71107265D01*
X52639489Y-71107992D01*
X52651011Y-71122033D01*
X52669648Y-71137328D01*
X52690912Y-71148693D01*
X52713987Y-71155693D01*
X52737978Y-71158056D01*
X52761969Y-71155693D01*
X52785044Y-71148693D01*
X52806308Y-71137328D01*
X52824945Y-71122033D01*
X52840240Y-71103396D01*
X52851605Y-71082132D01*
X52858605Y-71059057D01*
X52860386Y-71040972D01*
X52861551Y-71039346D01*
X52863541Y-71039542D01*
G37*
G36*
X238709287Y-70297256D02*
G01*
X238709437Y-70299077D01*
X238704650Y-70310635D01*
X238683653Y-70416192D01*
X238683653Y-70523808D01*
X238704650Y-70629365D01*
X238709437Y-70640923D01*
X238709176Y-70642906D01*
X238707328Y-70643671D01*
X238705825Y-70642631D01*
X238697262Y-70626609D01*
X238681967Y-70607972D01*
X238663330Y-70592677D01*
X238642066Y-70581312D01*
X238618991Y-70574312D01*
X238595000Y-70571949D01*
X238571009Y-70574312D01*
X238547934Y-70581312D01*
X238526670Y-70592677D01*
X238508033Y-70607972D01*
X238492738Y-70626609D01*
X238484175Y-70642631D01*
X238482476Y-70643687D01*
X238480713Y-70642744D01*
X238480563Y-70640923D01*
X238485350Y-70629365D01*
X238506347Y-70523808D01*
X238506347Y-70416192D01*
X238485350Y-70310635D01*
X238480563Y-70299077D01*
X238480824Y-70297094D01*
X238482672Y-70296329D01*
X238484175Y-70297369D01*
X238492738Y-70313391D01*
X238508033Y-70332028D01*
X238526670Y-70347323D01*
X238547934Y-70358688D01*
X238571009Y-70365688D01*
X238595000Y-70368051D01*
X238618991Y-70365688D01*
X238642066Y-70358688D01*
X238663330Y-70347323D01*
X238681967Y-70332028D01*
X238697262Y-70313391D01*
X238705825Y-70297369D01*
X238707524Y-70296313D01*
X238709287Y-70297256D01*
G37*
G36*
X236169287Y-70297256D02*
G01*
X236169437Y-70299077D01*
X236164650Y-70310635D01*
X236143653Y-70416192D01*
X236143653Y-70523808D01*
X236164650Y-70629365D01*
X236169437Y-70640923D01*
X236169176Y-70642906D01*
X236167328Y-70643671D01*
X236165825Y-70642631D01*
X236157262Y-70626609D01*
X236141967Y-70607972D01*
X236123330Y-70592677D01*
X236102066Y-70581312D01*
X236078991Y-70574312D01*
X236055000Y-70571949D01*
X236031009Y-70574312D01*
X236007934Y-70581312D01*
X235986670Y-70592677D01*
X235968033Y-70607972D01*
X235952738Y-70626609D01*
X235944175Y-70642631D01*
X235942476Y-70643687D01*
X235940713Y-70642744D01*
X235940563Y-70640923D01*
X235945350Y-70629365D01*
X235966347Y-70523808D01*
X235966347Y-70416192D01*
X235945350Y-70310635D01*
X235940563Y-70299077D01*
X235940824Y-70297094D01*
X235942672Y-70296329D01*
X235944175Y-70297369D01*
X235952738Y-70313391D01*
X235968033Y-70332028D01*
X235986670Y-70347323D01*
X236007934Y-70358688D01*
X236031009Y-70365688D01*
X236055000Y-70368051D01*
X236078991Y-70365688D01*
X236102066Y-70358688D01*
X236123330Y-70347323D01*
X236141967Y-70332028D01*
X236157262Y-70313391D01*
X236165825Y-70297369D01*
X236167524Y-70296313D01*
X236169287Y-70297256D01*
G37*
G36*
X237439287Y-70297256D02*
G01*
X237439437Y-70299077D01*
X237434650Y-70310635D01*
X237413653Y-70416192D01*
X237413653Y-70523808D01*
X237434650Y-70629365D01*
X237439437Y-70640923D01*
X237439176Y-70642906D01*
X237437328Y-70643671D01*
X237435825Y-70642631D01*
X237427262Y-70626609D01*
X237411967Y-70607972D01*
X237393330Y-70592677D01*
X237372066Y-70581312D01*
X237348991Y-70574312D01*
X237325000Y-70571949D01*
X237301009Y-70574312D01*
X237277934Y-70581312D01*
X237256670Y-70592677D01*
X237238033Y-70607972D01*
X237222738Y-70626609D01*
X237214175Y-70642631D01*
X237212476Y-70643687D01*
X237210713Y-70642744D01*
X237210563Y-70640923D01*
X237215350Y-70629365D01*
X237236347Y-70523808D01*
X237236347Y-70416192D01*
X237215350Y-70310635D01*
X237210563Y-70299077D01*
X237210824Y-70297094D01*
X237212672Y-70296329D01*
X237214175Y-70297369D01*
X237222738Y-70313391D01*
X237238033Y-70332028D01*
X237256670Y-70347323D01*
X237277934Y-70358688D01*
X237301009Y-70365688D01*
X237325000Y-70368051D01*
X237348991Y-70365688D01*
X237372066Y-70358688D01*
X237393330Y-70347323D01*
X237411967Y-70332028D01*
X237427262Y-70313391D01*
X237435825Y-70297369D01*
X237437524Y-70296313D01*
X237439287Y-70297256D01*
G37*
G36*
X239979287Y-70297256D02*
G01*
X239979437Y-70299077D01*
X239974650Y-70310635D01*
X239953653Y-70416192D01*
X239953653Y-70523808D01*
X239974650Y-70629365D01*
X239979437Y-70640923D01*
X239979176Y-70642906D01*
X239977328Y-70643671D01*
X239975825Y-70642631D01*
X239967262Y-70626609D01*
X239951967Y-70607972D01*
X239933330Y-70592677D01*
X239912066Y-70581312D01*
X239888991Y-70574312D01*
X239865000Y-70571949D01*
X239841009Y-70574312D01*
X239817934Y-70581312D01*
X239796670Y-70592677D01*
X239778033Y-70607972D01*
X239762738Y-70626609D01*
X239754175Y-70642631D01*
X239752476Y-70643687D01*
X239750713Y-70642744D01*
X239750563Y-70640923D01*
X239755350Y-70629365D01*
X239776347Y-70523808D01*
X239776347Y-70416192D01*
X239755350Y-70310635D01*
X239750563Y-70299077D01*
X239750824Y-70297094D01*
X239752672Y-70296329D01*
X239754175Y-70297369D01*
X239762738Y-70313391D01*
X239778033Y-70332028D01*
X239796670Y-70347323D01*
X239817934Y-70358688D01*
X239841009Y-70365688D01*
X239865000Y-70368051D01*
X239888991Y-70365688D01*
X239912066Y-70358688D01*
X239933330Y-70347323D01*
X239951967Y-70332028D01*
X239967262Y-70313391D01*
X239975825Y-70297369D01*
X239977524Y-70296313D01*
X239979287Y-70297256D01*
G37*
G36*
X240823654Y-69750000D02*
G01*
X240823654Y-69752000D01*
X240822118Y-69752990D01*
X240797931Y-69755372D01*
X240774856Y-69762372D01*
X240753592Y-69773737D01*
X240734955Y-69789032D01*
X240719660Y-69807669D01*
X240708295Y-69828933D01*
X240701295Y-69852008D01*
X240698932Y-69875998D01*
X240701295Y-69899990D01*
X240708295Y-69923065D01*
X240719660Y-69944329D01*
X240734955Y-69962966D01*
X240753670Y-69978324D01*
X240757998Y-69981216D01*
X240758883Y-69983010D01*
X240757772Y-69984673D01*
X240756122Y-69984727D01*
X240659365Y-69944650D01*
X240553808Y-69923653D01*
X240446192Y-69923653D01*
X240340635Y-69944650D01*
X240243878Y-69984727D01*
X240241895Y-69984466D01*
X240241130Y-69982618D01*
X240242002Y-69981216D01*
X240246330Y-69978324D01*
X240265045Y-69962965D01*
X240280340Y-69944328D01*
X240291705Y-69923065D01*
X240298705Y-69899990D01*
X240301068Y-69875998D01*
X240298705Y-69852007D01*
X240291705Y-69828932D01*
X240280340Y-69807669D01*
X240265044Y-69789032D01*
X240246407Y-69773737D01*
X240225144Y-69762372D01*
X240202069Y-69755372D01*
X240177882Y-69752990D01*
X240176256Y-69751825D01*
X240176452Y-69749835D01*
X240178078Y-69749000D01*
X240821922Y-69749000D01*
X240823654Y-69750000D01*
G37*
G36*
X235592906Y-69720824D02*
G01*
X235593671Y-69722672D01*
X235592631Y-69724175D01*
X235576609Y-69732738D01*
X235557972Y-69748033D01*
X235542677Y-69766670D01*
X235531312Y-69787934D01*
X235524312Y-69811009D01*
X235521949Y-69835000D01*
X235524312Y-69858991D01*
X235531312Y-69882066D01*
X235542677Y-69903330D01*
X235557972Y-69921967D01*
X235576609Y-69937262D01*
X235592631Y-69945825D01*
X235593687Y-69947524D01*
X235592744Y-69949287D01*
X235590923Y-69949437D01*
X235579365Y-69944650D01*
X235473808Y-69923653D01*
X235366192Y-69923653D01*
X235260635Y-69944650D01*
X235249077Y-69949437D01*
X235247094Y-69949176D01*
X235246329Y-69947328D01*
X235247369Y-69945825D01*
X235263391Y-69937262D01*
X235282028Y-69921967D01*
X235297323Y-69903330D01*
X235308688Y-69882066D01*
X235315688Y-69858991D01*
X235318051Y-69835000D01*
X235315688Y-69811009D01*
X235308688Y-69787934D01*
X235297323Y-69766670D01*
X235282028Y-69748033D01*
X235263391Y-69732738D01*
X235247369Y-69724175D01*
X235246313Y-69722476D01*
X235247256Y-69720713D01*
X235249077Y-69720563D01*
X235260635Y-69725350D01*
X235366192Y-69746347D01*
X235473808Y-69746347D01*
X235579365Y-69725350D01*
X235590923Y-69720563D01*
X235592906Y-69720824D01*
G37*
G36*
X239402906Y-69720824D02*
G01*
X239403671Y-69722672D01*
X239402631Y-69724175D01*
X239386609Y-69732738D01*
X239367972Y-69748033D01*
X239352677Y-69766670D01*
X239341312Y-69787934D01*
X239334312Y-69811009D01*
X239331949Y-69835000D01*
X239334312Y-69858991D01*
X239341312Y-69882066D01*
X239352677Y-69903330D01*
X239367972Y-69921967D01*
X239386609Y-69937262D01*
X239402631Y-69945825D01*
X239403687Y-69947524D01*
X239402744Y-69949287D01*
X239400923Y-69949437D01*
X239389365Y-69944650D01*
X239283808Y-69923653D01*
X239176192Y-69923653D01*
X239070635Y-69944650D01*
X239059077Y-69949437D01*
X239057094Y-69949176D01*
X239056329Y-69947328D01*
X239057369Y-69945825D01*
X239073391Y-69937262D01*
X239092028Y-69921967D01*
X239107323Y-69903330D01*
X239118688Y-69882066D01*
X239125688Y-69858991D01*
X239128051Y-69835000D01*
X239125688Y-69811009D01*
X239118688Y-69787934D01*
X239107323Y-69766670D01*
X239092028Y-69748033D01*
X239073391Y-69732738D01*
X239057369Y-69724175D01*
X239056313Y-69722476D01*
X239057256Y-69720713D01*
X239059077Y-69720563D01*
X239070635Y-69725350D01*
X239176192Y-69746347D01*
X239283808Y-69746347D01*
X239389365Y-69725350D01*
X239400923Y-69720563D01*
X239402906Y-69720824D01*
G37*
G36*
X238132906Y-69720824D02*
G01*
X238133671Y-69722672D01*
X238132631Y-69724175D01*
X238116609Y-69732738D01*
X238097972Y-69748033D01*
X238082677Y-69766670D01*
X238071312Y-69787934D01*
X238064312Y-69811009D01*
X238061949Y-69835000D01*
X238064312Y-69858991D01*
X238071312Y-69882066D01*
X238082677Y-69903330D01*
X238097972Y-69921967D01*
X238116609Y-69937262D01*
X238132631Y-69945825D01*
X238133687Y-69947524D01*
X238132744Y-69949287D01*
X238130923Y-69949437D01*
X238119365Y-69944650D01*
X238013808Y-69923653D01*
X237906192Y-69923653D01*
X237800635Y-69944650D01*
X237789077Y-69949437D01*
X237787094Y-69949176D01*
X237786329Y-69947328D01*
X237787369Y-69945825D01*
X237803391Y-69937262D01*
X237822028Y-69921967D01*
X237837323Y-69903330D01*
X237848688Y-69882066D01*
X237855688Y-69858991D01*
X237858051Y-69835000D01*
X237855688Y-69811009D01*
X237848688Y-69787934D01*
X237837323Y-69766670D01*
X237822028Y-69748033D01*
X237803391Y-69732738D01*
X237787369Y-69724175D01*
X237786313Y-69722476D01*
X237787256Y-69720713D01*
X237789077Y-69720563D01*
X237800635Y-69725350D01*
X237906192Y-69746347D01*
X238013808Y-69746347D01*
X238119365Y-69725350D01*
X238130923Y-69720563D01*
X238132906Y-69720824D01*
G37*
G36*
X236862906Y-69720824D02*
G01*
X236863671Y-69722672D01*
X236862631Y-69724175D01*
X236846609Y-69732738D01*
X236827972Y-69748033D01*
X236812677Y-69766670D01*
X236801312Y-69787934D01*
X236794312Y-69811009D01*
X236791949Y-69835000D01*
X236794312Y-69858991D01*
X236801312Y-69882066D01*
X236812677Y-69903330D01*
X236827972Y-69921967D01*
X236846609Y-69937262D01*
X236862631Y-69945825D01*
X236863687Y-69947524D01*
X236862744Y-69949287D01*
X236860923Y-69949437D01*
X236849365Y-69944650D01*
X236743808Y-69923653D01*
X236636192Y-69923653D01*
X236530635Y-69944650D01*
X236519077Y-69949437D01*
X236517094Y-69949176D01*
X236516329Y-69947328D01*
X236517369Y-69945825D01*
X236533391Y-69937262D01*
X236552028Y-69921967D01*
X236567323Y-69903330D01*
X236578688Y-69882066D01*
X236585688Y-69858991D01*
X236588051Y-69835000D01*
X236585688Y-69811009D01*
X236578688Y-69787934D01*
X236567323Y-69766670D01*
X236552028Y-69748033D01*
X236533391Y-69732738D01*
X236517369Y-69724175D01*
X236516313Y-69722476D01*
X236517256Y-69720713D01*
X236519077Y-69720563D01*
X236530635Y-69725350D01*
X236636192Y-69746347D01*
X236743808Y-69746347D01*
X236849365Y-69725350D01*
X236860923Y-69720563D01*
X236862906Y-69720824D01*
G37*
G36*
X239950165Y-68876452D02*
G01*
X239951000Y-68878078D01*
X239951000Y-69521922D01*
X239950000Y-69523654D01*
X239948000Y-69523654D01*
X239947010Y-69522118D01*
X239944628Y-69497931D01*
X239937628Y-69474856D01*
X239926263Y-69453592D01*
X239910968Y-69434955D01*
X239892331Y-69419660D01*
X239871067Y-69408295D01*
X239847992Y-69401295D01*
X239824001Y-69398932D01*
X239800010Y-69401295D01*
X239776935Y-69408295D01*
X239755671Y-69419660D01*
X239737034Y-69434955D01*
X239721676Y-69453670D01*
X239718784Y-69457998D01*
X239716990Y-69458883D01*
X239715327Y-69457772D01*
X239715273Y-69456122D01*
X239755350Y-69359365D01*
X239776347Y-69253808D01*
X239776347Y-69146192D01*
X239755350Y-69040635D01*
X239715273Y-68943878D01*
X239715534Y-68941895D01*
X239717382Y-68941130D01*
X239718784Y-68942002D01*
X239721676Y-68946330D01*
X239737035Y-68965045D01*
X239755672Y-68980340D01*
X239776935Y-68991705D01*
X239800010Y-68998705D01*
X239824002Y-69001068D01*
X239847993Y-68998705D01*
X239871068Y-68991705D01*
X239892331Y-68980340D01*
X239910968Y-68965044D01*
X239926263Y-68946407D01*
X239937628Y-68925144D01*
X239944628Y-68902069D01*
X239947010Y-68877882D01*
X239948175Y-68876256D01*
X239950165Y-68876452D01*
G37*
G36*
X236169287Y-69027256D02*
G01*
X236169437Y-69029077D01*
X236164650Y-69040635D01*
X236143653Y-69146192D01*
X236143653Y-69253808D01*
X236164650Y-69359365D01*
X236169437Y-69370923D01*
X236169176Y-69372906D01*
X236167328Y-69373671D01*
X236165825Y-69372631D01*
X236157262Y-69356609D01*
X236141967Y-69337972D01*
X236123330Y-69322677D01*
X236102066Y-69311312D01*
X236078991Y-69304312D01*
X236055000Y-69301949D01*
X236031009Y-69304312D01*
X236007934Y-69311312D01*
X235986670Y-69322677D01*
X235968033Y-69337972D01*
X235952738Y-69356609D01*
X235944175Y-69372631D01*
X235942476Y-69373687D01*
X235940713Y-69372744D01*
X235940563Y-69370923D01*
X235945350Y-69359365D01*
X235966347Y-69253808D01*
X235966347Y-69146192D01*
X235945350Y-69040635D01*
X235940563Y-69029077D01*
X235940824Y-69027094D01*
X235942672Y-69026329D01*
X235944175Y-69027369D01*
X235952738Y-69043391D01*
X235968033Y-69062028D01*
X235986670Y-69077323D01*
X236007934Y-69088688D01*
X236031009Y-69095688D01*
X236055000Y-69098051D01*
X236078991Y-69095688D01*
X236102066Y-69088688D01*
X236123330Y-69077323D01*
X236141967Y-69062028D01*
X236157262Y-69043391D01*
X236165825Y-69027369D01*
X236167524Y-69026313D01*
X236169287Y-69027256D01*
G37*
G36*
X238709287Y-69027256D02*
G01*
X238709437Y-69029077D01*
X238704650Y-69040635D01*
X238683653Y-69146192D01*
X238683653Y-69253808D01*
X238704650Y-69359365D01*
X238709437Y-69370923D01*
X238709176Y-69372906D01*
X238707328Y-69373671D01*
X238705825Y-69372631D01*
X238697262Y-69356609D01*
X238681967Y-69337972D01*
X238663330Y-69322677D01*
X238642066Y-69311312D01*
X238618991Y-69304312D01*
X238595000Y-69301949D01*
X238571009Y-69304312D01*
X238547934Y-69311312D01*
X238526670Y-69322677D01*
X238508033Y-69337972D01*
X238492738Y-69356609D01*
X238484175Y-69372631D01*
X238482476Y-69373687D01*
X238480713Y-69372744D01*
X238480563Y-69370923D01*
X238485350Y-69359365D01*
X238506347Y-69253808D01*
X238506347Y-69146192D01*
X238485350Y-69040635D01*
X238480563Y-69029077D01*
X238480824Y-69027094D01*
X238482672Y-69026329D01*
X238484175Y-69027369D01*
X238492738Y-69043391D01*
X238508033Y-69062028D01*
X238526670Y-69077323D01*
X238547934Y-69088688D01*
X238571009Y-69095688D01*
X238595000Y-69098051D01*
X238618991Y-69095688D01*
X238642066Y-69088688D01*
X238663330Y-69077323D01*
X238681967Y-69062028D01*
X238697262Y-69043391D01*
X238705825Y-69027369D01*
X238707524Y-69026313D01*
X238709287Y-69027256D01*
G37*
G36*
X237439287Y-69027256D02*
G01*
X237439437Y-69029077D01*
X237434650Y-69040635D01*
X237413653Y-69146192D01*
X237413653Y-69253808D01*
X237434650Y-69359365D01*
X237439437Y-69370923D01*
X237439176Y-69372906D01*
X237437328Y-69373671D01*
X237435825Y-69372631D01*
X237427262Y-69356609D01*
X237411967Y-69337972D01*
X237393330Y-69322677D01*
X237372066Y-69311312D01*
X237348991Y-69304312D01*
X237325000Y-69301949D01*
X237301009Y-69304312D01*
X237277934Y-69311312D01*
X237256670Y-69322677D01*
X237238033Y-69337972D01*
X237222738Y-69356609D01*
X237214175Y-69372631D01*
X237212476Y-69373687D01*
X237210713Y-69372744D01*
X237210563Y-69370923D01*
X237215350Y-69359365D01*
X237236347Y-69253808D01*
X237236347Y-69146192D01*
X237215350Y-69040635D01*
X237210563Y-69029077D01*
X237210824Y-69027094D01*
X237212672Y-69026329D01*
X237214175Y-69027369D01*
X237222738Y-69043391D01*
X237238033Y-69062028D01*
X237256670Y-69077323D01*
X237277934Y-69088688D01*
X237301009Y-69095688D01*
X237325000Y-69098051D01*
X237348991Y-69095688D01*
X237372066Y-69088688D01*
X237393330Y-69077323D01*
X237411967Y-69062028D01*
X237427262Y-69043391D01*
X237435825Y-69027369D01*
X237437524Y-69026313D01*
X237439287Y-69027256D01*
G37*
M02*
