solid PARTassembly
   facet normal -1.0000 0.0000 0.0000
      outer loop
         vertex 0.0000 1.7000 0.0000
         vertex 0.0000 1.6421 -0.4400
         vertex 0.0000 1.6421 0.4400
      endloop
   endfacet
   facet normal -1.0000 0.0000 0.0000
      outer loop
         vertex 0.0000 1.6421 0.4400
         vertex 0.0000 1.6421 -0.4400
         vertex 0.0000 1.4722 -0.8500
      endloop
   endfacet
   facet normal -1.0000 0.0000 0.0000
      outer loop
         vertex 0.0000 1.6421 0.4400
         vertex 0.0000 1.4722 -0.8500
         vertex 0.0000 1.4722 0.8500
      endloop
   endfacet
   facet normal -1.0000 0.0000 0.0000
      outer loop
         vertex 0.0000 1.4722 0.8500
         vertex 0.0000 1.4722 -0.8500
         vertex 0.0000 1.2021 -1.2021
      endloop
   endfacet
   facet normal -1.0000 0.0000 0.0000
      outer loop
         vertex 0.0000 1.4722 0.8500
         vertex 0.0000 1.2021 -1.2021
         vertex 0.0000 1.2021 1.2021
      endloop
   endfacet
   facet normal -1.0000 0.0000 0.0000
      outer loop
         vertex 0.0000 1.2021 1.2021
         vertex 0.0000 1.2021 -1.2021
         vertex 0.0000 1.0000 0.0000
      endloop
   endfacet
   facet normal -1.0000 0.0000 0.0000
      outer loop
         vertex 0.0000 1.2021 1.2021
         vertex 0.0000 1.0000 0.0000
         vertex 0.0000 0.9659 0.2588
      endloop
   endfacet
   facet normal -1.0000 0.0000 0.0000
      outer loop
         vertex 0.0000 0.5000 -0.8660
         vertex 0.0000 0.7071 -0.7071
         vertex 0.0000 0.8500 -1.4722
      endloop
   endfacet
   facet normal -1.0000 0.0000 0.0000
      outer loop
         vertex 0.0000 0.8500 -1.4722
         vertex 0.0000 0.7071 -0.7071
         vertex 0.0000 0.8660 -0.5000
      endloop
   endfacet
   facet normal -1.0000 0.0000 0.0000
      outer loop
         vertex 0.0000 0.8500 -1.4722
         vertex 0.0000 0.8660 -0.5000
         vertex 0.0000 1.2021 -1.2021
      endloop
   endfacet
   facet normal -1.0000 0.0000 0.0000
      outer loop
         vertex 0.0000 1.2021 -1.2021
         vertex 0.0000 0.8660 -0.5000
         vertex 0.0000 0.9659 -0.2588
      endloop
   endfacet
   facet normal -1.0000 0.0000 0.0000
      outer loop
         vertex 0.0000 1.2021 -1.2021
         vertex 0.0000 0.9659 -0.2588
         vertex 0.0000 1.0000 0.0000
      endloop
   endfacet
   facet normal -1.0000 0.0000 0.0000
      outer loop
         vertex 0.0000 0.4400 -1.6421
         vertex 0.0000 -0.0000 -1.7000
         vertex 0.0000 -0.0000 -1.0000
      endloop
   endfacet
   facet normal -1.0000 0.0000 0.0000
      outer loop
         vertex 0.0000 0.4400 -1.6421
         vertex 0.0000 -0.0000 -1.0000
         vertex 0.0000 0.2588 -0.9659
      endloop
   endfacet
   facet normal -1.0000 0.0000 0.0000
      outer loop
         vertex 0.0000 0.4400 -1.6421
         vertex 0.0000 0.2588 -0.9659
         vertex 0.0000 0.5000 -0.8660
      endloop
   endfacet
   facet normal -1.0000 0.0000 0.0000
      outer loop
         vertex 0.0000 0.4400 -1.6421
         vertex 0.0000 0.5000 -0.8660
         vertex 0.0000 0.8500 -1.4722
      endloop
   endfacet
   facet normal -1.0000 0.0000 0.0000
      outer loop
         vertex 0.0000 -0.7071 -0.7071
         vertex 0.0000 -0.5000 -0.8660
         vertex 0.0000 -0.4400 -1.6421
      endloop
   endfacet
   facet normal -1.0000 0.0000 0.0000
      outer loop
         vertex 0.0000 -0.4400 -1.6421
         vertex 0.0000 -0.5000 -0.8660
         vertex 0.0000 -0.2588 -0.9659
      endloop
   endfacet
   facet normal -1.0000 0.0000 0.0000
      outer loop
         vertex 0.0000 -0.4400 -1.6421
         vertex 0.0000 -0.2588 -0.9659
         vertex 0.0000 -0.0000 -1.7000
      endloop
   endfacet
   facet normal -1.0000 0.0000 0.0000
      outer loop
         vertex 0.0000 -0.0000 -1.7000
         vertex 0.0000 -0.2588 -0.9659
         vertex 0.0000 -0.0000 -1.0000
      endloop
   endfacet
   facet normal -1.0000 0.0000 0.0000
      outer loop
         vertex 0.0000 -0.8500 -1.4722
         vertex 0.0000 -1.2021 -1.2021
         vertex 0.0000 -1.0000 0.0000
      endloop
   endfacet
   facet normal -1.0000 0.0000 0.0000
      outer loop
         vertex 0.0000 -0.8500 -1.4722
         vertex 0.0000 -1.0000 0.0000
         vertex 0.0000 -0.9659 -0.2588
      endloop
   endfacet
   facet normal -1.0000 0.0000 0.0000
      outer loop
         vertex 0.0000 -0.8500 -1.4722
         vertex 0.0000 -0.9659 -0.2588
         vertex 0.0000 -0.8660 -0.5000
      endloop
   endfacet
   facet normal -1.0000 0.0000 0.0000
      outer loop
         vertex 0.0000 -0.8500 -1.4722
         vertex 0.0000 -0.8660 -0.5000
         vertex 0.0000 -0.7071 -0.7071
      endloop
   endfacet
   facet normal -1.0000 0.0000 0.0000
      outer loop
         vertex 0.0000 -0.8500 -1.4722
         vertex 0.0000 -0.7071 -0.7071
         vertex 0.0000 -0.4400 -1.6421
      endloop
   endfacet
   facet normal -1.0000 0.0000 0.0000
      outer loop
         vertex 0.0000 0.8660 0.5000
         vertex 0.0000 0.7071 0.7071
         vertex 0.0000 0.8500 1.4722
      endloop
   endfacet
   facet normal -1.0000 0.0000 0.0000
      outer loop
         vertex 0.0000 0.8660 0.5000
         vertex 0.0000 0.8500 1.4722
         vertex 0.0000 1.2021 1.2021
      endloop
   endfacet
   facet normal -1.0000 0.0000 0.0000
      outer loop
         vertex 0.0000 0.8660 0.5000
         vertex 0.0000 1.2021 1.2021
         vertex 0.0000 0.9659 0.2588
      endloop
   endfacet
   facet normal -1.0000 0.0000 0.0000
      outer loop
         vertex 0.0000 0.0000 1.0000
         vertex 0.0000 0.0000 1.7000
         vertex 0.0000 0.2588 0.9659
      endloop
   endfacet
   facet normal -1.0000 0.0000 0.0000
      outer loop
         vertex 0.0000 0.2588 0.9659
         vertex 0.0000 0.0000 1.7000
         vertex 0.0000 0.4400 1.6421
      endloop
   endfacet
   facet normal -1.0000 0.0000 0.0000
      outer loop
         vertex 0.0000 0.2588 0.9659
         vertex 0.0000 0.4400 1.6421
         vertex 0.0000 0.5000 0.8660
      endloop
   endfacet
   facet normal -1.0000 0.0000 0.0000
      outer loop
         vertex 0.0000 0.5000 0.8660
         vertex 0.0000 0.4400 1.6421
         vertex 0.0000 0.8500 1.4722
      endloop
   endfacet
   facet normal -1.0000 0.0000 0.0000
      outer loop
         vertex 0.0000 0.5000 0.8660
         vertex 0.0000 0.8500 1.4722
         vertex 0.0000 0.7071 0.7071
      endloop
   endfacet
   facet normal -1.0000 0.0000 0.0000
      outer loop
         vertex 0.0000 -0.2588 0.9659
         vertex 0.0000 -0.5000 0.8660
         vertex 0.0000 -0.4400 1.6421
      endloop
   endfacet
   facet normal -1.0000 0.0000 0.0000
      outer loop
         vertex 0.0000 -0.2588 0.9659
         vertex 0.0000 -0.4400 1.6421
         vertex 0.0000 0.0000 1.7000
      endloop
   endfacet
   facet normal -1.0000 0.0000 0.0000
      outer loop
         vertex 0.0000 -0.2588 0.9659
         vertex 0.0000 0.0000 1.7000
         vertex 0.0000 0.0000 1.0000
      endloop
   endfacet
   facet normal -1.0000 0.0000 0.0000
      outer loop
         vertex 0.0000 -0.7071 0.7071
         vertex 0.0000 -0.8660 0.5000
         vertex 0.0000 -0.8500 1.4722
      endloop
   endfacet
   facet normal -1.0000 0.0000 0.0000
      outer loop
         vertex 0.0000 -0.7071 0.7071
         vertex 0.0000 -0.8500 1.4722
         vertex 0.0000 -0.4400 1.6421
      endloop
   endfacet
   facet normal -1.0000 0.0000 0.0000
      outer loop
         vertex 0.0000 -0.7071 0.7071
         vertex 0.0000 -0.4400 1.6421
         vertex 0.0000 -0.5000 0.8660
      endloop
   endfacet
   facet normal -1.0000 0.0000 0.0000
      outer loop
         vertex 0.0000 -0.8500 1.4722
         vertex 0.0000 -0.8660 0.5000
         vertex 0.0000 -0.9659 0.2588
      endloop
   endfacet
   facet normal -1.0000 0.0000 0.0000
      outer loop
         vertex 0.0000 -0.8500 1.4722
         vertex 0.0000 -0.9659 0.2588
         vertex 0.0000 -1.0000 0.0000
      endloop
   endfacet
   facet normal -1.0000 0.0000 0.0000
      outer loop
         vertex 0.0000 -0.8500 1.4722
         vertex 0.0000 -1.0000 0.0000
         vertex 0.0000 -1.2021 -1.2021
      endloop
   endfacet
   facet normal -1.0000 0.0000 0.0000
      outer loop
         vertex 0.0000 -0.8500 1.4722
         vertex 0.0000 -1.2021 -1.2021
         vertex 0.0000 -1.2021 1.2021
      endloop
   endfacet
   facet normal -1.0000 0.0000 0.0000
      outer loop
         vertex 0.0000 -1.7000 0.0000
         vertex 0.0000 -1.6421 0.4400
         vertex 0.0000 -1.6421 -0.4400
      endloop
   endfacet
   facet normal -1.0000 0.0000 0.0000
      outer loop
         vertex 0.0000 -1.6421 -0.4400
         vertex 0.0000 -1.6421 0.4400
         vertex 0.0000 -1.4722 0.8500
      endloop
   endfacet
   facet normal -1.0000 0.0000 0.0000
      outer loop
         vertex 0.0000 -1.6421 -0.4400
         vertex 0.0000 -1.4722 0.8500
         vertex 0.0000 -1.4722 -0.8500
      endloop
   endfacet
   facet normal -1.0000 0.0000 0.0000
      outer loop
         vertex 0.0000 -1.4722 -0.8500
         vertex 0.0000 -1.4722 0.8500
         vertex 0.0000 -1.2021 1.2021
      endloop
   endfacet
   facet normal -1.0000 0.0000 0.0000
      outer loop
         vertex 0.0000 -1.4722 -0.8500
         vertex 0.0000 -1.2021 1.2021
         vertex 0.0000 -1.2021 -1.2021
      endloop
   endfacet
   facet normal 1.0000 0.0000 0.0000
      outer loop
         vertex 3.9250 1.7000 0.0000
         vertex 3.9250 1.6421 0.4400
         vertex 3.9250 1.6421 -0.4400
      endloop
   endfacet
   facet normal 1.0000 0.0000 0.0000
      outer loop
         vertex 3.9250 1.6421 -0.4400
         vertex 3.9250 1.6421 0.4400
         vertex 3.9250 1.4722 0.8500
      endloop
   endfacet
   facet normal 1.0000 0.0000 0.0000
      outer loop
         vertex 3.9250 1.6421 -0.4400
         vertex 3.9250 1.4722 0.8500
         vertex 3.9250 1.4722 -0.8500
      endloop
   endfacet
   facet normal 1.0000 0.0000 0.0000
      outer loop
         vertex 3.9250 1.4722 -0.8500
         vertex 3.9250 1.4722 0.8500
         vertex 3.9250 1.2021 1.2021
      endloop
   endfacet
   facet normal 1.0000 0.0000 0.0000
      outer loop
         vertex 3.9250 1.4722 -0.8500
         vertex 3.9250 1.2021 1.2021
         vertex 3.9250 1.2021 -1.2021
      endloop
   endfacet
   facet normal 1.0000 0.0000 0.0000
      outer loop
         vertex 3.9250 1.2021 -1.2021
         vertex 3.9250 1.2021 1.2021
         vertex 3.9250 1.0000 0.0000
      endloop
   endfacet
   facet normal 1.0000 0.0000 0.0000
      outer loop
         vertex 3.9250 1.2021 -1.2021
         vertex 3.9250 1.0000 0.0000
         vertex 3.9250 0.9659 -0.2588
      endloop
   endfacet
   facet normal 1.0000 0.0000 0.0000
      outer loop
         vertex 3.9250 0.5000 0.8660
         vertex 3.9250 0.7071 0.7071
         vertex 3.9250 0.8500 1.4722
      endloop
   endfacet
   facet normal 1.0000 0.0000 0.0000
      outer loop
         vertex 3.9250 0.8500 1.4722
         vertex 3.9250 0.7071 0.7071
         vertex 3.9250 0.8660 0.5000
      endloop
   endfacet
   facet normal 1.0000 0.0000 0.0000
      outer loop
         vertex 3.9250 0.8500 1.4722
         vertex 3.9250 0.8660 0.5000
         vertex 3.9250 1.2021 1.2021
      endloop
   endfacet
   facet normal 1.0000 0.0000 0.0000
      outer loop
         vertex 3.9250 1.2021 1.2021
         vertex 3.9250 0.8660 0.5000
         vertex 3.9250 0.9659 0.2588
      endloop
   endfacet
   facet normal 1.0000 0.0000 0.0000
      outer loop
         vertex 3.9250 1.2021 1.2021
         vertex 3.9250 0.9659 0.2588
         vertex 3.9250 1.0000 0.0000
      endloop
   endfacet
   facet normal 1.0000 0.0000 0.0000
      outer loop
         vertex 3.9250 -0.2588 0.9659
         vertex 3.9250 0.0000 1.0000
         vertex 3.9250 0.0000 1.7000
      endloop
   endfacet
   facet normal 1.0000 0.0000 0.0000
      outer loop
         vertex 3.9250 0.0000 1.7000
         vertex 3.9250 0.0000 1.0000
         vertex 3.9250 0.2588 0.9659
      endloop
   endfacet
   facet normal 1.0000 0.0000 0.0000
      outer loop
         vertex 3.9250 0.0000 1.7000
         vertex 3.9250 0.2588 0.9659
         vertex 3.9250 0.4400 1.6421
      endloop
   endfacet
   facet normal 1.0000 0.0000 0.0000
      outer loop
         vertex 3.9250 0.4400 1.6421
         vertex 3.9250 0.2588 0.9659
         vertex 3.9250 0.5000 0.8660
      endloop
   endfacet
   facet normal 1.0000 0.0000 0.0000
      outer loop
         vertex 3.9250 0.4400 1.6421
         vertex 3.9250 0.5000 0.8660
         vertex 3.9250 0.8500 1.4722
      endloop
   endfacet
   facet normal 1.0000 0.0000 0.0000
      outer loop
         vertex 3.9250 -0.4400 1.6421
         vertex 3.9250 -0.8500 1.4722
         vertex 3.9250 -0.7071 0.7071
      endloop
   endfacet
   facet normal 1.0000 0.0000 0.0000
      outer loop
         vertex 3.9250 -0.4400 1.6421
         vertex 3.9250 -0.7071 0.7071
         vertex 3.9250 -0.5000 0.8660
      endloop
   endfacet
   facet normal 1.0000 0.0000 0.0000
      outer loop
         vertex 3.9250 -0.4400 1.6421
         vertex 3.9250 -0.5000 0.8660
         vertex 3.9250 -0.2588 0.9659
      endloop
   endfacet
   facet normal 1.0000 0.0000 0.0000
      outer loop
         vertex 3.9250 -0.4400 1.6421
         vertex 3.9250 -0.2588 0.9659
         vertex 3.9250 0.0000 1.7000
      endloop
   endfacet
   facet normal 1.0000 0.0000 0.0000
      outer loop
         vertex 3.9250 -0.8500 1.4722
         vertex 3.9250 -1.2021 1.2021
         vertex 3.9250 -1.0000 0.0000
      endloop
   endfacet
   facet normal 1.0000 0.0000 0.0000
      outer loop
         vertex 3.9250 -0.8500 1.4722
         vertex 3.9250 -1.0000 0.0000
         vertex 3.9250 -0.9659 0.2588
      endloop
   endfacet
   facet normal 1.0000 0.0000 0.0000
      outer loop
         vertex 3.9250 -0.8500 1.4722
         vertex 3.9250 -0.9659 0.2588
         vertex 3.9250 -0.8660 0.5000
      endloop
   endfacet
   facet normal 1.0000 0.0000 0.0000
      outer loop
         vertex 3.9250 -0.8500 1.4722
         vertex 3.9250 -0.8660 0.5000
         vertex 3.9250 -0.7071 0.7071
      endloop
   endfacet
   facet normal 1.0000 0.0000 0.0000
      outer loop
         vertex 3.9250 0.8660 -0.5000
         vertex 3.9250 0.7071 -0.7071
         vertex 3.9250 0.8500 -1.4722
      endloop
   endfacet
   facet normal 1.0000 0.0000 0.0000
      outer loop
         vertex 3.9250 0.8660 -0.5000
         vertex 3.9250 0.8500 -1.4722
         vertex 3.9250 1.2021 -1.2021
      endloop
   endfacet
   facet normal 1.0000 0.0000 0.0000
      outer loop
         vertex 3.9250 0.8660 -0.5000
         vertex 3.9250 1.2021 -1.2021
         vertex 3.9250 0.9659 -0.2588
      endloop
   endfacet
   facet normal 1.0000 0.0000 0.0000
      outer loop
         vertex 3.9250 0.5000 -0.8660
         vertex 3.9250 0.2588 -0.9659
         vertex 3.9250 0.4400 -1.6421
      endloop
   endfacet
   facet normal 1.0000 0.0000 0.0000
      outer loop
         vertex 3.9250 0.5000 -0.8660
         vertex 3.9250 0.4400 -1.6421
         vertex 3.9250 0.8500 -1.4722
      endloop
   endfacet
   facet normal 1.0000 0.0000 0.0000
      outer loop
         vertex 3.9250 0.5000 -0.8660
         vertex 3.9250 0.8500 -1.4722
         vertex 3.9250 0.7071 -0.7071
      endloop
   endfacet
   facet normal 1.0000 0.0000 0.0000
      outer loop
         vertex 3.9250 -0.5000 -0.8660
         vertex 3.9250 -0.4400 -1.6421
         vertex 3.9250 -0.2588 -0.9659
      endloop
   endfacet
   facet normal 1.0000 0.0000 0.0000
      outer loop
         vertex 3.9250 -0.2588 -0.9659
         vertex 3.9250 -0.4400 -1.6421
         vertex 3.9250 -0.0000 -1.7000
      endloop
   endfacet
   facet normal 1.0000 0.0000 0.0000
      outer loop
         vertex 3.9250 -0.2588 -0.9659
         vertex 3.9250 -0.0000 -1.7000
         vertex 3.9250 -0.0000 -1.0000
      endloop
   endfacet
   facet normal 1.0000 0.0000 0.0000
      outer loop
         vertex 3.9250 -0.0000 -1.0000
         vertex 3.9250 -0.0000 -1.7000
         vertex 3.9250 0.4400 -1.6421
      endloop
   endfacet
   facet normal 1.0000 0.0000 0.0000
      outer loop
         vertex 3.9250 -0.0000 -1.0000
         vertex 3.9250 0.4400 -1.6421
         vertex 3.9250 0.2588 -0.9659
      endloop
   endfacet
   facet normal 1.0000 0.0000 0.0000
      outer loop
         vertex 3.9250 -0.7071 -0.7071
         vertex 3.9250 -0.8660 -0.5000
         vertex 3.9250 -0.8500 -1.4722
      endloop
   endfacet
   facet normal 1.0000 0.0000 0.0000
      outer loop
         vertex 3.9250 -0.7071 -0.7071
         vertex 3.9250 -0.8500 -1.4722
         vertex 3.9250 -0.4400 -1.6421
      endloop
   endfacet
   facet normal 1.0000 0.0000 0.0000
      outer loop
         vertex 3.9250 -0.7071 -0.7071
         vertex 3.9250 -0.4400 -1.6421
         vertex 3.9250 -0.5000 -0.8660
      endloop
   endfacet
   facet normal 1.0000 0.0000 0.0000
      outer loop
         vertex 3.9250 -0.8500 -1.4722
         vertex 3.9250 -0.8660 -0.5000
         vertex 3.9250 -0.9659 -0.2588
      endloop
   endfacet
   facet normal 1.0000 0.0000 0.0000
      outer loop
         vertex 3.9250 -0.8500 -1.4722
         vertex 3.9250 -0.9659 -0.2588
         vertex 3.9250 -1.0000 0.0000
      endloop
   endfacet
   facet normal 1.0000 0.0000 0.0000
      outer loop
         vertex 3.9250 -0.8500 -1.4722
         vertex 3.9250 -1.0000 0.0000
         vertex 3.9250 -1.2021 1.2021
      endloop
   endfacet
   facet normal 1.0000 0.0000 0.0000
      outer loop
         vertex 3.9250 -0.8500 -1.4722
         vertex 3.9250 -1.2021 1.2021
         vertex 3.9250 -1.2021 -1.2021
      endloop
   endfacet
   facet normal 1.0000 0.0000 0.0000
      outer loop
         vertex 3.9250 -1.7000 0.0000
         vertex 3.9250 -1.6421 -0.4400
         vertex 3.9250 -1.6421 0.4400
      endloop
   endfacet
   facet normal 1.0000 0.0000 0.0000
      outer loop
         vertex 3.9250 -1.6421 0.4400
         vertex 3.9250 -1.6421 -0.4400
         vertex 3.9250 -1.4722 -0.8500
      endloop
   endfacet
   facet normal 1.0000 0.0000 0.0000
      outer loop
         vertex 3.9250 -1.6421 0.4400
         vertex 3.9250 -1.4722 -0.8500
         vertex 3.9250 -1.4722 0.8500
      endloop
   endfacet
   facet normal 1.0000 0.0000 0.0000
      outer loop
         vertex 3.9250 -1.4722 0.8500
         vertex 3.9250 -1.4722 -0.8500
         vertex 3.9250 -1.2021 -1.2021
      endloop
   endfacet
   facet normal 1.0000 0.0000 0.0000
      outer loop
         vertex 3.9250 -1.4722 0.8500
         vertex 3.9250 -1.2021 -1.2021
         vertex 3.9250 -1.2021 1.2021
      endloop
   endfacet
   facet normal 0.0000 0.0869 -0.9962
      outer loop
         vertex 3.9250 0.4400 -1.6421
         vertex 3.9250 -0.0000 -1.7000
         vertex 0.0000 -0.0000 -1.7000
      endloop
   endfacet
   facet normal 0.0000 0.1739 -0.9848
      outer loop
         vertex 3.9250 0.4400 -1.6421
         vertex 0.0000 -0.0000 -1.7000
         vertex 0.0000 0.4400 -1.6421
      endloop
   endfacet
   facet normal 0.0000 0.3418 -0.9398
      outer loop
         vertex 3.9250 0.8500 -1.4722
         vertex 3.9250 0.4400 -1.6421
         vertex 0.0000 0.4400 -1.6421
      endloop
   endfacet
   facet normal 0.0000 0.4228 -0.9062
      outer loop
         vertex 3.9250 0.8500 -1.4722
         vertex 0.0000 0.4400 -1.6421
         vertex 0.0000 0.8500 -1.4722
      endloop
   endfacet
   facet normal 0.0000 0.5734 -0.8193
      outer loop
         vertex 3.9250 1.2021 -1.2021
         vertex 3.9250 0.8500 -1.4722
         vertex 0.0000 0.8500 -1.4722
      endloop
   endfacet
   facet normal 0.0000 0.6430 -0.7659
      outer loop
         vertex 3.9250 1.2021 -1.2021
         vertex 0.0000 0.8500 -1.4722
         vertex 0.0000 1.2021 -1.2021
      endloop
   endfacet
   facet normal 0.0000 0.7659 -0.6430
      outer loop
         vertex 3.9250 1.4722 -0.8500
         vertex 3.9250 1.2021 -1.2021
         vertex 0.0000 1.2021 -1.2021
      endloop
   endfacet
   facet normal 0.0000 0.8193 -0.5734
      outer loop
         vertex 3.9250 1.4722 -0.8500
         vertex 0.0000 1.2021 -1.2021
         vertex 0.0000 1.4722 -0.8500
      endloop
   endfacet
   facet normal 0.0000 0.9062 -0.4228
      outer loop
         vertex 3.9250 1.4722 -0.8500
         vertex 0.0000 1.4722 -0.8500
         vertex 0.0000 1.6421 -0.4400
      endloop
   endfacet
   facet normal 0.0000 0.9398 -0.3418
      outer loop
         vertex 3.9250 1.4722 -0.8500
         vertex 0.0000 1.6421 -0.4400
         vertex 3.9250 1.6421 -0.4400
      endloop
   endfacet
   facet normal 0.0000 0.9848 -0.1739
      outer loop
         vertex 3.9250 1.6421 -0.4400
         vertex 0.0000 1.6421 -0.4400
         vertex 0.0000 1.7000 0.0000
      endloop
   endfacet
   facet normal 0.0000 0.9962 -0.0869
      outer loop
         vertex 3.9250 1.6421 -0.4400
         vertex 0.0000 1.7000 0.0000
         vertex 3.9250 1.7000 0.0000
      endloop
   endfacet
   facet normal 0.0000 -0.9962 0.0869
      outer loop
         vertex 3.7085 0.7568 -0.2028
         vertex 3.7085 0.7835 -0.0000
         vertex 0.2165 0.7835 -0.0000
      endloop
   endfacet
   facet normal 0.0000 -0.9848 0.1739
      outer loop
         vertex 3.7085 0.7568 -0.2028
         vertex 0.2165 0.7835 -0.0000
         vertex 0.2165 0.7568 -0.2028
      endloop
   endfacet
   facet normal -0.7098 -0.7017 0.0612
      outer loop
         vertex 0.2165 0.7835 -0.0000
         vertex 0.0000 1.0000 0.0000
         vertex 0.0000 0.9659 -0.2588
      endloop
   endfacet
   facet normal -0.7098 -0.6937 0.1225
      outer loop
         vertex 0.2165 0.7835 -0.0000
         vertex 0.0000 0.9659 -0.2588
         vertex 0.2165 0.7568 -0.2028
      endloop
   endfacet
   facet normal 0.7098 -0.6937 0.1225
      outer loop
         vertex 3.7085 0.7835 -0.0000
         vertex 3.7085 0.7568 -0.2028
         vertex 3.9250 0.9659 -0.2588
      endloop
   endfacet
   facet normal 0.7098 -0.7017 0.0612
      outer loop
         vertex 3.7085 0.7835 -0.0000
         vertex 3.9250 0.9659 -0.2588
         vertex 3.9250 1.0000 0.0000
      endloop
   endfacet
   facet normal 0.0000 -0.9398 0.3418
      outer loop
         vertex 3.7085 0.6785 -0.3918
         vertex 3.7085 0.7568 -0.2028
         vertex 0.2165 0.7568 -0.2028
      endloop
   endfacet
   facet normal 0.0000 -0.9062 0.4228
      outer loop
         vertex 3.7085 0.6785 -0.3918
         vertex 0.2165 0.7568 -0.2028
         vertex 0.2165 0.6785 -0.3918
      endloop
   endfacet
   facet normal -0.7098 -0.6620 0.2408
      outer loop
         vertex 0.2165 0.6785 -0.3918
         vertex 0.2165 0.7568 -0.2028
         vertex 0.0000 0.9659 -0.2588
      endloop
   endfacet
   facet normal -0.7098 -0.6383 0.2978
      outer loop
         vertex 0.2165 0.6785 -0.3918
         vertex 0.0000 0.9659 -0.2588
         vertex 0.0000 0.8660 -0.5000
      endloop
   endfacet
   facet normal 0.7098 -0.6383 0.2978
      outer loop
         vertex 3.7085 0.6785 -0.3918
         vertex 3.9250 0.8660 -0.5000
         vertex 3.9250 0.9659 -0.2588
      endloop
   endfacet
   facet normal 0.7098 -0.6620 0.2408
      outer loop
         vertex 3.7085 0.6785 -0.3918
         vertex 3.9250 0.9659 -0.2588
         vertex 3.7085 0.7568 -0.2028
      endloop
   endfacet
   facet normal 0.0000 -0.7659 0.6430
      outer loop
         vertex 0.2165 0.6785 -0.3918
         vertex 0.2165 0.5540 -0.5540
         vertex 3.7085 0.5540 -0.5540
      endloop
   endfacet
   facet normal 0.0000 -0.8193 0.5734
      outer loop
         vertex 0.2165 0.6785 -0.3918
         vertex 3.7085 0.5540 -0.5540
         vertex 3.7085 0.6785 -0.3918
      endloop
   endfacet
   facet normal -0.7098 -0.5771 0.4039
      outer loop
         vertex 0.2165 0.5540 -0.5540
         vertex 0.2165 0.6785 -0.3918
         vertex 0.0000 0.8660 -0.5000
      endloop
   endfacet
   facet normal -0.7098 -0.5395 0.4529
      outer loop
         vertex 0.2165 0.5540 -0.5540
         vertex 0.0000 0.8660 -0.5000
         vertex 0.0000 0.7071 -0.7071
      endloop
   endfacet
   facet normal 0.7098 -0.5771 0.4039
      outer loop
         vertex 3.9250 0.8660 -0.5000
         vertex 3.7085 0.6785 -0.3918
         vertex 3.7085 0.5540 -0.5540
      endloop
   endfacet
   facet normal 0.7098 -0.5395 0.4529
      outer loop
         vertex 3.9250 0.8660 -0.5000
         vertex 3.7085 0.5540 -0.5540
         vertex 3.9250 0.7071 -0.7071
      endloop
   endfacet
   facet normal 0.0000 -0.6430 0.7659
      outer loop
         vertex 3.7085 0.5540 -0.5540
         vertex 0.2165 0.5540 -0.5540
         vertex 0.2165 0.3918 -0.6785
      endloop
   endfacet
   facet normal 0.0000 -0.5734 0.8193
      outer loop
         vertex 3.7085 0.5540 -0.5540
         vertex 0.2165 0.3918 -0.6785
         vertex 3.7085 0.3918 -0.6785
      endloop
   endfacet
   facet normal -0.7098 -0.4039 0.5771
      outer loop
         vertex 0.0000 0.7071 -0.7071
         vertex 0.0000 0.5000 -0.8660
         vertex 0.2165 0.3918 -0.6785
      endloop
   endfacet
   facet normal -0.7098 -0.4529 0.5395
      outer loop
         vertex 0.0000 0.7071 -0.7071
         vertex 0.2165 0.3918 -0.6785
         vertex 0.2165 0.5540 -0.5540
      endloop
   endfacet
   facet normal 0.7098 -0.4529 0.5395
      outer loop
         vertex 3.9250 0.7071 -0.7071
         vertex 3.7085 0.5540 -0.5540
         vertex 3.7085 0.3918 -0.6785
      endloop
   endfacet
   facet normal 0.7098 -0.4039 0.5771
      outer loop
         vertex 3.9250 0.7071 -0.7071
         vertex 3.7085 0.3918 -0.6785
         vertex 3.9250 0.5000 -0.8660
      endloop
   endfacet
   facet normal 0.0000 -0.3418 0.9398
      outer loop
         vertex 0.2165 0.3918 -0.6785
         vertex 0.2165 0.2028 -0.7568
         vertex 3.7085 0.2028 -0.7568
      endloop
   endfacet
   facet normal 0.0000 -0.4228 0.9062
      outer loop
         vertex 0.2165 0.3918 -0.6785
         vertex 3.7085 0.2028 -0.7568
         vertex 3.7085 0.3918 -0.6785
      endloop
   endfacet
   facet normal 0.7098 -0.2978 0.6383
      outer loop
         vertex 3.9250 0.2588 -0.9659
         vertex 3.9250 0.5000 -0.8660
         vertex 3.7085 0.3918 -0.6785
      endloop
   endfacet
   facet normal 0.7098 -0.2408 0.6620
      outer loop
         vertex 3.9250 0.2588 -0.9659
         vertex 3.7085 0.3918 -0.6785
         vertex 3.7085 0.2028 -0.7568
      endloop
   endfacet
   facet normal -0.7098 -0.2978 0.6383
      outer loop
         vertex 0.2165 0.2028 -0.7568
         vertex 0.2165 0.3918 -0.6785
         vertex 0.0000 0.5000 -0.8660
      endloop
   endfacet
   facet normal -0.7098 -0.2408 0.6620
      outer loop
         vertex 0.2165 0.2028 -0.7568
         vertex 0.0000 0.5000 -0.8660
         vertex 0.0000 0.2588 -0.9659
      endloop
   endfacet
   facet normal 0.0000 -0.0869 0.9962
      outer loop
         vertex 0.2165 0.2028 -0.7568
         vertex 0.2165 -0.0000 -0.7835
         vertex 3.7085 -0.0000 -0.7835
      endloop
   endfacet
   facet normal 0.0000 -0.1739 0.9848
      outer loop
         vertex 0.2165 0.2028 -0.7568
         vertex 3.7085 -0.0000 -0.7835
         vertex 3.7085 0.2028 -0.7568
      endloop
   endfacet
   facet normal -0.7098 -0.0612 0.7017
      outer loop
         vertex 0.0000 -0.0000 -1.0000
         vertex 0.2165 -0.0000 -0.7835
         vertex 0.2165 0.2028 -0.7568
      endloop
   endfacet
   facet normal -0.7098 -0.1225 0.6937
      outer loop
         vertex 0.0000 -0.0000 -1.0000
         vertex 0.2165 0.2028 -0.7568
         vertex 0.0000 0.2588 -0.9659
      endloop
   endfacet
   facet normal 0.7098 -0.0612 0.7017
      outer loop
         vertex 3.7085 -0.0000 -0.7835
         vertex 3.9250 -0.0000 -1.0000
         vertex 3.9250 0.2588 -0.9659
      endloop
   endfacet
   facet normal 0.7098 -0.1225 0.6937
      outer loop
         vertex 3.7085 -0.0000 -0.7835
         vertex 3.9250 0.2588 -0.9659
         vertex 3.7085 0.2028 -0.7568
      endloop
   endfacet
   facet normal 0.0000 0.9962 0.0869
      outer loop
         vertex 3.9250 1.6421 0.4400
         vertex 3.9250 1.7000 0.0000
         vertex 0.0000 1.7000 0.0000
      endloop
   endfacet
   facet normal 0.0000 0.9848 0.1739
      outer loop
         vertex 3.9250 1.6421 0.4400
         vertex 0.0000 1.7000 0.0000
         vertex 0.0000 1.6421 0.4400
      endloop
   endfacet
   facet normal 0.0000 0.9062 0.4228
      outer loop
         vertex 0.0000 1.4722 0.8500
         vertex 3.9250 1.4722 0.8500
         vertex 3.9250 1.6421 0.4400
      endloop
   endfacet
   facet normal 0.0000 0.9398 0.3418
      outer loop
         vertex 0.0000 1.4722 0.8500
         vertex 3.9250 1.6421 0.4400
         vertex 0.0000 1.6421 0.4400
      endloop
   endfacet
   facet normal 0.0000 0.8193 0.5734
      outer loop
         vertex 3.9250 1.4722 0.8500
         vertex 0.0000 1.4722 0.8500
         vertex 0.0000 1.2021 1.2021
      endloop
   endfacet
   facet normal 0.0000 0.7659 0.6430
      outer loop
         vertex 3.9250 1.4722 0.8500
         vertex 0.0000 1.2021 1.2021
         vertex 3.9250 1.2021 1.2021
      endloop
   endfacet
   facet normal 0.0000 0.5734 0.8193
      outer loop
         vertex 0.0000 1.2021 1.2021
         vertex 0.0000 0.8500 1.4722
         vertex 3.9250 0.8500 1.4722
      endloop
   endfacet
   facet normal 0.0000 0.6430 0.7659
      outer loop
         vertex 0.0000 1.2021 1.2021
         vertex 3.9250 0.8500 1.4722
         vertex 3.9250 1.2021 1.2021
      endloop
   endfacet
   facet normal 0.0000 0.3418 0.9398
      outer loop
         vertex 0.0000 0.4400 1.6421
         vertex 3.9250 0.4400 1.6421
         vertex 3.9250 0.8500 1.4722
      endloop
   endfacet
   facet normal 0.0000 0.4228 0.9062
      outer loop
         vertex 0.0000 0.4400 1.6421
         vertex 3.9250 0.8500 1.4722
         vertex 0.0000 0.8500 1.4722
      endloop
   endfacet
   facet normal 0.0000 0.0869 0.9962
      outer loop
         vertex 0.0000 0.0000 1.7000
         vertex 3.9250 0.0000 1.7000
         vertex 3.9250 0.4400 1.6421
      endloop
   endfacet
   facet normal 0.0000 0.1739 0.9848
      outer loop
         vertex 0.0000 0.0000 1.7000
         vertex 3.9250 0.4400 1.6421
         vertex 0.0000 0.4400 1.6421
      endloop
   endfacet
   facet normal 0.0000 -0.0869 -0.9962
      outer loop
         vertex 3.7085 0.2028 0.7568
         vertex 3.7085 0.0000 0.7835
         vertex 0.2165 0.0000 0.7835
      endloop
   endfacet
   facet normal 0.0000 -0.1739 -0.9848
      outer loop
         vertex 3.7085 0.2028 0.7568
         vertex 0.2165 0.0000 0.7835
         vertex 0.2165 0.2028 0.7568
      endloop
   endfacet
   facet normal -0.7098 -0.0612 -0.7017
      outer loop
         vertex 0.2165 0.0000 0.7835
         vertex 0.0000 0.0000 1.0000
         vertex 0.0000 0.2588 0.9659
      endloop
   endfacet
   facet normal -0.7098 -0.1225 -0.6937
      outer loop
         vertex 0.2165 0.0000 0.7835
         vertex 0.0000 0.2588 0.9659
         vertex 0.2165 0.2028 0.7568
      endloop
   endfacet
   facet normal 0.7098 -0.0612 -0.7017
      outer loop
         vertex 3.9250 0.2588 0.9659
         vertex 3.9250 0.0000 1.0000
         vertex 3.7085 0.0000 0.7835
      endloop
   endfacet
   facet normal 0.7098 -0.1225 -0.6937
      outer loop
         vertex 3.9250 0.2588 0.9659
         vertex 3.7085 0.0000 0.7835
         vertex 3.7085 0.2028 0.7568
      endloop
   endfacet
   facet normal 0.0000 -0.3418 -0.9398
      outer loop
         vertex 3.7085 0.2028 0.7568
         vertex 0.2165 0.2028 0.7568
         vertex 0.2165 0.3918 0.6785
      endloop
   endfacet
   facet normal 0.0000 -0.4228 -0.9062
      outer loop
         vertex 3.7085 0.2028 0.7568
         vertex 0.2165 0.3918 0.6785
         vertex 3.7085 0.3918 0.6785
      endloop
   endfacet
   facet normal -0.7098 -0.2408 -0.6620
      outer loop
         vertex 0.2165 0.2028 0.7568
         vertex 0.0000 0.2588 0.9659
         vertex 0.0000 0.5000 0.8660
      endloop
   endfacet
   facet normal -0.7098 -0.2978 -0.6383
      outer loop
         vertex 0.2165 0.2028 0.7568
         vertex 0.0000 0.5000 0.8660
         vertex 0.2165 0.3918 0.6785
      endloop
   endfacet
   facet normal 0.7098 -0.2978 -0.6383
      outer loop
         vertex 3.7085 0.3918 0.6785
         vertex 3.9250 0.5000 0.8660
         vertex 3.9250 0.2588 0.9659
      endloop
   endfacet
   facet normal 0.7098 -0.2408 -0.6620
      outer loop
         vertex 3.7085 0.3918 0.6785
         vertex 3.9250 0.2588 0.9659
         vertex 3.7085 0.2028 0.7568
      endloop
   endfacet
   facet normal 0.0000 -0.6430 -0.7659
      outer loop
         vertex 0.2165 0.5540 0.5540
         vertex 3.7085 0.5540 0.5540
         vertex 3.7085 0.3918 0.6785
      endloop
   endfacet
   facet normal 0.0000 -0.5734 -0.8193
      outer loop
         vertex 0.2165 0.5540 0.5540
         vertex 3.7085 0.3918 0.6785
         vertex 0.2165 0.3918 0.6785
      endloop
   endfacet
   facet normal -0.7098 -0.4529 -0.5395
      outer loop
         vertex 0.0000 0.5000 0.8660
         vertex 0.0000 0.7071 0.7071
         vertex 0.2165 0.5540 0.5540
      endloop
   endfacet
   facet normal -0.7098 -0.4039 -0.5771
      outer loop
         vertex 0.0000 0.5000 0.8660
         vertex 0.2165 0.5540 0.5540
         vertex 0.2165 0.3918 0.6785
      endloop
   endfacet
   facet normal 0.7098 -0.4039 -0.5771
      outer loop
         vertex 3.9250 0.5000 0.8660
         vertex 3.7085 0.3918 0.6785
         vertex 3.7085 0.5540 0.5540
      endloop
   endfacet
   facet normal 0.7098 -0.4529 -0.5395
      outer loop
         vertex 3.9250 0.5000 0.8660
         vertex 3.7085 0.5540 0.5540
         vertex 3.9250 0.7071 0.7071
      endloop
   endfacet
   facet normal 0.0000 -0.7659 -0.6430
      outer loop
         vertex 3.7085 0.6785 0.3918
         vertex 3.7085 0.5540 0.5540
         vertex 0.2165 0.5540 0.5540
      endloop
   endfacet
   facet normal 0.0000 -0.8193 -0.5734
      outer loop
         vertex 3.7085 0.6785 0.3918
         vertex 0.2165 0.5540 0.5540
         vertex 0.2165 0.6785 0.3918
      endloop
   endfacet
   facet normal -0.7098 -0.5771 -0.4039
      outer loop
         vertex 0.0000 0.7071 0.7071
         vertex 0.0000 0.8660 0.5000
         vertex 0.2165 0.6785 0.3918
      endloop
   endfacet
   facet normal -0.7098 -0.5395 -0.4529
      outer loop
         vertex 0.0000 0.7071 0.7071
         vertex 0.2165 0.6785 0.3918
         vertex 0.2165 0.5540 0.5540
      endloop
   endfacet
   facet normal 0.7098 -0.5395 -0.4529
      outer loop
         vertex 3.9250 0.7071 0.7071
         vertex 3.7085 0.5540 0.5540
         vertex 3.7085 0.6785 0.3918
      endloop
   endfacet
   facet normal 0.7098 -0.5771 -0.4039
      outer loop
         vertex 3.9250 0.7071 0.7071
         vertex 3.7085 0.6785 0.3918
         vertex 3.9250 0.8660 0.5000
      endloop
   endfacet
   facet normal 0.0000 -0.9398 -0.3418
      outer loop
         vertex 0.2165 0.7568 0.2028
         vertex 3.7085 0.7568 0.2028
         vertex 3.7085 0.6785 0.3918
      endloop
   endfacet
   facet normal 0.0000 -0.9062 -0.4228
      outer loop
         vertex 0.2165 0.7568 0.2028
         vertex 3.7085 0.6785 0.3918
         vertex 0.2165 0.6785 0.3918
      endloop
   endfacet
   facet normal -0.7098 -0.6383 -0.2978
      outer loop
         vertex 0.2165 0.6785 0.3918
         vertex 0.0000 0.8660 0.5000
         vertex 0.0000 0.9659 0.2588
      endloop
   endfacet
   facet normal -0.7098 -0.6620 -0.2408
      outer loop
         vertex 0.2165 0.6785 0.3918
         vertex 0.0000 0.9659 0.2588
         vertex 0.2165 0.7568 0.2028
      endloop
   endfacet
   facet normal 0.7098 -0.6620 -0.2408
      outer loop
         vertex 3.7085 0.6785 0.3918
         vertex 3.7085 0.7568 0.2028
         vertex 3.9250 0.9659 0.2588
      endloop
   endfacet
   facet normal 0.7098 -0.6383 -0.2978
      outer loop
         vertex 3.7085 0.6785 0.3918
         vertex 3.9250 0.9659 0.2588
         vertex 3.9250 0.8660 0.5000
      endloop
   endfacet
   facet normal 0.0000 -0.9848 -0.1739
      outer loop
         vertex 3.7085 0.7835 -0.0000
         vertex 3.7085 0.7568 0.2028
         vertex 0.2165 0.7568 0.2028
      endloop
   endfacet
   facet normal 0.0000 -0.9962 -0.0869
      outer loop
         vertex 3.7085 0.7835 -0.0000
         vertex 0.2165 0.7568 0.2028
         vertex 0.2165 0.7835 -0.0000
      endloop
   endfacet
   facet normal -0.7098 -0.6937 -0.1225
      outer loop
         vertex 0.2165 0.7568 0.2028
         vertex 0.0000 0.9659 0.2588
         vertex 0.0000 1.0000 0.0000
      endloop
   endfacet
   facet normal -0.7098 -0.7017 -0.0612
      outer loop
         vertex 0.2165 0.7568 0.2028
         vertex 0.0000 1.0000 0.0000
         vertex 0.2165 0.7835 -0.0000
      endloop
   endfacet
   facet normal 0.7098 -0.7017 -0.0612
      outer loop
         vertex 3.7085 0.7835 -0.0000
         vertex 3.9250 1.0000 0.0000
         vertex 3.9250 0.9659 0.2588
      endloop
   endfacet
   facet normal 0.7098 -0.6937 -0.1225
      outer loop
         vertex 3.7085 0.7835 -0.0000
         vertex 3.9250 0.9659 0.2588
         vertex 3.7085 0.7568 0.2028
      endloop
   endfacet
   facet normal 0.0000 -0.1739 0.9848
      outer loop
         vertex 0.0000 -0.4400 1.6421
         vertex 3.9250 -0.4400 1.6421
         vertex 3.9250 0.0000 1.7000
      endloop
   endfacet
   facet normal 0.0000 -0.0869 0.9962
      outer loop
         vertex 0.0000 -0.4400 1.6421
         vertex 3.9250 0.0000 1.7000
         vertex 0.0000 0.0000 1.7000
      endloop
   endfacet
   facet normal 0.0000 -0.3418 0.9398
      outer loop
         vertex 3.9250 -0.8500 1.4722
         vertex 3.9250 -0.4400 1.6421
         vertex 0.0000 -0.4400 1.6421
      endloop
   endfacet
   facet normal 0.0000 -0.4228 0.9062
      outer loop
         vertex 3.9250 -0.8500 1.4722
         vertex 0.0000 -0.4400 1.6421
         vertex 0.0000 -0.8500 1.4722
      endloop
   endfacet
   facet normal 0.0000 -0.5734 0.8193
      outer loop
         vertex 3.9250 -0.8500 1.4722
         vertex 0.0000 -0.8500 1.4722
         vertex 0.0000 -1.2021 1.2021
      endloop
   endfacet
   facet normal 0.0000 -0.6430 0.7659
      outer loop
         vertex 3.9250 -0.8500 1.4722
         vertex 0.0000 -1.2021 1.2021
         vertex 3.9250 -1.2021 1.2021
      endloop
   endfacet
   facet normal 0.0000 -0.7659 0.6430
      outer loop
         vertex 3.9250 -1.2021 1.2021
         vertex 0.0000 -1.2021 1.2021
         vertex 0.0000 -1.4722 0.8500
      endloop
   endfacet
   facet normal 0.0000 -0.8193 0.5734
      outer loop
         vertex 3.9250 -1.2021 1.2021
         vertex 0.0000 -1.4722 0.8500
         vertex 3.9250 -1.4722 0.8500
      endloop
   endfacet
   facet normal 0.0000 -0.9062 0.4228
      outer loop
         vertex 3.9250 -1.4722 0.8500
         vertex 0.0000 -1.4722 0.8500
         vertex 0.0000 -1.6421 0.4400
      endloop
   endfacet
   facet normal 0.0000 -0.9398 0.3418
      outer loop
         vertex 3.9250 -1.4722 0.8500
         vertex 0.0000 -1.6421 0.4400
         vertex 3.9250 -1.6421 0.4400
      endloop
   endfacet
   facet normal 0.0000 -0.9962 0.0869
      outer loop
         vertex 0.0000 -1.7000 0.0000
         vertex 3.9250 -1.7000 0.0000
         vertex 3.9250 -1.6421 0.4400
      endloop
   endfacet
   facet normal 0.0000 -0.9848 0.1739
      outer loop
         vertex 0.0000 -1.7000 0.0000
         vertex 3.9250 -1.6421 0.4400
         vertex 0.0000 -1.6421 0.4400
      endloop
   endfacet
   facet normal 0.0000 0.9848 -0.1739
      outer loop
         vertex 0.2165 -0.7568 0.2028
         vertex 3.7085 -0.7568 0.2028
         vertex 3.7085 -0.7835 0.0000
      endloop
   endfacet
   facet normal 0.0000 0.9962 -0.0869
      outer loop
         vertex 0.2165 -0.7568 0.2028
         vertex 3.7085 -0.7835 0.0000
         vertex 0.2165 -0.7835 0.0000
      endloop
   endfacet
   facet normal -0.7098 0.6937 -0.1225
      outer loop
         vertex 0.0000 -1.0000 0.0000
         vertex 0.0000 -0.9659 0.2588
         vertex 0.2165 -0.7568 0.2028
      endloop
   endfacet
   facet normal -0.7098 0.7017 -0.0612
      outer loop
         vertex 0.0000 -1.0000 0.0000
         vertex 0.2165 -0.7568 0.2028
         vertex 0.2165 -0.7835 0.0000
      endloop
   endfacet
   facet normal 0.7098 0.7017 -0.0612
      outer loop
         vertex 3.9250 -1.0000 0.0000
         vertex 3.7085 -0.7835 0.0000
         vertex 3.7085 -0.7568 0.2028
      endloop
   endfacet
   facet normal 0.7098 0.6937 -0.1225
      outer loop
         vertex 3.9250 -1.0000 0.0000
         vertex 3.7085 -0.7568 0.2028
         vertex 3.9250 -0.9659 0.2588
      endloop
   endfacet
   facet normal 0.0000 0.9062 -0.4228
      outer loop
         vertex 0.2165 -0.6785 0.3918
         vertex 3.7085 -0.6785 0.3918
         vertex 3.7085 -0.7568 0.2028
      endloop
   endfacet
   facet normal 0.0000 0.9398 -0.3418
      outer loop
         vertex 0.2165 -0.6785 0.3918
         vertex 3.7085 -0.7568 0.2028
         vertex 0.2165 -0.7568 0.2028
      endloop
   endfacet
   facet normal -0.7098 0.6383 -0.2978
      outer loop
         vertex 0.0000 -0.9659 0.2588
         vertex 0.0000 -0.8660 0.5000
         vertex 0.2165 -0.6785 0.3918
      endloop
   endfacet
   facet normal -0.7098 0.6620 -0.2408
      outer loop
         vertex 0.0000 -0.9659 0.2588
         vertex 0.2165 -0.6785 0.3918
         vertex 0.2165 -0.7568 0.2028
      endloop
   endfacet
   facet normal 0.7098 0.6620 -0.2408
      outer loop
         vertex 3.9250 -0.8660 0.5000
         vertex 3.9250 -0.9659 0.2588
         vertex 3.7085 -0.7568 0.2028
      endloop
   endfacet
   facet normal 0.7098 0.6383 -0.2978
      outer loop
         vertex 3.9250 -0.8660 0.5000
         vertex 3.7085 -0.7568 0.2028
         vertex 3.7085 -0.6785 0.3918
      endloop
   endfacet
   facet normal 0.0000 0.8193 -0.5734
      outer loop
         vertex 3.7085 -0.6785 0.3918
         vertex 0.2165 -0.6785 0.3918
         vertex 0.2165 -0.5540 0.5540
      endloop
   endfacet
   facet normal 0.0000 0.7659 -0.6430
      outer loop
         vertex 3.7085 -0.6785 0.3918
         vertex 0.2165 -0.5540 0.5540
         vertex 3.7085 -0.5540 0.5540
      endloop
   endfacet
   facet normal -0.7098 0.5771 -0.4039
      outer loop
         vertex 0.2165 -0.6785 0.3918
         vertex 0.0000 -0.8660 0.5000
         vertex 0.0000 -0.7071 0.7071
      endloop
   endfacet
   facet normal -0.7098 0.5395 -0.4529
      outer loop
         vertex 0.2165 -0.6785 0.3918
         vertex 0.0000 -0.7071 0.7071
         vertex 0.2165 -0.5540 0.5540
      endloop
   endfacet
   facet normal 0.7098 0.5395 -0.4529
      outer loop
         vertex 3.7085 -0.5540 0.5540
         vertex 3.9250 -0.7071 0.7071
         vertex 3.9250 -0.8660 0.5000
      endloop
   endfacet
   facet normal 0.7098 0.5771 -0.4039
      outer loop
         vertex 3.7085 -0.5540 0.5540
         vertex 3.9250 -0.8660 0.5000
         vertex 3.7085 -0.6785 0.3918
      endloop
   endfacet
   facet normal 0.0000 0.6430 -0.7659
      outer loop
         vertex 3.7085 -0.3918 0.6785
         vertex 3.7085 -0.5540 0.5540
         vertex 0.2165 -0.5540 0.5540
      endloop
   endfacet
   facet normal 0.0000 0.5734 -0.8193
      outer loop
         vertex 3.7085 -0.3918 0.6785
         vertex 0.2165 -0.5540 0.5540
         vertex 0.2165 -0.3918 0.6785
      endloop
   endfacet
   facet normal -0.7098 0.4529 -0.5395
      outer loop
         vertex 0.2165 -0.3918 0.6785
         vertex 0.2165 -0.5540 0.5540
         vertex 0.0000 -0.7071 0.7071
      endloop
   endfacet
   facet normal -0.7098 0.4039 -0.5771
      outer loop
         vertex 0.2165 -0.3918 0.6785
         vertex 0.0000 -0.7071 0.7071
         vertex 0.0000 -0.5000 0.8660
      endloop
   endfacet
   facet normal 0.7098 0.4529 -0.5395
      outer loop
         vertex 3.9250 -0.5000 0.8660
         vertex 3.9250 -0.7071 0.7071
         vertex 3.7085 -0.5540 0.5540
      endloop
   endfacet
   facet normal 0.7098 0.4039 -0.5771
      outer loop
         vertex 3.9250 -0.5000 0.8660
         vertex 3.7085 -0.5540 0.5540
         vertex 3.7085 -0.3918 0.6785
      endloop
   endfacet
   facet normal 0.0000 0.3418 -0.9398
      outer loop
         vertex 0.2165 -0.2028 0.7568
         vertex 3.7085 -0.2028 0.7568
         vertex 3.7085 -0.3918 0.6785
      endloop
   endfacet
   facet normal 0.0000 0.4228 -0.9062
      outer loop
         vertex 0.2165 -0.2028 0.7568
         vertex 3.7085 -0.3918 0.6785
         vertex 0.2165 -0.3918 0.6785
      endloop
   endfacet
   facet normal -0.7098 0.2978 -0.6383
      outer loop
         vertex 0.2165 -0.2028 0.7568
         vertex 0.2165 -0.3918 0.6785
         vertex 0.0000 -0.5000 0.8660
      endloop
   endfacet
   facet normal -0.7098 0.2408 -0.6620
      outer loop
         vertex 0.2165 -0.2028 0.7568
         vertex 0.0000 -0.5000 0.8660
         vertex 0.0000 -0.2588 0.9659
      endloop
   endfacet
   facet normal 0.7098 0.2408 -0.6620
      outer loop
         vertex 3.7085 -0.2028 0.7568
         vertex 3.9250 -0.2588 0.9659
         vertex 3.9250 -0.5000 0.8660
      endloop
   endfacet
   facet normal 0.7098 0.2978 -0.6383
      outer loop
         vertex 3.7085 -0.2028 0.7568
         vertex 3.9250 -0.5000 0.8660
         vertex 3.7085 -0.3918 0.6785
      endloop
   endfacet
   facet normal 0.0000 0.1739 -0.9848
      outer loop
         vertex 3.7085 0.0000 0.7835
         vertex 3.7085 -0.2028 0.7568
         vertex 0.2165 -0.2028 0.7568
      endloop
   endfacet
   facet normal 0.0000 0.0869 -0.9962
      outer loop
         vertex 3.7085 0.0000 0.7835
         vertex 0.2165 -0.2028 0.7568
         vertex 0.2165 0.0000 0.7835
      endloop
   endfacet
   facet normal -0.7098 0.0612 -0.7017
      outer loop
         vertex 0.0000 -0.2588 0.9659
         vertex 0.0000 0.0000 1.0000
         vertex 0.2165 0.0000 0.7835
      endloop
   endfacet
   facet normal -0.7098 0.1225 -0.6937
      outer loop
         vertex 0.0000 -0.2588 0.9659
         vertex 0.2165 0.0000 0.7835
         vertex 0.2165 -0.2028 0.7568
      endloop
   endfacet
   facet normal 0.7098 0.0612 -0.7017
      outer loop
         vertex 3.7085 -0.2028 0.7568
         vertex 3.7085 0.0000 0.7835
         vertex 3.9250 0.0000 1.0000
      endloop
   endfacet
   facet normal 0.7098 0.1225 -0.6937
      outer loop
         vertex 3.7085 -0.2028 0.7568
         vertex 3.9250 0.0000 1.0000
         vertex 3.9250 -0.2588 0.9659
      endloop
   endfacet
   facet normal 0.0000 -0.9962 -0.0869
      outer loop
         vertex 3.9250 -1.6421 -0.4400
         vertex 3.9250 -1.7000 0.0000
         vertex 0.0000 -1.7000 0.0000
      endloop
   endfacet
   facet normal 0.0000 -0.9848 -0.1739
      outer loop
         vertex 3.9250 -1.6421 -0.4400
         vertex 0.0000 -1.7000 0.0000
         vertex 0.0000 -1.6421 -0.4400
      endloop
   endfacet
   facet normal 0.0000 -0.9398 -0.3418
      outer loop
         vertex 3.9250 -1.6421 -0.4400
         vertex 0.0000 -1.6421 -0.4400
         vertex 0.0000 -1.4722 -0.8500
      endloop
   endfacet
   facet normal 0.0000 -0.9062 -0.4228
      outer loop
         vertex 3.9250 -1.6421 -0.4400
         vertex 0.0000 -1.4722 -0.8500
         vertex 3.9250 -1.4722 -0.8500
      endloop
   endfacet
   facet normal 0.0000 -0.7659 -0.6430
      outer loop
         vertex 0.0000 -1.2021 -1.2021
         vertex 3.9250 -1.2021 -1.2021
         vertex 3.9250 -1.4722 -0.8500
      endloop
   endfacet
   facet normal 0.0000 -0.8193 -0.5734
      outer loop
         vertex 0.0000 -1.2021 -1.2021
         vertex 3.9250 -1.4722 -0.8500
         vertex 0.0000 -1.4722 -0.8500
      endloop
   endfacet
   facet normal 0.0000 -0.5734 -0.8193
      outer loop
         vertex 0.0000 -0.8500 -1.4722
         vertex 3.9250 -0.8500 -1.4722
         vertex 3.9250 -1.2021 -1.2021
      endloop
   endfacet
   facet normal 0.0000 -0.6430 -0.7659
      outer loop
         vertex 0.0000 -0.8500 -1.4722
         vertex 3.9250 -1.2021 -1.2021
         vertex 0.0000 -1.2021 -1.2021
      endloop
   endfacet
   facet normal 0.0000 -0.3418 -0.9398
      outer loop
         vertex 0.0000 -0.4400 -1.6421
         vertex 3.9250 -0.4400 -1.6421
         vertex 3.9250 -0.8500 -1.4722
      endloop
   endfacet
   facet normal 0.0000 -0.4228 -0.9062
      outer loop
         vertex 0.0000 -0.4400 -1.6421
         vertex 3.9250 -0.8500 -1.4722
         vertex 0.0000 -0.8500 -1.4722
      endloop
   endfacet
   facet normal 0.0000 -0.1739 -0.9848
      outer loop
         vertex 3.9250 -0.4400 -1.6421
         vertex 0.0000 -0.4400 -1.6421
         vertex 0.0000 -0.0000 -1.7000
      endloop
   endfacet
   facet normal 0.0000 -0.0869 -0.9962
      outer loop
         vertex 3.9250 -0.4400 -1.6421
         vertex 0.0000 -0.0000 -1.7000
         vertex 3.9250 -0.0000 -1.7000
      endloop
   endfacet
   facet normal 0.0000 0.0869 0.9962
      outer loop
         vertex 3.7085 -0.0000 -0.7835
         vertex 0.2165 -0.0000 -0.7835
         vertex 0.2165 -0.2028 -0.7568
      endloop
   endfacet
   facet normal 0.0000 0.1739 0.9848
      outer loop
         vertex 3.7085 -0.0000 -0.7835
         vertex 0.2165 -0.2028 -0.7568
         vertex 3.7085 -0.2028 -0.7568
      endloop
   endfacet
   facet normal -0.7098 0.1225 0.6937
      outer loop
         vertex 0.0000 -0.2588 -0.9659
         vertex 0.2165 -0.2028 -0.7568
         vertex 0.2165 -0.0000 -0.7835
      endloop
   endfacet
   facet normal -0.7098 0.0612 0.7017
      outer loop
         vertex 0.0000 -0.2588 -0.9659
         vertex 0.2165 -0.0000 -0.7835
         vertex 0.0000 -0.0000 -1.0000
      endloop
   endfacet
   facet normal 0.7098 0.0612 0.7017
      outer loop
         vertex 3.9250 -0.2588 -0.9659
         vertex 3.9250 -0.0000 -1.0000
         vertex 3.7085 -0.0000 -0.7835
      endloop
   endfacet
   facet normal 0.7098 0.1225 0.6937
      outer loop
         vertex 3.9250 -0.2588 -0.9659
         vertex 3.7085 -0.0000 -0.7835
         vertex 3.7085 -0.2028 -0.7568
      endloop
   endfacet
   facet normal 0.0000 0.3418 0.9398
      outer loop
         vertex 3.7085 -0.2028 -0.7568
         vertex 0.2165 -0.2028 -0.7568
         vertex 0.2165 -0.3918 -0.6785
      endloop
   endfacet
   facet normal 0.0000 0.4228 0.9062
      outer loop
         vertex 3.7085 -0.2028 -0.7568
         vertex 0.2165 -0.3918 -0.6785
         vertex 3.7085 -0.3918 -0.6785
      endloop
   endfacet
   facet normal -0.7098 0.2408 0.6620
      outer loop
         vertex 0.2165 -0.2028 -0.7568
         vertex 0.0000 -0.2588 -0.9659
         vertex 0.0000 -0.5000 -0.8660
      endloop
   endfacet
   facet normal -0.7098 0.2978 0.6383
      outer loop
         vertex 0.2165 -0.2028 -0.7568
         vertex 0.0000 -0.5000 -0.8660
         vertex 0.2165 -0.3918 -0.6785
      endloop
   endfacet
   facet normal 0.7098 0.2978 0.6383
      outer loop
         vertex 3.7085 -0.3918 -0.6785
         vertex 3.9250 -0.5000 -0.8660
         vertex 3.9250 -0.2588 -0.9659
      endloop
   endfacet
   facet normal 0.7098 0.2408 0.6620
      outer loop
         vertex 3.7085 -0.3918 -0.6785
         vertex 3.9250 -0.2588 -0.9659
         vertex 3.7085 -0.2028 -0.7568
      endloop
   endfacet
   facet normal 0.0000 0.6430 0.7659
      outer loop
         vertex 0.2165 -0.3918 -0.6785
         vertex 0.2165 -0.5540 -0.5540
         vertex 3.7085 -0.5540 -0.5540
      endloop
   endfacet
   facet normal 0.0000 0.5734 0.8193
      outer loop
         vertex 0.2165 -0.3918 -0.6785
         vertex 3.7085 -0.5540 -0.5540
         vertex 3.7085 -0.3918 -0.6785
      endloop
   endfacet
   facet normal -0.7098 0.4529 0.5395
      outer loop
         vertex 0.0000 -0.7071 -0.7071
         vertex 0.2165 -0.5540 -0.5540
         vertex 0.2165 -0.3918 -0.6785
      endloop
   endfacet
   facet normal -0.7098 0.4039 0.5771
      outer loop
         vertex 0.0000 -0.7071 -0.7071
         vertex 0.2165 -0.3918 -0.6785
         vertex 0.0000 -0.5000 -0.8660
      endloop
   endfacet
   facet normal 0.7098 0.4529 0.5395
      outer loop
         vertex 3.7085 -0.5540 -0.5540
         vertex 3.9250 -0.7071 -0.7071
         vertex 3.9250 -0.5000 -0.8660
      endloop
   endfacet
   facet normal 0.7098 0.4039 0.5771
      outer loop
         vertex 3.7085 -0.5540 -0.5540
         vertex 3.9250 -0.5000 -0.8660
         vertex 3.7085 -0.3918 -0.6785
      endloop
   endfacet
   facet normal 0.0000 0.7659 0.6430
      outer loop
         vertex 3.7085 -0.6785 -0.3918
         vertex 3.7085 -0.5540 -0.5540
         vertex 0.2165 -0.5540 -0.5540
      endloop
   endfacet
   facet normal 0.0000 0.8193 0.5734
      outer loop
         vertex 3.7085 -0.6785 -0.3918
         vertex 0.2165 -0.5540 -0.5540
         vertex 0.2165 -0.6785 -0.3918
      endloop
   endfacet
   facet normal -0.7098 0.5395 0.4529
      outer loop
         vertex 0.2165 -0.5540 -0.5540
         vertex 0.0000 -0.7071 -0.7071
         vertex 0.0000 -0.8660 -0.5000
      endloop
   endfacet
   facet normal -0.7098 0.5771 0.4039
      outer loop
         vertex 0.2165 -0.5540 -0.5540
         vertex 0.0000 -0.8660 -0.5000
         vertex 0.2165 -0.6785 -0.3918
      endloop
   endfacet
   facet normal 0.7098 0.5395 0.4529
      outer loop
         vertex 3.9250 -0.7071 -0.7071
         vertex 3.7085 -0.5540 -0.5540
         vertex 3.7085 -0.6785 -0.3918
      endloop
   endfacet
   facet normal 0.7098 0.5771 0.4039
      outer loop
         vertex 3.9250 -0.7071 -0.7071
         vertex 3.7085 -0.6785 -0.3918
         vertex 3.9250 -0.8660 -0.5000
      endloop
   endfacet
   facet normal 0.0000 0.9062 0.4228
      outer loop
         vertex 3.7085 -0.7568 -0.2028
         vertex 3.7085 -0.6785 -0.3918
         vertex 0.2165 -0.6785 -0.3918
      endloop
   endfacet
   facet normal 0.0000 0.9398 0.3418
      outer loop
         vertex 3.7085 -0.7568 -0.2028
         vertex 0.2165 -0.6785 -0.3918
         vertex 0.2165 -0.7568 -0.2028
      endloop
   endfacet
   facet normal 0.7098 0.6620 0.2408
      outer loop
         vertex 3.7085 -0.6785 -0.3918
         vertex 3.7085 -0.7568 -0.2028
         vertex 3.9250 -0.9659 -0.2588
      endloop
   endfacet
   facet normal 0.7098 0.6383 0.2978
      outer loop
         vertex 3.7085 -0.6785 -0.3918
         vertex 3.9250 -0.9659 -0.2588
         vertex 3.9250 -0.8660 -0.5000
      endloop
   endfacet
   facet normal -0.7098 0.6383 0.2978
      outer loop
         vertex 0.2165 -0.6785 -0.3918
         vertex 0.0000 -0.8660 -0.5000
         vertex 0.0000 -0.9659 -0.2588
      endloop
   endfacet
   facet normal -0.7098 0.6620 0.2408
      outer loop
         vertex 0.2165 -0.6785 -0.3918
         vertex 0.0000 -0.9659 -0.2588
         vertex 0.2165 -0.7568 -0.2028
      endloop
   endfacet
   facet normal 0.0000 0.9848 0.1739
      outer loop
         vertex 3.7085 -0.7835 0.0000
         vertex 3.7085 -0.7568 -0.2028
         vertex 0.2165 -0.7568 -0.2028
      endloop
   endfacet
   facet normal 0.0000 0.9962 0.0869
      outer loop
         vertex 3.7085 -0.7835 0.0000
         vertex 0.2165 -0.7568 -0.2028
         vertex 0.2165 -0.7835 0.0000
      endloop
   endfacet
   facet normal -0.7098 0.7017 0.0612
      outer loop
         vertex 0.0000 -1.0000 0.0000
         vertex 0.2165 -0.7835 0.0000
         vertex 0.2165 -0.7568 -0.2028
      endloop
   endfacet
   facet normal -0.7098 0.6937 0.1225
      outer loop
         vertex 0.0000 -1.0000 0.0000
         vertex 0.2165 -0.7568 -0.2028
         vertex 0.0000 -0.9659 -0.2588
      endloop
   endfacet
   facet normal 0.7098 0.6937 0.1225
      outer loop
         vertex 3.9250 -1.0000 0.0000
         vertex 3.9250 -0.9659 -0.2588
         vertex 3.7085 -0.7568 -0.2028
      endloop
   endfacet
   facet normal 0.7098 0.7017 0.0612
      outer loop
         vertex 3.9250 -1.0000 0.0000
         vertex 3.7085 -0.7568 -0.2028
         vertex 3.7085 -0.7835 0.0000
      endloop
   endfacet
endsolid
