Component.slug,Substance.slug,weight,weight_unit,quantity,sub_product,homogeneous_material,substance,identity
alec_smd_63x80,iron,5.33,mg,1,Terminal,Metals,Iron,CAS 7439-89-6
alec_smd_63x80,copper,1.476,mg,1,Terminal,Metals,Copper,CAS 7440-50-8
alec_smd_63x80,tin,0.738,mg,1,Plating of terminal,Metals,Tin,CAS 7440-31-5
alec_smd_63x80,bismuth,0.005,mg,1,Plating of terminal,Bismuth/Bismuth Compounds,Bismuth,CAS 7440-69-9
alec_smd_63x80,aluminium,14.76,mg,1,Paddle of terminal,Metals,Aluminium,CAS 7429-90-5
alec_smd_63x80,aluminium,94.3,mg,1,Aluminum Foil,Metals,Aluminium,CAS 7429-90-5
alec_smd_63x80,aluminium,114.8,mg,1,Case,Metals,Aluminium,CAS 7429-90-5
alec_smd_63x80,cellulose,22.55,mg,1,Separator Paper,Paper,Cellulose,CAS 9004-34-6
alec_smd_63x80,ethylene_propylene,3.895,mg,1,Adhesive Tape,Tape,Polypropylene,CAS 106565-43-9
alec_smd_63x80,pps_polyphenylene_sulfide,45.1,mg,1,Spacer,Polyphenylene,Polyphenylene sulphide,CAS 25212-74-2
alec_smd_63x80,isobutylene_isoprene_rubber,61.5,mg,1,Rubber Packing,Isobutylene-isoprene,Isobutylene-isoprene rubber,CAS 9010-85-9
alec_smd_63x80,non_disclosed,41,mg,1,Electrolyte,Electrolyte,non_disclosed,
