Component.slug,Substance.slug,weight,weight_unit,quantity,sub_product,homogeneous_material,substance,identity
battery_nmc111,aluminium,0.03,kg,1,"aluminium collector foil, for Li-ion battery",,,https://v38.ecoquery.ecoinvent.org/Details/UPR/9258510c-afe0-476a-ae1c-75ed84d34179/8b738ea0-f89e-4627-8679-433616064e82
battery_nmc111,aluminium,0.0283,kg,1,"aluminium, wrought alloy",,,https://v38.ecoquery.ecoinvent.org/Details/UPR/9258510c-afe0-476a-ae1c-75ed84d34179/8b738ea0-f89e-4627-8679-433616064e82
battery_nmc111,carbon_black,0.2 * 0.01,kg,1,"anode, graphite, for Li-ion battery","carbon black",,https://v38.ecoquery.ecoinvent.org/Details/UPR/d2ac1fc7-da1b-4a06-8c9f-aa160e1c58ad/8b738ea0-f89e-4627-8679-433616064e82
battery_nmc111,carboxymethyl_cellulose,0.2 * 0.03,kg,1,"anode, graphite, for Li-ion battery","carboxymethyl cellulose, powder",,https://v38.ecoquery.ecoinvent.org/Details/UPR/d2ac1fc7-da1b-4a06-8c9f-aa160e1c58ad/8b738ea0-f89e-4627-8679-433616064e82
battery_nmc111,latex,0.2 * 0.02,kg,1,"anode, graphite, for Li-ion battery","latex",,https://v38.ecoquery.ecoinvent.org/Details/UPR/d2ac1fc7-da1b-4a06-8c9f-aa160e1c58ad/8b738ea0-f89e-4627-8679-433616064e82
battery_nmc111,graphite,0.2 * 0.94,kg,1,"anode, graphite, for Li-ion battery","synthetic graphite, battery grade",,https://v38.ecoquery.ecoinvent.org/Details/UPR/d2ac1fc7-da1b-4a06-8c9f-aa160e1c58ad/8b738ea0-f89e-4627-8679-433616064e82
battery_nmc111,hexafluoroethane,0.02 * 0.026207,kg,1,"battery separator","hexafluoroethane",,https://v38.ecoquery.ecoinvent.org/Details/UPR/870a387a-09ac-453d-ab65-9da3908baff3/8b738ea0-f89e-4627-8679-433616064e82
battery_nmc111,phthalic_anhydride,0.02 * 0.29118,kg,1,"battery separator","phthalic anhydride",,https://v38.ecoquery.ecoinvent.org/Details/UPR/870a387a-09ac-453d-ab65-9da3908baff3/8b738ea0-f89e-4627-8679-433616064e82
battery_nmc111,polyethylene,0.02 * 0.35088,kg,1,"battery separator","polyethylene, high density, granulate",,https://v38.ecoquery.ecoinvent.org/Details/UPR/870a387a-09ac-453d-ab65-9da3908baff3/8b738ea0-f89e-4627-8679-433616064e82
battery_nmc111,polyvinylfluoride,0.02 * 0.19218,kg,1,"battery separator","polyvinylfluoride",,https://v38.ecoquery.ecoinvent.org/Details/UPR/870a387a-09ac-453d-ab65-9da3908baff3/8b738ea0-f89e-4627-8679-433616064e82
battery_nmc111,silica_sand,0.02 * 0.21839,kg,1,"battery separator","silica sand",,https://v38.ecoquery.ecoinvent.org/Details/UPR/870a387a-09ac-453d-ab65-9da3908baff3/8b738ea0-f89e-4627-8679-433616064e82
battery_nmc111,nmc111,0.41,kg,1,"cathode, NMC111, for Li-ion battery",Lithium nickel manganese cobalt oxide,NMC111,https://v38.ecoquery.ecoinvent.org/Details/UPR/9258510c-afe0-476a-ae1c-75ed84d34179/8b738ea0-f89e-4627-8679-433616064e82
battery_nmc111,copper,0.12,kg,1,"copper collector foil, for Li-ion battery",,,https://v38.ecoquery.ecoinvent.org/Details/UPR/9258510c-afe0-476a-ae1c-75ed84d34179/8b738ea0-f89e-4627-8679-433616064e82
battery_nmc111,copper,0.0335,kg,1,"copper, anode",,,https://v38.ecoquery.ecoinvent.org/Details/UPR/9258510c-afe0-476a-ae1c-75ed84d34179/8b738ea0-f89e-4627-8679-433616064e82
battery_nmc111,dimethyl_carbonate,0.146 * 0.425,kg,1,"electrolyte, for Li-ion battery","dimethyl carbonate",,https://v38.ecoquery.ecoinvent.org/Details/UPR/306ed26f-8796-47e7-bfac-4388cd51a8c3/8b738ea0-f89e-4627-8679-433616064e82
battery_nmc111,ethylene_carbonate,0.146 * 0.425,kg,1,"electrolyte, for Li-ion battery","ethylene carbonate",,https://v38.ecoquery.ecoinvent.org/Details/UPR/306ed26f-8796-47e7-bfac-4388cd51a8c3/8b738ea0-f89e-4627-8679-433616064e82
battery_nmc111,lithium_hexafluorophosphate,0.146 * 0.126,kg,1,"electrolyte, for Li-ion battery","lithium hexafluorophosphate",,https://v38.ecoquery.ecoinvent.org/Details/UPR/306ed26f-8796-47e7-bfac-4388cd51a8c3/8b738ea0-f89e-4627-8679-433616064e82
battery_nmc111,vinyl_carbonate,0.146 * 0.024,kg,1,"electrolyte, for Li-ion battery","vinyl carbonate",,https://v38.ecoquery.ecoinvent.org/Details/UPR/306ed26f-8796-47e7-bfac-4388cd51a8c3/8b738ea0-f89e-4627-8679-433616064e82
battery_nmc111,pet,0.0028,kg,1,"polyethylene terephthalate, granulate, amorphous",,,https://v38.ecoquery.ecoinvent.org/Details/UPR/9258510c-afe0-476a-ae1c-75ed84d34179/8b738ea0-f89e-4627-8679-433616064e82
battery_nmc111,polypropylene,0.0013,kg,1,"polypropylene, granulate",,,https://v38.ecoquery.ecoinvent.org/Details/UPR/9258510c-afe0-476a-ae1c-75ed84d34179/8b738ea0-f89e-4627-8679-433616064e82
