﻿Component.slug,Substance.slug,weight,weight_unit,quantity,sub_product,homogeneous_material,substance,identity
cable_1m_1.1mm-diag_0.14mm2-size_copper-conductor_pvc-insulation_tin-plating,copper,0.896,g,18,Conductor,Copper Wire,Copper,reform-speaker-cable.properties
cable_1m_1.1mm-diag_0.14mm2-size_copper-conductor_pvc-insulation_tin-plating,tin,0.0131,g,18,Conductor,Tin Plating,Tin,reform-speaker-cable.properties
cable_1m_1.1mm-diag_0.14mm2-size_copper-conductor_pvc-insulation_tin-plating,pvc,1.4373,g,1,Insulation,PVC Insulator,PVC,reform-speaker-cable.properties
