Component.slug,Substance.slug,weight,weight_unit,quantity,sub_product,homogeneous_material,substance,identity
connector_hdmi_female_right-angled_gold-plated_5.55x12.15x15,gold,0.00001649505,g,1,2086581001 TERMINAL,Plating Au,Gold,CAS 7440-57-5
connector_hdmi_female_right-angled_gold-plated_5.55x12.15x15,cobalt,0.00000000495,g,1,2086581001 TERMINAL,Plating Au,Cobalt,CAS 7440-48-4
connector_hdmi_female_right-angled_gold-plated_5.55x12.15x15,copper,0.1072071,g,1,2086581001 TERMINAL,C2680,Copper,CAS 7440-50-8
connector_hdmi_female_right-angled_gold-plated_5.55x12.15x15,zinc,0.0577269,g,1,2086581001 TERMINAL,C2680,Zinc (metal),CAS 7440-66-6
connector_hdmi_female_right-angled_gold-plated_5.55x12.15x15,nickel,0.0000495,g,1,2086581001 TERMINAL,Plating Ni,Nickel,CAS 7440-02-0
connector_hdmi_female_right-angled_gold-plated_5.55x12.15x15,non_disclosed,0.0031,g,1,2086581001 HOUSING,LCP E130i,Further Additives not to declare,CAS SYSTEM
connector_hdmi_female_right-angled_gold-plated_5.55x12.15x15,glass_fiber,0.0465,g,1,2086581001 HOUSING,LCP E130i,GF-Fibre,
connector_hdmi_female_right-angled_gold-plated_5.55x12.15x15,liquid_crystal_polymer,0.1054,g,1,2086581001 HOUSING,LCP E130i,LCP,
connector_hdmi_female_right-angled_gold-plated_5.55x12.15x15,copper,0.6854757,g,1,2086581001 SHELL,C2680,Copper,CAS 7440-50-8
connector_hdmi_female_right-angled_gold-plated_5.55x12.15x15,zinc,0.3691023,g,1,2086581001 SHELL,C2680,Zinc (metal),CAS 7440-66-6
connector_hdmi_female_right-angled_gold-plated_5.55x12.15x15,nickel,0.000422,g,1,2086581001 SHELL,Plating Ni,Nickel,CAS 7440-02-0
connector_hdmi_female_right-angled_gold-plated_5.55x12.15x15,non_disclosed,0.008,g,1,2086581001 Cap,LCP E130i,Further Additives not to declare,CAS SYSTEM
connector_hdmi_female_right-angled_gold-plated_5.55x12.15x15,glass_fiber,0.12,g,1,2086581001 Cap,LCP E130i,GF-Fibre,
connector_hdmi_female_right-angled_gold-plated_5.55x12.15x15,liquid_crystal_polymer,0.272,g,1,2086581001 Cap,LCP E130i,LCP,
