Component.slug,Substance.slug,weight,weight_unit,quantity,sub_product,homogeneous_material,substance,identity
connector_housing_2mm_2x15-contacts,non_disclosed,0.008573119,g,1,PBT GF BLACK,Substances,"Further Additives, not to declare",CAS SYSTEM
connector_housing_2mm_2x15-contacts,non_disclosed,0.008573119,g,1,PBT GF BLACK,Substances,"Pigment portion, not to declare",CAS SYSTEM
connector_housing_2mm_2x15-contacts,antimony_trioxide,0.021433119,g,1,PBT GF BLACK,Substances,Antimonytrioxide,CAS 1309-64-4
connector_housing_2mm_2x15-contacts,aromatic_brominated_flame_retardant,0.081446881,g,1,PBT GF BLACK,Substances,"Flame Retardant, ISO 1043-4 FR(17)",
connector_housing_2mm_2x15-contacts,glass_fiber,0.113596881,g,1,PBT GF BLACK,Substances,GF-Fibre,
connector_housing_2mm_2x15-contacts,pbt,0.409376881,g,1,PBT GF BLACK,Substances,PBT,
