Component.slug,Substance.slug,weight,weight_unit,quantity,sub_product,homogeneous_material,substance,identity
connector_vesa_edp_male_fully-shielded_30-pins,copper,(0.145 / (8.8+8.8+3*1.4+8.8)) * 8.8 * 0.924,g,1,Plug Housing Assembly - Contacts,Phosphor Bronze,Copper,https://de.wikipedia.org/wiki/Bronze
connector_vesa_edp_male_fully-shielded_30-pins,tin,(0.145 / (8.8+8.8+3*1.4+8.8)) * 8.8 * 0.07,g,1,Plug Housing Assembly - Contacts,Phosphor Bronze,Tin,https://de.wikipedia.org/wiki/Bronze
connector_vesa_edp_male_fully-shielded_30-pins,phosphorus,(0.145 / (8.8+8.8+3*1.4+8.8)) * 8.8 * 0.005,g,1,Plug Housing Assembly - Contacts,Phosphor Bronze,Phosphor,https://de.wikipedia.org/wiki/Bronze
connector_vesa_edp_male_fully-shielded_30-pins,gold,(0.145 / (8.8+8.8+3*1.4+8.8)) * 8.8 * 0.0002,g,1,Plug Housing Assembly - Contacts,Plating,Au,0.001% taken from the copper part
connector_vesa_edp_male_fully-shielded_30-pins,nickel,(0.145 / (8.8+8.8+3*1.4+8.8)) * 8.8 * 0.0008,g,1,Plug Housing Assembly - Contacts,Plating,Ni,0.001% taken from the copper part
connector_vesa_edp_male_fully-shielded_30-pins,liquid_crystal_polymer,(0.145 / (8.8+8.8+3*1.4+8.8)) * 3*1.4,g,1,Plug Housing Assembly - Housing,LCP,Liquid-Crystal Polymer,
connector_vesa_edp_male_fully-shielded_30-pins,copper,(0.145 / (8.8+8.8+3*1.4+8.8)) * 8.8 * 0.925,g,1,Plug Housing Assembly - Shell-B,Phosphor Bronze,Copper,https://de.wikipedia.org/wiki/Bronze
connector_vesa_edp_male_fully-shielded_30-pins,tin,(0.145 / (8.8+8.8+3*1.4+8.8)) * 8.8 * 0.07,g,1,Plug Housing Assembly - Shell-B,Phosphor Bronze,Tin,https://de.wikipedia.org/wiki/Bronze
connector_vesa_edp_male_fully-shielded_30-pins,phosphorus,(0.145 / (8.8+8.8+3*1.4+8.8)) * 8.8 * 0.005,g,1,Plug Housing Assembly - Shell-B,Phosphor Bronze,Phosphor,https://de.wikipedia.org/wiki/Bronze
connector_vesa_edp_male_fully-shielded_30-pins,copper,(0.145 / (8.8+8.8+3*1.4+8.8)) * 8.8 * 0.925,g,1,Plug Shell-A,Phosphor Bronze,Copper,https://de.wikipedia.org/wiki/Bronze
connector_vesa_edp_male_fully-shielded_30-pins,tin,(0.145 / (8.8+8.8+3*1.4+8.8)) * 8.8 * 0.07,g,1,Plug Shell-A,Phosphor Bronze,Tin,https://de.wikipedia.org/wiki/Bronze
connector_vesa_edp_male_fully-shielded_30-pins,phosphorus,(0.145 / (8.8+8.8+3*1.4+8.8)) * 8.8 * 0.005,g,1,Plug Shell-A,Phosphor Bronze,Phosphor,https://de.wikipedia.org/wiki/Bronze
connector_vesa_edp_male_fully-shielded_30-pins,copper,0.097 * 0.925,g,1,Plug Lock Bar Assembly - Shield,Phosphor Bronze,Copper,https://de.wikipedia.org/wiki/Bronze
connector_vesa_edp_male_fully-shielded_30-pins,tin,0.097 * 0.07,g,1,Plug Lock Bar Assembly - Shield,Phosphor Bronze,Tin,https://de.wikipedia.org/wiki/Bronze
connector_vesa_edp_male_fully-shielded_30-pins,phosphorus,0.097 * 0.005,g,1,Plug Lock Bar Assembly - Shield,Phosphor Bronze,Phosphor,https://de.wikipedia.org/wiki/Bronze
connector_vesa_edp_male_fully-shielded_30-pins,steel_stainless,0.065,g,1,Plug Lock Bar Assembly - Bar,SUS,Steel Use Stainless,