Component.slug,Substance.slug,weight,weight_unit,quantity,sub_product,homogeneous_material,substance,identity
connector_ffc-fpc_33_circuits_0.5mm_thin,unknown,0.0001728717111,g,1,0.3 FPC E/O Hsg Assy 33Ckt,LCP (GF+MD)40 NATURAL,"Further Additives, not to declare",CAS SYSTEM
connector_ffc-fpc_33_circuits_0.5mm_thin,non_disclosed,0.00451199315556,g,1,0.3 FPC E/O Hsg Assy 33Ckt,LCP (GF+MD)40 NATURAL,Mineral powder,
connector_ffc-fpc_33_circuits_0.5mm_thin,glass_fiber,0.00192402977778,g,1,0.3 FPC E/O Hsg Assy 33Ckt,LCP (GF+MD)40 NATURAL,GF-Fibre,
connector_ffc-fpc_33_circuits_0.5mm_thin,liquid_crystal_polymer,0.00998944535556,g,1,0.3 FPC E/O Hsg Assy 33Ckt,LCP (GF+MD)40 NATURAL,LCP,
connector_ffc-fpc_33_circuits_0.5mm_thin,phosphorus,0.0000471342861,g,1,0.3 FPC E/O Hsg Assy 33Ckt,Phosphor Bronze 8% Unplated,Phosphorus,CAS 7723-14-0
connector_ffc-fpc_33_circuits_0.5mm_thin,tin,0.00198460152,g,1,0.3 FPC E/O Hsg Assy 33Ckt,Phosphor Bronze 8% Unplated,Tin,CAS 7440-31-5
connector_ffc-fpc_33_circuits_0.5mm_thin,copper,0.0227757831939,g,1,0.3 FPC E/O Hsg Assy 33Ckt,Phosphor Bronze 8% Unplated,Copper,CAS 7440-50-8
connector_ffc-fpc_33_circuits_0.5mm_thin,unknown,0.000078742125,g,1,0.3 FPC E/O Hsg Assy 33Ckt,PA46 GF BLACK,"Further Additives, not to declare",CAS SYSTEM
connector_ffc-fpc_33_circuits_0.5mm_thin,carbon_black,0.00003749625,g,1,0.3 FPC E/O Hsg Assy 33Ckt,PA46 GF BLACK,Carbon black,CAS 1333-86-4
connector_ffc-fpc_33_circuits_0.5mm_thin,nylon_46,0.003633386625,g,1,0.3 FPC E/O Hsg Assy 33Ckt,PA46 GF BLACK,PA46,
connector_ffc-fpc_33_circuits_0.5mm_thin,glass_fiber,0.003749625,g,1,0.3 FPC E/O Hsg Assy 33Ckt,PA46 GF BLACK,GF-Fibre,
connector_ffc-fpc_33_circuits_0.5mm_thin,non_disclosed,0.0000000009999,g,1,0.3 FPC E/O Hsg Assy 33Ckt,Anti-Flux Coating,"Further Additives, not to declare",CAS SYSTEM
connector_ffc-fpc_33_circuits_0.5mm_thin,non_disclosed,0.0000009989001,g,1,0.3 FPC E/O Hsg Assy 33Ckt,Anti-Flux Coating,FMACP,
connector_ffc-fpc_33_circuits_0.5mm_thin,unknown,0.00000004179582,g,1,0.3 FPC E/O Hsg Assy 33Ckt,Sealing Surface Treatment - 2 ,Barium soap for lubricants,
connector_ffc-fpc_33_circuits_0.5mm_thin,non_disclosed,0.0000008719128,g,1,0.3 FPC E/O Hsg Assy 33Ckt,Sealing Surface Treatment - 2 ,"Fatty acids, C18-unsatd.,dimers, polymers with ethylenediamine, piperazine, polypropylene glycol diamine",
connector_ffc-fpc_33_circuits_0.5mm_thin,paraffin_liquid,0.00000108609138,g,1,0.3 FPC E/O Hsg Assy 33Ckt,Sealing Surface Treatment - 2 ,White mineral oil (petroleum),CAS 8042-47-5
connector_ffc-fpc_33_circuits_0.5mm_thin,cobalt,0.000000017998,g,1,0.3 FPC E/O Hsg Assy 33Ckt,99.5/0.5 Gold/Cobalt Plating - 1 ,Cobalt,CAS 7440-48-4
connector_ffc-fpc_33_circuits_0.5mm_thin,gold,0.000003581602,g,1,0.3 FPC E/O Hsg Assy 33Ckt,99.5/0.5 Gold/Cobalt Plating - 1 ,Gold,CAS 7440-57-5
connector_ffc-fpc_33_circuits_0.5mm_thin,nickel,0.0000183982,g,1,0.3 FPC E/O Hsg Assy 33Ckt,Nickel Plating - 1 ,Nickel,CAS 7440-02-0
connector_ffc-fpc_33_circuits_0.5mm_thin,octadecylamin,0.0000001649835,g,1,0.3 FPC E/O Hsg Assy 33Ckt,Sealing Surface Treatment - 1 ,Octadecylamine,CAS 124-30-1
connector_ffc-fpc_33_circuits_0.5mm_thin,sodium_mercaptobenzothiazole,0.0000014848515,g,1,0.3 FPC E/O Hsg Assy 33Ckt,Sealing Surface Treatment - 1 ,Sodium benzothiazol-2-yl sulfide,CAS 2492-26-4
connector_ffc-fpc_33_circuits_0.5mm_thin,sodium_saccharin,0.000004949505,g,1,0.3 FPC E/O Hsg Assy 33Ckt,Sealing Surface Treatment - 1 ,"1,1-Dioxide-1,2-benzisothiazol-3(2H)-one, sodium salt",CAS 128-44-9
connector_ffc-fpc_33_circuits_0.5mm_thin,lauramide,0.00001319868,g,1,0.3 FPC E/O Hsg Assy 33Ckt,Sealing Surface Treatment - 1 ,Lauramide,CAS 1120-16-7
connector_ffc-fpc_33_circuits_0.5mm_thin,petrolatum,0.00001319868,g,1,0.3 FPC E/O Hsg Assy 33Ckt,Sealing Surface Treatment - 1 ,Petrolatum,CAS 8009-03-8
connector_ffc-fpc_33_circuits_0.5mm_thin,cobalt,0.0000002144785,g,1,0.3 FPC E/O Hsg Assy 33Ckt,99.5/0.5 Gold/Cobalt Plating - 2 ,Cobalt,CAS 7440-48-4
connector_ffc-fpc_33_circuits_0.5mm_thin,gold,0.0000426812215,g,1,0.3 FPC E/O Hsg Assy 33Ckt,99.5/0.5 Gold/Cobalt Plating - 2 ,Gold,CAS 7440-57-5
connector_ffc-fpc_33_circuits_0.5mm_thin,nickel,0.0002243776,g,1,0.3 FPC E/O Hsg Assy 33Ckt,Nickel Plating - 2 ,Nickel,CAS 7440-02-0
