Component.slug,Substance.slug,amount,quantity,sub_product,homogeneous_material,substance,identity
ferrite_chip_bead_0402,iron_oxide,52.7,1,Ferrite body,Ferrite Ni-Zn Series,Iron oxide,CAS 1309-37-1
ferrite_chip_bead_0402,nickel_oxide,9.35,1,Ferrite body,Ferrite Ni-Zn Series,Nickel oxide,CAS 1313-99-1
ferrite_chip_bead_0402,zinc_oxide,17.0,1,Ferrite body,Ferrite Ni-Zn Series,Zinc oxide,CAS 1314-13-2
ferrite_chip_bead_0402,copper_oxide,5.95,1,Ferrite body,Ferrite Ni-Zn Series,Copper oxide,CAS 1317-38-0
ferrite_chip_bead_0402,silver,10,1,Internal Circuit,Silver,Silver,CAS 7440-22-4
ferrite_chip_bead_0402,silver,3,1,Terminal,Silver,Silver,CAS 7440-22-4
ferrite_chip_bead_0402,nickel,1,1,Solder Base,Nickel,Nickel,CAS 7440-02-0
ferrite_chip_bead_0402,tin,1,1,Solder,Lead Free Solder,Tin,CAS 7440-31-5
