Component.slug,Substance.slug,weight,weight_unit,quantity,sub_product,homogeneous_material,substance,identity
ferrite_chip_bead_0805,iron_oxide,0.0052700,g,1,Ferrite body,Ferrite Ni-Zn Series,Iron oxide,CAS 1309-37-1
ferrite_chip_bead_0805,nickel_oxide,0.0009350,g,1,Ferrite body,Ferrite Ni-Zn Series,Nickel oxide,CAS 1313-99-1
ferrite_chip_bead_0805,zinc_oxide,0.0017000,g,1,Ferrite body,Ferrite Ni-Zn Series,Zinc oxide,CAS 1314-13-2
ferrite_chip_bead_0805,copper_oxide,0.0005950,g,1,Ferrite body,Ferrite Ni-Zn Series,Copper oxide,CAS 1317-38-0
ferrite_chip_bead_0805,silver,0.0008700,g,1,Internal Circuit,Silver paste_7454B,Silver,CAS 7440-22-4
ferrite_chip_bead_0805,ethyl_cellulose,0.0000500,g,1,Internal Circuit,Silver paste_7454B,Resins,CAS 9004-57-3
ferrite_chip_bead_0805,silver,0.0002100,g,1,Terminal,Silver paste_DP4303W,Silver,CAS 7440-22-4
ferrite_chip_bead_0805,silica,0.0000450,g,1,Terminal,Silver paste_DP4303W,Quartz,CAS 60676-86-0
ferrite_chip_bead_0805,ethyl_cellulose,0.0000300,g,1,Terminal,Silver paste_DP4303W,Resins,CAS 9004-57-3
ferrite_chip_bead_0805,nickel,0.0001000,g,1,Solder Base,Nickel,Nickel,CAS 7440-02-0
ferrite_chip_bead_0805,tin,0.0001000,g,1,Solder,Lead Free Solder,Tin,CAS 7440-31-5
