Component.slug,Substance.slug,weight,weight_unit,quantity,sub_product,homogeneous_material,substance,identity
ic_logic_tssop5_2.9x1.5x1,silver,0.00750,mg,1,Adhesive,Filler,Silver (Ag),CAS 7440-22-4
ic_logic_tssop5_2.9x1.5x1,epoxy_resin,0.00250,mg,1,Adhesive,Polymer,Resin system,CAS Proprietary
ic_logic_tssop5_2.9x1.5x1,silicon_wafer_for_ic,0.08038,mg,1,Die,Doped silicon,Silicon (Si),CAS 7440-21-3
ic_logic_tssop5_2.9x1.5x1,copper,3.19066,mg,1,Lead Frame,Copper alloy,Copper (Cu),CAS 7440-50-8
ic_logic_tssop5_2.9x1.5x1,iron,3.19066,mg,1,Lead Frame,Copper alloy,Iron (Fe),CAS 7439-89-6
ic_logic_tssop5_2.9x1.5x1,lead,3.19066,mg,1,Lead Frame,Copper alloy,Lead (Pb),CAS 7439-92-1
ic_logic_tssop5_2.9x1.5x1,phosphorus,0.00504,mg,1,Lead Frame,Copper alloy,Misc. Phosphor compounds (generic),CAS 7723-14-0
ic_logic_tssop5_2.9x1.5x1,tin,0.00672,mg,1,Lead Frame,Copper alloy,Tin (Sn),CAS 7440-31-5
ic_logic_tssop5_2.9x1.5x1,silver,0.07090,mg,1,Lead Frame,Pure metal layer,Silver (Ag),CAS 7440-22-4
ic_logic_tssop5_2.9x1.5x1,silica,4.60080,mg,1,Mould Compound,Filler,Silica fused,CAS 60676-86-0
ic_logic_tssop5_2.9x1.5x1,carbon_black,0.01944,mg,1,Mould Compound,Pigment,Carbon black,CAS 1333-86-4
ic_logic_tssop5_2.9x1.5x1,ortho_cresol_novolac_epoxy_resin,1.27656,mg,1,Mould Compound,Polymer,Epichlorohydrin/o-Cresol/Formaldehyde polymer (generic),CAS 29690-82-2
ic_logic_tssop5_2.9x1.5x1,phenolic_resin,0.58320,mg,1,Mould Compound,Polymer,Phenolic resin,CAS Proprietary
ic_logic_tssop5_2.9x1.5x1,antimony,0.00001,mg,1,Post-Plating,Impurity,Antimony (Sb),CAS 7440-36-0
ic_logic_tssop5_2.9x1.5x1,bismuth,0.00000,mg,1,Post-Plating,Impurity,Bismuth (Bi),CAS 7440-69-9
ic_logic_tssop5_2.9x1.5x1,copper,0.00000,mg,1,Post-Plating,Impurity,Copper (Cu),CAS 7440-50-8
ic_logic_tssop5_2.9x1.5x1,lead,0.00002,mg,1,Post-Plating,Impurity,Lead (Pb),CAS 7439-92-1
ic_logic_tssop5_2.9x1.5x1,tin,0.43996,mg,1,Post-Plating,Tin solder,Tin (Sn),CAS 7440-31-5
ic_logic_tssop5_2.9x1.5x1,gold,0.03320,mg,1,Wire,Gold alloy,Gold (Au),CAS 7440-57-5
ic_logic_tssop5_2.9x1.5x1,palladium,0.00034,mg,1,Wire,Gold alloy,Palladium (Pd),CAS 7440-05-3