Component.slug,Substance.slug,weight,weight_unit,quantity,sub_product,homogeneous_material,substance,identity
ic_tssop20_4.4x6.5x1.15,copper,0.108739,mg,1,Bond Wire,Copper and Its Alloys,Copper,CAS 7440-50-8
ic_tssop20_4.4x6.5x1.15,iron,0.000001,mg,1,Bond Wire,Copper and Its Alloys,Iron,CAS 7439-89-6
ic_tssop20_4.4x6.5x1.15,sulfur,0.000001,mg,1,Bond Wire,Other Inorganic Materials,Sulfur,CAS 7704-34-9
ic_tssop20_4.4x6.5x1.15,silver,0.000001,mg,1,Bond Wire,Precious Metals,Silver,CAS 7440-22-4
ic_tssop20_4.4x6.5x1.15,silver,0.331176,mg,1,Die Attach Adhesive,Precious Metals,Silver,CAS 7440-22-4
ic_tssop20_4.4x6.5x1.15,tetramethylbiphenyl_diglycidyl_ether,0.082794,mg,1,Die Attach Adhesive,Thermoplastics,Epoxy,CAS 85954-11-6
ic_tssop20_4.4x6.5x1.15,copper,27.85926,mg,1,Lead Frame,Copper and Its Alloys,Copper,CAS 7440-50-8
ic_tssop20_4.4x6.5x1.15,iron,0.6864,mg,1,Lead Frame,Copper and Its Alloys,Iron,CAS 7439-89-6
ic_tssop20_4.4x6.5x1.15,phosphorus,0.00858,mg,1,Lead Frame,Copper and Its Alloys,Phosphorus,CAS 7723-14-0
ic_tssop20_4.4x6.5x1.15,lead,0.00858,mg,1,Lead Frame,Other Nonferrous Metals and Alloys,Lead,CAS 7439-92-1
ic_tssop20_4.4x6.5x1.15,tin,0.00858,mg,1,Lead Frame,Other Nonferrous Metals and Alloys,Tin,CAS 7440-31-5
ic_tssop20_4.4x6.5x1.15,zinc,0.0286,mg,1,Lead Frame,Zinc and Its Alloys,Zinc,CAS 7440-66-6
ic_tssop20_4.4x6.5x1.15,nickel,0.437552,mg,1,Lead Frame Plating,Nickel and Its Alloys,Nickel,CAS 7440-02-0
ic_tssop20_4.4x6.5x1.15,gold,0.003588,mg,1,Lead Frame Plating,Precious Metals,Gold,CAS 7440-57-5
ic_tssop20_4.4x6.5x1.15,palladium,0.01886,mg,1,Lead Frame Plating,Precious Metals,Palladium,CAS 7440-05-3
ic_tssop20_4.4x6.5x1.15,silica,37.4381,mg,1,Mold Compound,Other Inorganic Materials,Fused Silica,CAS 60676-86-0
ic_tssop20_4.4x6.5x1.15,carbon_black,0.130598,mg,1,Mold Compound,Other Plastics and Rubber,Carbon Black,CAS 1333-86-4
ic_tssop20_4.4x6.5x1.15,tetramethylbiphenyl_diglycidyl_ether,5.963976,mg,1,Mold Compound,Thermoplastics,Epoxy,CAS 85954-11-6
ic_tssop20_4.4x6.5x1.15,silicon_wafer_for_ic,1.354867,mg,1,Semiconductor Device,Ceramics / Glass,Doped Silicon,CAS 7440-21-3
