Component.slug,Substance.slug,weight,weight_unit,quantity,sub_product,homogeneous_material,substance,identity
ic_to263_d2pak_7pin_10.1x8.9x4.5,aluminium,0.000003,mg,1,Bond Wire,Aluminum and Its Alloys,Aluminum,CAS 7429-90-5
ic_to263_d2pak_7pin_10.1x8.9x4.5,copper,0.677599,mg,1,Bond Wire,Copper and Its Alloys,Copper,CAS 7440-50-8
ic_to263_d2pak_7pin_10.1x8.9x4.5,iron,0.000003,mg,1,Bond Wire,Copper and Its Alloys,Iron,CAS 7439-89-6
ic_to263_d2pak_7pin_10.1x8.9x4.5,sulfur,0.000002,mg,1,Bond Wire,Other Inorganic Materials,Sulfur,CAS 7704-34-9
ic_to263_d2pak_7pin_10.1x8.9x4.5,calcium,0.000014,mg,1,Bond Wire,Other Nonferrous Metals and Alloys,Calcium,CAS 7440-70-2
ic_to263_d2pak_7pin_10.1x8.9x4.5,silver,0.00001,mg,1,Bond Wire,Precious Metals,Silver,CAS 7440-22-4
ic_to263_d2pak_7pin_10.1x8.9x4.5,lead,5.817135,mg,1,Die Attach Adhesive,Other Nonferrous Metals and Alloys,Lead,CAS 7439-92-1
ic_to263_d2pak_7pin_10.1x8.9x4.5,tin,0.121825,mg,1,Die Attach Adhesive,Other Nonferrous Metals and Alloys,Tin,CAS 7440-31-5
ic_to263_d2pak_7pin_10.1x8.9x4.5,silver,0.152281,mg,1,Die Attach Adhesive,Precious Metals,Silver,CAS 7440-22-4
ic_to263_d2pak_7pin_10.1x8.9x4.5,copper,945.9931,mg,1,Lead Frame,Copper and Its Alloys,Copper,CAS 7440-50-8
ic_to263_d2pak_7pin_10.1x8.9x4.5,phosphorus,0.094903,mg,1,Lead Frame,Copper and Its Alloys,Phosphorus,CAS 7723-14-0
ic_to263_d2pak_7pin_10.1x8.9x4.5,tin,1.423545,mg,1,Lead Frame,Other Nonferrous Metals and Alloys,Tin,CAS 7440-31-5
ic_to263_d2pak_7pin_10.1x8.9x4.5,silver,1.518448,mg,1,Lead Frame,Precious Metals,Silver,CAS 7440-22-4
ic_to263_d2pak_7pin_10.1x8.9x4.5,nickel,6.17,mg,1,Lead Frame Plating,Nickel and Its Alloys,Nickel,CAS 7440-02-0
ic_to263_d2pak_7pin_10.1x8.9x4.5,tin,10.27,mg,1,Lead Frame Plating,Other Nonferrous Metals and Alloys,Tin,CAS 7440-31-5
ic_to263_d2pak_7pin_10.1x8.9x4.5,silica,684.7646,mg,1,Mold Compound,Other Inorganic Materials,Fused Silica,CAS 60676-86-0
ic_to263_d2pak_7pin_10.1x8.9x4.5,non_disclosed,23.081953,mg,1,Mold Compound,Other Nonferrous Metals and Alloys,Metal Hydroxide,CAS Trade Secret
ic_to263_d2pak_7pin_10.1x8.9x4.5,tetramethylbiphenyl_diglycidyl_ether,61.551872,mg,1,Mold Compound,Thermoplastics,Epoxy,CAS 85954-11-6
ic_to263_d2pak_7pin_10.1x8.9x4.5,silicon_wafer_for_ic,6.774467,mg,1,Semiconductor Device,Ceramics / Glass,Doped Silicon,CAS 7440-21-3
