Component.slug,Substance.slug,amount,quantity,sub_product,homogeneous_material,substance,identity
inductor_fixed_power_shielded_smd_1210_12x12x10mm,iron_oxide,45.6,1,Ferrite Material,F4D,Iron oxide (Fe2O3),CAS 1309-37-1
inductor_fixed_power_shielded_smd_1210_12x12x10mm,nickel_oxide,7.6,1,Ferrite Material,F4D,Nickel oxide (NiO),CAS 1313-99-1
inductor_fixed_power_shielded_smd_1210_12x12x10mm,zinc_oxide,15.2,1,Ferrite Material,F4D,Zinc oxide (ZnO),CAS 1314-13-2
inductor_fixed_power_shielded_smd_1210_12x12x10mm,copper_oxide,7.6,1,Ferrite Material,F4D,Copper Oxide (CuO),CAS 1317-38-0
inductor_fixed_power_shielded_smd_1210_12x12x10mm,copper,13.3,1,Winding Wire,2SFBW,Copper (Cu),CAS 7440-50-8
inductor_fixed_power_shielded_smd_1210_12x12x10mm,epoxy_resin,0.7,1,Winding Wire,2SFBW,Polyester Resin,CAS N/A
inductor_fixed_power_shielded_smd_1210_12x12x10mm,tin,0.386,1,Solder,Lead free-solder,Tin (Sn),CAS 7440-31-5
inductor_fixed_power_shielded_smd_1210_12x12x10mm,silver,0.012,1,Solder,Lead free-solder,Silver (Ag),CAS 7440-22-4
inductor_fixed_power_shielded_smd_1210_12x12x10mm,copper,0.002,1,Solder,Lead free-solder,Copper (Cu),CAS 7440-50-8
inductor_fixed_power_shielded_smd_1210_12x12x10mm,copper,3.87,1,BASE  Terminal Electrode,C1100R-H/Sn/ Ni,Copper (Cu),CAS N/A
inductor_fixed_power_shielded_smd_1210_12x12x10mm,tin,0.301,1,BASE  Terminal Electrode,C1100R-H/Sn/ Ni,Tin (Sn),CAS 7440-31-5
inductor_fixed_power_shielded_smd_1210_12x12x10mm,nickel,0.129,1,BASE  Terminal Electrode,C1100R-H/Sn/ Ni,Nickel (Ni),CAS 7440-02-0
inductor_fixed_power_shielded_smd_1210_12x12x10mm,aramid,2.2,1,TAPE,#560S,Nomex,CAS N/A
inductor_fixed_power_shielded_smd_1210_12x12x10mm,bisphenol_a_epichlorohydrin_polymer,1.943,1,Adhesive,6020H-2,Bisphenol A Epoxy Resin,CAS 25068-38-6
inductor_fixed_power_shielded_smd_1210_12x12x10mm,alkyl_glycidyl_ether,0.093,1,Adhesive,6020H-2,Alkyd glycidyl ether,CAS 68609-97-2
inductor_fixed_power_shielded_smd_1210_12x12x10mm,methylimidazol,0.155,1,Adhesive,6020H-2,Methyl imidazole,CAS 693-98-1
inductor_fixed_power_shielded_smd_1210_12x12x10mm,carbon_black,0.093,1,Adhesive,6020H-2,Carbon black,CAS 1333-86-4
inductor_fixed_power_shielded_smd_1210_12x12x10mm,silica,0.806,1,Adhesive,6020H-2,Silicon dioxide,CAS 7631-86-9
