Component.slug,Substance.slug,weight,weight_unit,quantity,sub_product,homogeneous_material,substance,identity
latch_mini_pci_express_28.44x4.75,liquid_crystal_polymer,255.3,mg,1,0480995701 part1 housing,LCP E130i,BASIC POLYMER: LCP,
latch_mini_pci_express_28.44x4.75,glass_fiber,111,mg,1,0480995701 part1 housing,LCP E130i,GF-FIBRE
latch_mini_pci_express_28.44x4.75,carbon_black,3.7,mg,1,0480995701 part1 housing,LCP E130i,Carbon black,CAS 1333-86-4
latch_mini_pci_express_28.44x4.75,liquid_crystal_polymer,69,mg,1,0480995701 part2 COVER,LCP E130i,BASIC POLYMER: LCP,
latch_mini_pci_express_28.44x4.75,glass_fiber,30,mg,1,0480995701 part2 COVER,LCP E130i,GF-FIBRE,
latch_mini_pci_express_28.44x4.75,carbon_black,1,mg,1,0480995701 part2 COVER,LCP E130i,Carbon black,CAS 1333-86-4
latch_mini_pci_express_28.44x4.75,nickel,0.07,mg,1,0480995701 part3 SHELL,Plating Ni,Nickel,CAS 7440-02-0
latch_mini_pci_express_28.44x4.75,sulfur,0.063,mg,1,0480995701 part4 BEAM,SUS301,sulfur,CAS 7704-34-9
latch_mini_pci_express_28.44x4.75,carbon,0.315,mg,1,0480995701 part4 BEAM,SUS301,Carbon,CAS 7440-44-0
latch_mini_pci_express_28.44x4.75,phosphorus,0.105,mg,1,0480995701 part4 BEAM,SUS301,Phosphorus,CAS 7723-14-0
latch_mini_pci_express_28.44x4.75,silicon_metallurgical_grade,1.575,mg,1,0480995701 part4 BEAM,SUS301,Silicon,CAS 7440-21-3
latch_mini_pci_express_28.44x4.75,manganese_ferro,4.2,mg,1,0480995701 part4 BEAM,SUS301,Manganese,CAS 7439-96-5
latch_mini_pci_express_28.44x4.75,nickel,16.8,mg,1,0480995701 part4 BEAM,SUS301,Nickel,CAS 7440-02-0
latch_mini_pci_express_28.44x4.75,chromium,33.6,mg,1,0480995701 part4 BEAM,SUS301,Chromium,CAS 7440-47-3
latch_mini_pci_express_28.44x4.75,iron,153.342,mg,1,0480995701 part4 BEAM,SUS301,Iron,CAS 7439-89-6

