Component.slug,Substance.slug,weight,weight_unit,quantity,sub_product,homogeneous_material,substance,identity
oscillator_nipdau_vdfn_3.2X2.5X0.9,silica,8.047,mg,1,Mold Compound,,"Silica, fused",CAS 60676-86-0
oscillator_nipdau_vdfn_3.2X2.5X0.9,epoxy_resin,0.351,mg,1,Mold Compound,,"Epoxy Resin (NLP # 500-033-5)",CAS Trade Secret
oscillator_nipdau_vdfn_3.2X2.5X0.9,phenolic_resin,0.351,mg,1,Mold Compound,,Phenol Resin,CAS Trade Secret
oscillator_nipdau_vdfn_3.2X2.5X0.9,carbon_black,0.026,mg,1,Mold Compound,,Carbon Black,CAS 1333-86-4
oscillator_nipdau_vdfn_3.2X2.5X0.9,copper,8.813,mg,1,Lead Frame,,Copper,CAS 7440-50-8
oscillator_nipdau_vdfn_3.2X2.5X0.9,iron,0.208,mg,1,Lead Frame,,Iron,CAS 7439-89-6
oscillator_nipdau_vdfn_3.2X2.5X0.9,phosphorus,0.023,mg,1,Lead Frame,,Phosphorous,CAS 7723-14-0
oscillator_nipdau_vdfn_3.2X2.5X0.9,zinc,0.014,mg,1,Lead Frame,,Zinc,CAS 7440-66-6
oscillator_nipdau_vdfn_3.2X2.5X0.9,silica,0.109,mg,1,Die Attach,,Fused silica,CAS 60676-86-0
oscillator_nipdau_vdfn_3.2X2.5X0.9,silver,0.073,mg,1,Die Attach,,Silver,CAS 7440-22-4
oscillator_nipdau_vdfn_3.2X2.5X0.9,epoxy_resin,0.029,mg,1,Die Attach,,Epoxy Resin,CAS Trade Secret
oscillator_nipdau_vdfn_3.2X2.5X0.9,acrylate_resin,0.021,mg,1,Die Attach,,Acrylate resin,CAS Trade Secret
oscillator_nipdau_vdfn_3.2X2.5X0.9,bisphenol_a_epichlorohydrin_polymer,0.012,mg,1,Die Attach,,Biphenol A Glycidylether,CAS 25068-38-6
oscillator_nipdau_vdfn_3.2X2.5X0.9,silicon_wafer_for_ic,1.199,mg,1,Dual Chip (Die),,Silicon,CAS 7440-21-3
oscillator_nipdau_vdfn_3.2X2.5X0.9,gold,0.098,mg,1,Wire Bond,,Gold,CAS 7440-57-5
oscillator_nipdau_vdfn_3.2X2.5X0.9,nickel,0.114,mg,1,Plating on external leads (pins),,Nickel,CAS 7440-02-0
oscillator_nipdau_vdfn_3.2X2.5X0.9,palladium,0.006,mg,1,Plating on external leads (pins),,Palladium,CAS 7440-05-3
oscillator_nipdau_vdfn_3.2X2.5X0.9,gold,0.006,mg,1,Plating on external leads (pins),,Gold,CAS 7440-57-5
