Component.slug,Substance.slug,weight,weight_unit,quantity,sub_product,homogeneous_material,substance,identity
pcb-transcend-ssd-220s,silica,0.6698807808000001,g,1,FR4,Glasfaser,SiO2,
pcb-transcend-ssd-220s,potassium_oxide,0.21381803520000003,g,1,FR4,Glasfaser,K2O,
pcb-transcend-ssd-220s,aluminium_oxide,0.18786324480000002,g,1,FR4,Glasfaser,Al2O3,
pcb-transcend-ssd-220s,boron_trioxide,0.09887539200000002,g,1,FR4,Glasfaser,B2O3,
pcb-transcend-ssd-220s,magnesium_oxide,0.05808929280000001,g,1,FR4,Glasfaser,MgO,
pcb-transcend-ssd-220s,sodium_oxide,0.007415654400000002,g,1,FR4,Glasfaser,Na2O,
pcb-transcend-ssd-220s,epoxy_resin,0.6711255513600001,g,1,FR4,Epoxidharz,Epoxy (ohne FR),
pcb-transcend-ssd-220s,tetrabromobisphenol_a,0.29968071936,g,1,FR4,Epoxidharz,TBBA,
pcb-transcend-ssd-220s,antimony_trioxide,0.00029132927999999997,g,1,FR4,Epoxidharz,Sb2O3,
pcb-transcend-ssd-220s,copper,2.2077440000000004,g,1,Layers,Copper foil,Copper,
pcb-transcend-ssd-220s,nickel,0.02765613312,g,1,Plating,NiAu,Nickel,
pcb-transcend-ssd-220s,gold,0.0012228480000000001,g,1,Plating,NiAu,Gold,
pcb-transcend-ssd-220s,epoxy_resin,0.051744000000000005,g,1,Solder mask,Epoxy,Expoxy,
