Component.slug,Substance.slug,weight,weight_unit,quantity,sub_product,homogeneous_material,substance,identity
solder_wire_hs10fair_1g,copper,5,mg,1,,,,
solder_wire_hs10fair_1g,germanium,0.1,mg,1,,,,
solder_wire_hs10fair_1g,chemicals,1,mg,1,,,,
solder_wire_hs10fair_1g,rosin,25,mg,1,,,,
solder_wire_hs10fair_1g,reused_solder,440,mg,1,,,,
solder_wire_hs10fair_1g,tin_secondary,520,mg,1,,,,"Recycled"
solder_wire_hs10fair_1g,tin,7.9,mg,1,,,,
solder_wire_hs10fair_1g,wax,1,mg,1,,,,
