Component.slug,Substance.slug,weight,weight_unit,quantity,sub_product,homogeneous_material,substance,identity
speaker_micro_square_18x13x2.5_2g,copper,273,mg,1,Enameled wire,,Silver included Copper,CAS 7440-50-8
speaker_micro_square_18x13x2.5_2g,polyurethane,12,mg,1,Enameled wire,,Polyurethane resin,
speaker_micro_square_18x13x2.5_2g,polyamide_resin,15,mg,1,Enameled wire,,Polyamide resin,
speaker_micro_square_18x13x2.5_2g,iron,642.655,mg,1,Washers&YOKE/SPCC,,Fe,CAS 7439-89-6
speaker_micro_square_18x13x2.5_2g,carbon,0.975,mg,1,Washers&YOKE/SPCC,,C,CAS 7440-44-0
speaker_micro_square_18x13x2.5_2g,phosphorus,0.91,mg,1,Washers&YOKE/SPCC,,P,CAS 7723-14-0
speaker_micro_square_18x13x2.5_2g,sulfur,0.845,mg,1,Washers&YOKE/SPCC,,S,CAS 7704-34-9
speaker_micro_square_18x13x2.5_2g,silicon_metallurgical_grade,1.625,mg,1,Washers&YOKE/SPCC,,Si,CAS 7440-21-3
speaker_micro_square_18x13x2.5_2g,manganese_ferro,2.015,mg,1,Washers&YOKE/SPCC,,Mn,CAS 7439-96-5
speaker_micro_square_18x13x2.5_2g,zinc,50,mg,1,Washers&YOKE/Plating,,Zn,CAS 7440-66-6
speaker_micro_square_18x13x2.5_2g,neodymium,137.2,mg,1,Magnet/Substrate,,Nd,CAS 7440-00-8
speaker_micro_square_18x13x2.5_2g,iron,343,mg,1,Magnet/Substrate,,Fe,CAS 7439-89-6
speaker_micro_square_18x13x2.5_2g,boron,5.88,mg,1,Magnet/Substrate,,B,CAS 7440-42-8
speaker_micro_square_18x13x2.5_2g,dysprosium,3.92,mg,1,Magnet/Substrate,,DY,CAS 7429-91-6
speaker_micro_square_18x13x2.5_2g,zinc,50,mg,1,Magnet/Plating,,Zn,CAS 7440-66-6
speaker_micro_square_18x13x2.5_2g,polyamide_66t,220,mg,1,Frame/PPA,,Polyphthalamide,CAS 25776-72-1
speaker_micro_square_18x13x2.5_2g,glass_fiber,136,mg,1,Frame/PPA,,Fiberglass,CAS 65997-17-3
speaker_micro_square_18x13x2.5_2g,organophosphorus_salt,40,mg,1,Frame/PPA,,Organophosphorus salt,
speaker_micro_square_18x13x2.5_2g,carbon_black,4,mg,1,Frame/PPA,,Carbon black,CAS 1333-86-4
speaker_micro_square_18x13x2.5_2g,pet,19.8,mg,1,Drum paper/PET,,Polyethylene Terephthalate,CAS 25038-59-9
speaker_micro_square_18x13x2.5_2g,carbon_black,0.2,mg,1,Drum paper/PET,,Carbon black,CAS 133-86-4
speaker_micro_square_18x13x2.5_2g,aluminium,24.9,mg,1,Drum paper/The aluminium foil,,Al,CAS 7429-90-5
speaker_micro_square_18x13x2.5_2g,manganese,0.3,mg,1,Drum paper/The aluminium foil,,Mn,CAS 7439-96-5
speaker_micro_square_18x13x2.5_2g,zinc,0.3,mg,1,Drum paper/The aluminium foil,,Zn,CAS 7440-66-6
speaker_micro_square_18x13x2.5_2g,non_disclosed,4.5,mg,1,Drum paper/The aluminium foil,,others,
