Component.slug,Substance.slug,weight,weight_unit,quantity,sub_product,homogeneous_material,substance,identity
switch_tactile_silver-plating_3.5x3.5x5,copper,0.011804,g,1,,CONTACT,Copper,CAS 7440-50-8
switch_tactile_silver-plating_3.5x3.5x5,tin,0.00117,g,1,,CONTACT,Tin,CAS 7440-31-5
switch_tactile_silver-plating_3.5x3.5x5,phosphorus,2.6E-5,g,1,,CONTACT,Phosphorus,CAS 7723-14-0
switch_tactile_silver-plating_3.5x3.5x5,bismuth,1.0E-8,g,1,,Ag Plating for TERMINAL,Bismuth,CAS 7440-69-9
switch_tactile_silver-plating_3.5x3.5x5,carbon,1.0E-8,g,1,,Ag Plating for TERMINAL,Carbon,CAS 7440-44-0
switch_tactile_silver-plating_3.5x3.5x5,gold,1.0E-8,g,1,,Ag Plating for TERMINAL,Gold,CAS 7440-57-5
switch_tactile_silver-plating_3.5x3.5x5,silver,9.4998E-4,g,1,,Ag Plating for TERMINAL,Silver,CAS 7440-22-4
switch_tactile_silver-plating_3.5x3.5x5,sulfur,1.0E-8,g,1,,Ag Plating for TERMINAL,Sulfur,CAS 7704-34-9
switch_tactile_silver-plating_3.5x3.5x5,copper,1.0E-8,g,1,,Ag Plating for TERMINAL,Copper,CAS 7440-50-8
switch_tactile_silver-plating_3.5x3.5x5,iron,1.0E-8,g,1,,Ag Plating for TERMINAL,Iron,CAS 7439-89-6
switch_tactile_silver-plating_3.5x3.5x5,antimony,1.0E-8,g,1,,Ag Plating for TERMINAL,Antimony,CAS 7440-36-0
switch_tactile_silver-plating_3.5x3.5x5,lead,1.0E-8,g,1,,Ag Plating for TERMINAL,Lead,CAS 7439-92-1
switch_tactile_silver-plating_3.5x3.5x5,carbon_black,0.0032,g,1,,STEM,Carbon black,CAS 1333-86-4
switch_tactile_silver-plating_3.5x3.5x5,polyamide_66t,0.032,g,1,,STEM,"1,4-Benzenedicarboxylic acid,polymer with1,6-hexanediamineandhexanedioicacid, block",CAS 127823-33-0
switch_tactile_silver-plating_3.5x3.5x5,glass_fiber,0.0288,g,1,,STEM,"Glass, oxide,chemicals",CAS 65997-17-3
switch_tactile_silver-plating_3.5x3.5x5,zinc_oxide,0.02281087,g,1,,TERMINAL,Zinc oxide (ZnO),CAS 1314-13-2
switch_tactile_silver-plating_3.5x3.5x5,copper,0.05451412,g,1,,TERMINAL,Copper,CAS 7440-50-8
switch_tactile_silver-plating_3.5x3.5x5,carbon,6.76E-5,g,1,,COVER,Carbon,CAS 7440-44-0
switch_tactile_silver-plating_3.5x3.5x5,aluminium,3.64E-5,g,1,,COVER,Aluminum,CAS 7429-90-5
switch_tactile_silver-plating_3.5x3.5x5,chromium,3.64E-5,g,1,,COVER,Chromium,CAS 7440-47-3
switch_tactile_silver-plating_3.5x3.5x5,iron,0.0512512,g,1,,COVER,Iron,CAS 7439-89-6
switch_tactile_silver-plating_3.5x3.5x5,manganese_ferro,3.12E-4,g,1,,COVER,Manganese,CAS 7439-96-5
switch_tactile_silver-plating_3.5x3.5x5,nitrogen,1.04E-5,g,1,,COVER,Nitrogen,CAS 7727-37-9
switch_tactile_silver-plating_3.5x3.5x5,molybdenum,5.2E-5,g,1,,COVER,Molybdenum,CAS 7439-98-7
switch_tactile_silver-plating_3.5x3.5x5,phosphorus,1.04E-5,g,1,,COVER,Phosphorus,CAS 7723-14-0
switch_tactile_silver-plating_3.5x3.5x5,sulfur,1.56E-5,g,1,,COVER,Sulfur,CAS 7704-34-9
switch_tactile_silver-plating_3.5x3.5x5,tin,6.24E-5,g,1,,COVER,Tin,CAS 7440-31-5
switch_tactile_silver-plating_3.5x3.5x5,silicon_metallurgical_grade,1.56E-5,g,1,,COVER,Silicon,CAS 7440-21-3
switch_tactile_silver-plating_3.5x3.5x5,nickel,5.2E-5,g,1,,COVER,Nickel,CAS 7440-02-0
switch_tactile_silver-plating_3.5x3.5x5,carbon,1.0E-8,g,1,,Ag Plating for CONTACT,Carbon,CAS 7440-44-0
switch_tactile_silver-plating_3.5x3.5x5,iron,1.0E-8,g,1,,Ag Plating for CONTACT,Iron,CAS 7439-89-6
switch_tactile_silver-plating_3.5x3.5x5,antimony,1.0E-8,g,1,,Ag Plating for CONTACT,Antimony,CAS 7440-36-0
switch_tactile_silver-plating_3.5x3.5x5,sulfur,1.0E-8,g,1,,Ag Plating for CONTACT,Sulfur,CAS 7704-34-9
switch_tactile_silver-plating_3.5x3.5x5,gold,1.0E-8,g,1,,Ag Plating for CONTACT,Gold,CAS 7440-57-5
switch_tactile_silver-plating_3.5x3.5x5,bismuth,1.0E-8,g,1,,Ag Plating for CONTACT,Bismuth,CAS 7440-69-9
switch_tactile_silver-plating_3.5x3.5x5,silver,9.999808E-5,g,1,,Ag Plating for CONTACT,Silver,CAS 7440-22-4
switch_tactile_silver-plating_3.5x3.5x5,copper,1.0E-8,g,1,,Ag Plating for CONTACT,Copper,CAS 7440-50-8
switch_tactile_silver-plating_3.5x3.5x5,lead,1.0E-8,g,1,,Ag Plating for CONTACT,Lead,CAS 7439-92-1
switch_tactile_silver-plating_3.5x3.5x5,pps_polyphenylene_sulfide,0.06826,g,1,,CASE,"Poly(thio-1,4-phenylene)",CAS 25212-74-2
switch_tactile_silver-plating_3.5x3.5x5,glass_fiber,0.017065,g,1,,CASE,"Glass, oxide,chemicals",CAS 65997-17-3
switch_tactile_silver-plating_3.5x3.5x5,carbon,1.0E-8,g,1,,Nickel Plating for TERMINAL,Carbon,CAS 7440-44-0
switch_tactile_silver-plating_3.5x3.5x5,sulfur,1.0E-8,g,1,,Nickel Plating for TERMINAL,Sulfur,CAS 7704-34-9
switch_tactile_silver-plating_3.5x3.5x5,magnesium,1.0E-8,g,1,,Nickel Plating for TERMINAL,Magnesium,CAS 7439-95-4
switch_tactile_silver-plating_3.5x3.5x5,copper,1.5E-8,g,1,,Nickel Plating for TERMINAL,Copper,CAS 7440-50-8
switch_tactile_silver-plating_3.5x3.5x5,phosphorus,1.0E-8,g,1,,Nickel Plating for TERMINAL,Phosphorus,CAS 7723-14-0
switch_tactile_silver-plating_3.5x3.5x5,selenium,1.0E-8,g,1,,Nickel Plating for TERMINAL,Selenium,CAS 7782-49-2
switch_tactile_silver-plating_3.5x3.5x5,bismuth,1.0E-8,g,1,,Nickel Plating for TERMINAL,Bismuth,CAS 7440-69-9
switch_tactile_silver-plating_3.5x3.5x5,cobalt,3.0E-8,g,1,,Nickel Plating for TERMINAL,Cobalt,CAS 7440-48-4
switch_tactile_silver-plating_3.5x3.5x5,antimony,1.0E-8,g,1,,Nickel Plating for TERMINAL,Antimony,CAS 7440-36-0
switch_tactile_silver-plating_3.5x3.5x5,silicon_metallurgical_grade,1.0E-8,g,1,,Nickel Plating for TERMINAL,Silicon,CAS 7440-21-3
switch_tactile_silver-plating_3.5x3.5x5,arsenic,1.0E-8,g,1,,Nickel Plating for TERMINAL,Arsenic,CAS 7440-38-2
switch_tactile_silver-plating_3.5x3.5x5,zinc,1.0E-8,g,1,,Nickel Plating for TERMINAL,Zinc,CAS 7440-66-6
switch_tactile_silver-plating_3.5x3.5x5,nickel,2.9983E-4,g,1,,Nickel Plating for TERMINAL,Nickel,CAS 7440-02-0
switch_tactile_silver-plating_3.5x3.5x5,cadmium,1.0E-8,g,1,,Nickel Plating for TERMINAL,Cadmium,CAS 7440-43-9
switch_tactile_silver-plating_3.5x3.5x5,lead,1.0E-8,g,1,,Nickel Plating for TERMINAL,Lead,CAS 7439-92-1
