Component.slug,Substance.slug,weight,weight_unit,quantity,sub_product,homogeneous_material,substance,identity
usb_a_cable_single-ended_awg24_x-meter,calcium_stearate,0.1812,g,1,Vinyl Compound,1-1487210-9,CALCIUM DISTEARATE,CAS 1592-23-0
usb_a_cable_single-ended_awg24_x-meter,antimony_trioxide,0.0366,g,1,Vinyl Compound,1-1487210-9,ANTIMONY OXIDE,CAS 1327-33-9
usb_a_cable_single-ended_awg24_x-meter,calcium_carbonate,1.491,g,1,Vinyl Compound,1-1487210-9,CALCIUM CARBONATE,CAS 471-34-1
usb_a_cable_single-ended_awg24_x-meter,epoxidized_soybean_oil,0.1212,g,1,Vinyl Compound,1-1487210-9,SOYBEAN OIL EPOXIDIZED,CAS 8013-07-8
usb_a_cable_single-ended_awg24_x-meter,dioctyl_terephthalate,1.089,g,1,Vinyl Compound,1-1487210-9,BIS(2-ETHYLHEXYL) TEREPHTHALATE,CAS 6422-86-2
usb_a_cable_single-ended_awg24_x-meter,pvc,3.024,g,1,Vinyl Compound,1-1487210-9,POLYVINYL CHLORIDE (PVC),CAS 9002-86-2
usb_a_cable_single-ended_awg24_x-meter,rutile,0.021,g,1,Vinyl Compound,1-1487210-9,RUTILE (TIO2),CAS 1317-80-2
usb_a_cable_single-ended_awg24_x-meter,polyethylene,0.036,g,1,Vinyl Compound,1-1487210-9,ETHENE HOMOPOLYMER,CAS 9002-88-4
#usb_a_cable_single-ended_awg24_x-meter,$connector-foil-copper,0.048,g,1,COPER FOIL TAPE 6W,COPPER,COPPER,CAS 7440-50-8
usb_a_cable_single-ended_awg24_x-meter,copper,0.048,g,1,COPER FOIL TAPE 6W,COPPER,COPPER,CAS 7440-50-8
usb_a_cable_single-ended_awg24_x-meter,iron,0.000024,g,1,COPER FOIL TAPE 6W,COPPER,IRON,CAS 7439-89-6
usb_a_cable_single-ended_awg24_x-meter,zinc,0.000024,g,1,COPER FOIL TAPE 6W,COPPER,ZINC,CAS 7440-66-6
usb_a_cable_single-ended_awg24_x-meter,polyacrylic_acid,0.007654,g,1,COPER FOIL TAPE 6W,GLUE,2-PROPENOIC ACID HOMOPOLYMER,CAS 9003-01-4
#usb_a_cable_single-ended_awg24_x-meter,$drain-copper,1.56016 * ($length / 2000),g,1,"USB 2.0 28#*1P+24#*2C +A+D+B W",Drain,COPPER,CAS 7440-50-8
usb_a_cable_single-ended_awg24_x-meter,copper,1.56016 * ($length / 2000),g,1,"USB 2.0 28#*1P+24#*2C +A+D+B W",Drain,COPPER,CAS 7440-50-8
usb_a_cable_single-ended_awg24_x-meter,tin,0.03184 * ($length / 2000),g,1,"USB 2.0 28#*1P+24#*2C +A+D+B W",Drain,TIN,CAS 7440-31-5
usb_a_cable_single-ended_awg24_x-meter,tin,0.220492 * ($length / 2000),g,1,"USB 2.0 28#*1P+24#*2C +A+D+B W",Conductor,TIN,CAS 7440-31-5
#usb_a_cable_single-ended_awg24_x-meter,$wire-copper,10.804108 * ($length / 2000),g,1,"USB 2.0 28#*1P+24#*2C +A+D+B W",Conductor,COPPER,CAS 7440-50-8
usb_a_cable_single-ended_awg24_x-meter,copper,10.804108 * ($length / 2000),g,1,"USB 2.0 28#*1P+24#*2C +A+D+B W",Conductor,COPPER,CAS 7440-50-8
usb_a_cable_single-ended_awg24_x-meter,pet,0.4179 * ($length / 2000),g,1,"USB 2.0 28#*1P+24#*2C +A+D+B W",AL Mylar,PEGOTERATE- (INN),CAS 25038-59-9
usb_a_cable_single-ended_awg24_x-meter,ethyl_acetate,0.0597 * ($length / 2000),g,1,"USB 2.0 28#*1P+24#*2C +A+D+B W",AL Mylar,ETHYL ACETATE,CAS 141-78-6
usb_a_cable_single-ended_awg24_x-meter,aluminium,0.7164 * ($length / 2000),g,1,"USB 2.0 28#*1P+24#*2C +A+D+B W",AL Mylar,ALUMINUM,CAS 7429-90-5
usb_a_cable_single-ended_awg24_x-meter,pvc,1.64374 * ($length / 2000),g,1,"USB 2.0 28#*1P+24#*2C +A+D+B W",Insulation - PVC Compound,POLYVINYL CHLORIDE (PVC),CAS 9002-86-2
usb_a_cable_single-ended_awg24_x-meter,dphp,1.18206 * ($length / 2000),g,1,"USB 2.0 28#*1P+24#*2C +A+D+B W",Insulation - PVC Compound,BIS(2-PROPYLHEPTYL) PHTHALATE,CAS 53306-54-0
usb_a_cable_single-ended_awg24_x-meter,polyethylene,0.01194 * ($length / 2000),g,1,"USB 2.0 28#*1P+24#*2C +A+D+B W",Insulation - PVC Compound,ETHENE HOMOPOLYMER,CAS 9002-88-4
usb_a_cable_single-ended_awg24_x-meter,antimony_trioxide,0.06368 * ($length / 2000),g,1,"USB 2.0 28#*1P+24#*2C +A+D+B W",Insulation - PVC Compound,ANTIMONY TRIOXIDE,CAS 1309-64-4
usb_a_cable_single-ended_awg24_x-meter,calcium_carbonate,0.979 * ($length / 2000),g,1,"USB 2.0 28#*1P+24#*2C +A+D+B W",Insulation - PVC Compound,CALCIUM CARBONATE,CAS 471-34-1
usb_a_cable_single-ended_awg24_x-meter,zinc_stearate,0.0995 * ($length / 2000),g,1,"USB 2.0 28#*1P+24#*2C +A+D+B W",Insulation - PVC Compound,ZINC DISTEARATE,CAS 557-05-1
#usb_a_cable_single-ended_awg24_x-meter,$braid-copper,11.21365 * ($length / 2000),g,1,"USB 2.0 28#*1P+24#*2C +A+D+B W",Braid Copper,COPPER,CAS 7440-50-8
usb_a_cable_single-ended_awg24_x-meter,copper,11.21365 * ($length / 2000),g,1,"USB 2.0 28#*1P+24#*2C +A+D+B W",Braid Copper,COPPER,CAS 7440-50-8
usb_a_cable_single-ended_awg24_x-meter,tin,0.22885 * ($length / 2000),g,1,"USB 2.0 28#*1P+24#*2C +A+D+B W",Braid Copper,TIN,CAS 7440-31-5
usb_a_cable_single-ended_awg24_x-meter,zinc_stearate,0.74625 * ($length / 2000),g,1,"USB 2.0 28#*1P+24#*2C +A+D+B W",Jacket - PVC Compound,ZINC DISTEARATE,CAS 557-05-1
usb_a_cable_single-ended_awg24_x-meter,dphp,8.86545 * ($length / 2000),g,1,"USB 2.0 28#*1P+24#*2C +A+D+B W",Jacket - PVC Compound,BIS(2-PROPYLHEPTYL) PHTHALATE,CAS 53306-54-0
usb_a_cable_single-ended_awg24_x-meter,polyethylene,0.08955 * ($length / 2000),g,1,"USB 2.0 28#*1P+24#*2C +A+D+B W",Jacket - PVC Compound,ETHENE HOMOPOLYMER,CAS 9002-88-4
usb_a_cable_single-ended_awg24_x-meter,pvc,12.32805 * ($length / 2000),g,1,"USB 2.0 28#*1P+24#*2C +A+D+B W",Jacket - PVC Compound,POLYVINYL CHLORIDE (PVC),CAS 9002-86-2
usb_a_cable_single-ended_awg24_x-meter,antimony_trioxide,0.4776 * ($length / 2000),g,1,"USB 2.0 28#*1P+24#*2C +A+D+B W",Jacket - PVC Compound,ANTIMONY TRIOXIDE,CAS 1309-64-4
usb_a_cable_single-ended_awg24_x-meter,calcium_carbonate,7.3431 * ($length / 2000),g,1,"USB 2.0 28#*1P+24#*2C +A+D+B W",Jacket - PVC Compound,CALCIUM CARBONATE,CAS 471-34-1
usb_a_cable_single-ended_awg24_x-meter,polyethylene,2.0696 * ($length / 2000),g,1,"USB 2.0 28#*1P+24#*2C +A+D+B W",Insulation - HD-PE,ETHENE HOMOPOLYMER,CAS 9002-88-4
usb_a_cable_single-ended_awg24_x-meter,copper,0.0007,g,1,SOLDER WIRE LEAD-FREE SN99.3,Solder wire,COPPER,CAS 7440-50-8
usb_a_cable_single-ended_awg24_x-meter,tin,0.0993,g,1,SOLDER WIRE LEAD-FREE SN99.3,Solder wire,TIN,CAS 7440-31-5
usb_a_cable_single-ended_awg24_x-meter,tin,0.074475,g,1,SOLDER BAR Sn99.3/Cu0.7,Solder Bar,TIN,CAS 7440-31-5
usb_a_cable_single-ended_awg24_x-meter,copper,0.000525,g,1,SOLDER BAR Sn99.3/Cu0.7,Solder Bar,COPPER,CAS 7440-50-8
usb_a_cable_single-ended_awg24_x-meter,acrylate_copolymer,0.0049,g,1,LABEL 25.4X35.05MM,PS Adhesive Materials,"2-PROPENOIC ACID, POLYMER WITH BUTYL 2-PROPENOATE, 2-ETHYLHEXYL 2-PROPENOATE AND METHYL 2-PROPENOATE",CAS 98060-25-4
usb_a_cable_single-ended_awg24_x-meter,pet,0.0091,g,1,LABEL 25.4X35.05MM,PS Adhesive Materials,PEGOTERATE- (INN),CAS 25038-59-9
usb_a_cable_single-ended_awg24_x-meter,pulp_cellulose,0.0203,g,1,LABEL 25.4X35.05MM,PS Adhesive Materials,PULP CELLULOSE,CAS 65996-61-4
usb_a_cable_single-ended_awg24_x-meter,vinyl_terminated_pdms_fluid,0.00035,g,1,LABEL 25.4X35.05MM,PS Adhesive Materials,"SILOXANES AND SILICONES, DI-ME, VINYL GROUP-TERMINATED",CAS 68083-19-2
usb_a_cable_single-ended_awg24_x-meter,water_distilled,0.00035,g,1,LABEL 25.4X35.05MM,PS Adhesive Materials,WATER,CAS 7732-18-5
usb_a_cable_single-ended_awg24_x-meter,rutile,0.0045,g,1,LABEL 25.4X35.05MM,Ink,RUTILE (TIO2),CAS 1317-80-2
usb_a_cable_single-ended_awg24_x-meter,acrylic_acid,0.003,g,1,LABEL 25.4X35.05MM,Ink,ACRYLIC ACID,CAS 79-10-7
usb_a_cable_single-ended_awg24_x-meter,cyclohexanone,0.003,g,1,LABEL 25.4X35.05MM,Ink,CYCLOHEXANONE,CAS 108-94-1
usb_a_cable_single-ended_awg24_x-meter,cyclomethicone,0.0045,g,1,LABEL 25.4X35.05MM,Ink,CYCLOMETHICONE,CAS 69430-24-6
usb_a_cable_single-ended_awg24_x-meter,palladium,0.00024,g,1,USB A TYPE 4PIN MALE GOLD30U,Contact - Pd-Ni plating,PALLADIUM,CAS 7440-05-3
usb_a_cable_single-ended_awg24_x-meter,nickel,0.00006,g,1,USB A TYPE 4PIN MALE GOLD30U,Contact - Pd-Ni plating,NICKEL,CAS 7440-02-0
usb_a_cable_single-ended_awg24_x-meter,polybutylene_terephthalate,0.32,g,1,USB A TYPE 4PIN MALE GOLD30U,Housing - PBT_White,"1 4-BENZENEDICARBOXYLIC ACID DIMETHYL ESTER  1 4-BUTANEDIOL POLYMER",CAS 30965-26-5
usb_a_cable_single-ended_awg24_x-meter,brominated_epoxy,0.16,g,1,USB A TYPE 4PIN MALE GOLD30U,Housing - PBT_White,BROMINATED EPOXY,CAS 68928-70-1
usb_a_cable_single-ended_awg24_x-meter,glass_fiber,0.24,g,1,USB A TYPE 4PIN MALE GOLD30U,Housing - PBT_White,FIBROUS GLASS,CAS 65997-17-3
usb_a_cable_single-ended_awg24_x-meter,antimony_trioxide,0.08,g,1,USB A TYPE 4PIN MALE GOLD30U,Housing - PBT_White,ANTIMONY TRIOXIDE,CAS 1309-64-4
usb_a_cable_single-ended_awg24_x-meter,nickel,0.0006,g,1,USB A TYPE 4PIN MALE GOLD30U,Shell - Ni Plating,NICKEL,CAS 7440-02-0
usb_a_cable_single-ended_awg24_x-meter,zinc,0.24364,g,1,USB A TYPE 4PIN MALE GOLD30U,Contact,ZINC,CAS 7440-66-6
usb_a_cable_single-ended_awg24_x-meter,lead,0.000014,g,1,USB A TYPE 4PIN MALE GOLD30U,Contact,LEAD,CAS 7439-92-1
usb_a_cable_single-ended_awg24_x-meter,iron,0.000014,g,1,USB A TYPE 4PIN MALE GOLD30U,Contact,IRON,CAS 7439-89-6
#usb_a_cable_single-ended_awg24_x-meter,$contact-copper,0.4554,g,1,USB A TYPE 4PIN MALE GOLD30U,Contact,COPPER,CAS 7440-50-8
usb_a_cable_single-ended_awg24_x-meter,copper,0.4554,g,1,USB A TYPE 4PIN MALE GOLD30U,Contact,COPPER,CAS 7440-50-8
usb_a_cable_single-ended_awg24_x-meter,iron,2.4938,g,1,USB A TYPE 4PIN MALE GOLD30U,Shell,IRON,CAS 7439-89-6
usb_a_cable_single-ended_awg24_x-meter,sulfur,0.0003,g,1,USB A TYPE 4PIN MALE GOLD30U,Shell,SULFUR,CAS 7704-34-9
usb_a_cable_single-ended_awg24_x-meter,carbon,0.000075,g,1,USB A TYPE 4PIN MALE GOLD30U,Shell,CARBON,CAS 7440-44-0
usb_a_cable_single-ended_awg24_x-meter,phosphorus,0.00045,g,1,USB A TYPE 4PIN MALE GOLD30U,Shell,PHOSPHORUS,CAS 7723-14-0
usb_a_cable_single-ended_awg24_x-meter,manganese,0.00475,g,1,USB A TYPE 4PIN MALE GOLD30U,Shell,MANGANESE,CAS 7439-96-5
usb_a_cable_single-ended_awg24_x-meter,antimony_trioxide,0.004,g,1,USB A TYPE 4PIN MALE GOLD30U,Housing - PBT_Black,ANTIMONY TRIOXIDE,CAS 1309-64-4
usb_a_cable_single-ended_awg24_x-meter,brominated_epoxy,0.0144,g,1,USB A TYPE 4PIN MALE GOLD30U,Housing - PBT_Black,BROMINATED EPOXY,CAS 68928-70-1
usb_a_cable_single-ended_awg24_x-meter,glass_fiber,0.024,g,1,USB A TYPE 4PIN MALE GOLD30U,Housing - PBT_Black,FIBROUS GLASS,CAS 65997-17-3
usb_a_cable_single-ended_awg24_x-meter,carbon_black,0.0056,g,1,USB A TYPE 4PIN MALE GOLD30U,Housing - PBT_Black,CARBON BLACK,CAS 1333-86-4
usb_a_cable_single-ended_awg24_x-meter,polybutylene_terephthalate,0.032,g,1,USB A TYPE 4PIN MALE GOLD30U,Housing - PBT_Black,"1 4-BENZENEDICARBOXYLIC ACID DIMETHYL ESTER  1 4-BUTANEDIOL POLYMER",CAS 30965-26-5
usb_a_cable_single-ended_awg24_x-meter,gold,0.0003,g,1,USB A TYPE 4PIN MALE GOLD30U,Contact - Au Plating,GOLD,CAS 7440-57-5
usb_a_cable_single-ended_awg24_x-meter,nickel,0.0003,g,1,USB A TYPE 4PIN MALE GOLD30U,Contact - Ni Plating,NICKEL,CAS 7440-02-0
