Device.slug,amount,Part.slug,value,part-number,references,source
boundary_devices-nitrogen8m_som,2,abracon-abm11,CRYSTAL 25.0000MHZ 10PF SMD,ABM11-25.000MHZ-D2X-T3,Y2 Y5,09 RGMII.SchDoc;05 CPU MISC + JTAG.SchDoc
boundary_devices-nitrogen8m_som,1,abracon-abm11,CRYSTAL 27MHZ 10PF 4pin,ABM11-27.000MHZ-D2X-T3,Y3,05 CPU MISC + JTAG.SchDoc
boundary_devices-nitrogen8m_som,1,advanced-thermal-ats56001c3r0,CPU HEAT SINK @U1,ATS-56001-C3-R0,HS1,02 SYSTEM POWER.SchDoc
boundary_devices-nitrogen8m_som,4,avx-0201ct,0.01UF 10V 0201,0201ZC103KAT2A,C129 C130 C802 C821,01 CPU POWER.SchDoc;02 SYSTEM POWER.SchDoc
boundary_devices-nitrogen8m_som,2,bourns-cay16j4,0R Array 62.5mW 1206,CAY16-000J4LF,RN1 RN2,08 IOCONNECTOR.SchDoc
boundary_devices-nitrogen8m_som,1,nidec-copal-chs01ta,SWITCH SLIDE DIP SPST 100MA 6V,CHS-01TA,SW1,05 CPU MISC + JTAG.SchDoc
boundary_devices-nitrogen8m_som,1,diodes-pam2305dgfadj,IC REG BUCK ADJ 1A SYNC 6DFN,PAM2305DGFADJ,U30,02 SYSTEM POWER.SchDoc
boundary_devices-nitrogen8m_som,1,kemet-c0402c_prvh,560PF 50V 0402,C0402C561K5RACTU,C731,02 SYSTEM POWER.SchDoc
boundary_devices-nitrogen8m_som,1,keystone-5016,TEST POINT COMPACT SMT,5016,GTP1,05 CPU MISC + JTAG.SchDoc
boundary_devices-nitrogen8m_som,1,kingbright-kpt3216green,LED GREEN,APT3216CGCK,D9,02 SYSTEM POWER.SchDoc
boundary_devices-nitrogen8m_som,1,kingston-emmc08gm325x01u,EMMC 8GB 5.0 \(HS400\) 153B 15nm,EMMC08G-M325-X01U,U36,EMMC.SchDoc
boundary_devices-nitrogen8m_som,1,micro_crystal-om,OSC XO 32.768KHZ SMD,OM-7604-C7,Y4,05 CPU MISC + JTAG.SchDoc
boundary_devices-nitrogen8m_som,1,microchip-dsc1124c,MEMS OSCILLATOR 27MHz,DSC1124CI1-027.0000T,Y7,04 CPU IO2.SchDoc
boundary_devices-nitrogen8m_som,1,molex-783081130,SODIMM CONNECTOR,783081130,J1,08 IOCONNECTOR.SchDoc
boundary_devices-nitrogen8m_som,3,murata-fdsd0412h,IND 330nH 100KHz 6.4A 19mOhm,FDSD0412-H-R33M=P3,L34 L35 L40,02 SYSTEM POWER.SchDoc
boundary_devices-nitrogen8m_som,1,murata-grm0335c,100PF 50V 0201,GRM0335C1H101JA01D,C732,02 SYSTEM POWER.SchDoc
boundary_devices-nitrogen8m_som,8,murata-grm033r6,2.2UF 6.3V X5R 20% 0201,GRM033R60J225ME15D,C78 C89 C95 C97 C108 C117 C122 C136,01 CPU POWER.SchDoc
boundary_devices-nitrogen8m_som,19,murata-grm155r6,10UF 4V 0402,GRM155R60G106ME44D,C55 C60 C72 C79 C80 C81 C98 C103 C104 C109 C110 C111 C123 C124 C139 C149 C156 C166 C246,01 CPU POWER.SchDoc;09 RGMII.SchDoc
boundary_devices-nitrogen8m_som,7,murata-grm31r6,47UF 10V 1206,GRM31CR61A476ME15L,C728 C755 C798 C800 C803 C818 C826,08 IOCONNECTOR.SchDoc;02 SYSTEM POWER.SchDoc
boundary_devices-nitrogen8m_som,1,murata-grm32r6,100UF 10V 1210,GRM32ER61A107ME20L,C799,02 SYSTEM POWER.SchDoc
boundary_devices-nitrogen8m_som,4,nic-nrc06,1K 0.1W 1% 0603,NRC06F1001TRF,R44 R123 R273 R516,01 CPU POWER.SchDoc;05 CPU MISC + JTAG.SchDoc;04 CPU IO2.SchDoc;02 SYSTEM POWER.SchDoc
boundary_devices-nitrogen8m_som,3,nic-nrc06,1.5K 1% 0603,NRC06F1501TRF,R32 R33 R104,09 RGMII.SchDoc;06 LPDDR4.SchDoc
boundary_devices-nitrogen8m_som,1,nic-nrc06,15K 1% 0603,NRC06F1502TRF,R505,04 CPU IO2.SchDoc
boundary_devices-nitrogen8m_som,11,nic-nrc06,0R 1% 0603,NRC06ZOTRF,R19 R20 R21 R23 R47 R48 R79 R92 R98 R204 R1126,EMMC.SchDoc;01 CPU POWER.SchDoc;05 CPU MISC + JTAG.SchDoc;08 IOCONNECTOR.SchDoc;03 CPU IO1.SchDoc;Note that this has 0 Ohm
boundary_devices-nitrogen8m_som,1,nxp-74ahc1g08gv125,IC GATE AND 1CH 2-INP 5-TSOP,"74AHC1G08GV,125",U45,05 CPU MISC + JTAG.SchDoc
boundary_devices-nitrogen8m_som,1,nxp-mimx8mq6va,I.MX 8MQUAD 17X17 NO LID,MIMX8MQ6DVAJZAB,U1,U1A in 06 LPDDR4.SchDoc;U1B U1C U1D U1E U1F U1G U1H U1I U1J U1K in 03 CPU IO1.SchDoc; U1L in 05 CPU MISC + JTAG.SchDoc; U1M U1N in 01 CPU POWER.SchDoc
boundary_devices-nitrogen8m_som,2,omron-xf2m33151a,CONN FPC 33POS 0.50MM R/A,XF2M-3315-1A,J4 J11,08 IOCONNECTOR.SchDoc
boundary_devices-nitrogen8m_som,3,on-fan53555,DC-DC 2.5V to 5.5V Step Down,FAN53555UC05X,U29 U32 U34,02 SYSTEM POWER.SchDoc
boundary_devices-nitrogen8m_som,1,panasonic-ERJ-3GE,2.37K 1% 0603,ERJ-3EKF2371V,R106,09 RGMII.SchDoc
boundary_devices-nitrogen8m_som,3,panasonic-ERJ-3GE,240R 1% 0402,ERJ-2RKF2400X,R27 R28 R29,06 LPDDR4.SchDoc
boundary_devices-nitrogen8m_som,1,qualcomm-ar8035al1a,IC TRANSCEIVER ETHERNET 40-QFN,AR8035-AL1A,U16,09 RGMII.SchDoc
boundary_devices-nitrogen8m_som,1,richtek-rt8070zqw,IC REG BUCK ADJ 4A SYNC 8WDFN,RT8070ZQW,U24,02 SYSTEM POWER.SchDoc
boundary_devices-nitrogen8m_som,2,samsung-cis21,120R @100MHz 5A 0805,CIS21J121NE,L29 L31,09 RGMII.SchDoc
boundary_devices-nitrogen8m_som,84,samsung-cl03,0.1UF 10V 0201,CL03A104KP3NNNC,C10 C29 C30 C34 C35 C41 C42 C43 C45 C48 C49 C50 C51 C52 C53 C54 C59 C63 C64 C65 C70 C71 C76 C77 C87 C88 C94 C96 C102 C106 C107 C114 C121 C133 C134 C135 C137 C138 C150 C151 C152 C153 C154 C155 C192 C193 C195 C196 C203 C204 C205 C207 C208 C209 C210 C242 C245 C248 C249 C250 C251 C252 C253 C254 C255 C279 C280 C281 C282 C293 C299 C310 C311 C315 C727 C730 C780 C781 C811 C813 C823 C869 C883 C912,EMMC.SchDoc;06 LPDDR4.SchDoc;01 CPU POWER.SchDoc;05 CPU MISC + JTAG.SchDoc;08 IOCONNECTOR.SchDoc;09 RGMII.SchDoc;04 CPU IO2.SchDoc;02 SYSTEM POWER.SchDoc;03 CPU IO1.SchDoc
boundary_devices-nitrogen8m_som,57,samsung-cl03,1UF 10V X5R 0201 20%,CL03A105KP3NSNC,C56 C57 C58 C61 C62 C66 C67 C68 C69 C73 C74 C75 C82 C83 C84 C85 C86 C90 C91 C92 C93 C99 C100 C101 C105 C112 C113 C115 C116 C118 C119 C120 C125 C126 C127 C128 C158 C159 C160 C161 C162 C163 C164 C165 C167 C168 C169 C170 C171 C172 C173 C174 C175 C176 C241 C243 C244,01 CPU POWER.SchDoc;09 RGMII.SchDoc
boundary_devices-nitrogen8m_som,1,samsung-cl05,10UF 6.3V 0402,CL05A106MQ5NUNC,C247,09 RGMII.SchDoc
boundary_devices-nitrogen8m_som,2,samsung-cl05,220NF 10V 0402,CL05A224KP5NNNC,C312 C318,08 IOCONNECTOR.SchDoc
boundary_devices-nitrogen8m_som,13,samsung-cl05,4.7UF 6.3V 0402,CL05A475MQ5NRNC,C178 C179 C180 C181 C183 C184 C185 C186 C188 C189 C190 C191 C194,06 LPDDR4.SchDoc
boundary_devices-nitrogen8m_som,2,samsung-cl10,10UF 10V 0603,CL10A106KP8NNNC,C8 C9,08 IOCONNECTOR.SchDoc
boundary_devices-nitrogen8m_som,1,samsung-k4f6e3s4hmmgcj,DRAM LPDDR4 16Gb 2CH X16 3733Mbps 200-Pin FBGA,K4F6E3S4HM-MGCJ,U2,U2A U2B in 06 LPDDR4.SchDoc
boundary_devices-nitrogen8m_som,1,stmicroelectronics-sm6t6v8a,TVS DIODE 5.8VWM 13.4VC SMB,SM6T6V8A,D10,02 SYSTEM POWER.SchDoc
boundary_devices-nitrogen8m_som,3,taiyo_yuden-mk107,22UF 4V 0603,AMK107BJ226MA-T,C177 C182 C187,06 LPDDR4.SchDoc
boundary_devices-nitrogen8m_som,12,taiyo_yuden-mk212,47UF 6.3V 0805,JMK212BJ476MG-T,C729 C809 C810 C812 C814 C815 C816 C817 C819 C822 C824 C825,02 SYSTEM POWER.SchDoc
boundary_devices-nitrogen8m_som,1,taiyo_yuden-mk325,22UF 10V 1210,LMK325BJ226MY-T,C313,08 IOCONNECTOR.SchDoc
boundary_devices-nitrogen8m_som,1,taiyo_yuden-mk105,0.47UF 50V 0402,UMK105ABJ474KV-F,C300,EMMC.SchDoc
boundary_devices-nitrogen8m_som,7,tdk-c0603c0G,10PF 50V 0201,C0603C0G1H100D030BA,C198 C199 C200 C201 C258 C259 C911,09 RGMII.SchDoc;05 CPU MISC + JTAG.SchDoc;02 SYSTEM POWER.SchDoc
boundary_devices-nitrogen8m_som,1,tdk-vls252012,2.2UH 1.3A,VLS252012ET-2R2M,L36,02 SYSTEM POWER.SchDoc
boundary_devices-nitrogen8m_som,1,tdk-vls3012t,4.7UH 1.4A,VLS3012T-4R7M1R0,L30,09 RGMII.SchDoc
boundary_devices-nitrogen8m_som,1,texas_instruments-tca9546apwr,IC I2C SW 4CH W/RESET 16TSSOP,TCA9546APWR,U9,03 CPU IO1.SchDoc
boundary_devices-nitrogen8m_som,1,texas_instruments-tps3808g33dbvr,IC VOLT SUPERVISOR 3.3V SOT-23-6,TPS3808G33DBVR,U11,05 CPU MISC + JTAG.SchDoc
#boundary_devices-nitrogen8m_som,8,unknown,NS RES 0603,NS,R22 R51 R52 R53 R93 R136 R270 R518,01 CPU POWER.SchDoc;05 CPU MISC + JTAG.SchDoc;08 IOCONNECTOR.SchDoc;09 RGMII.SchDoc;04 CPU IO2.SchDoc;02 SYSTEM POWER.SchDoc
boundary_devices-nitrogen8m_som,3,vishay-crcw0201,10K 0.05W 1/20W 1% 0201,CRCW020110K0FNED,R24 R25 R26,06 LPDDR4.SchDoc
boundary_devices-nitrogen8m_som,3,vishay-crcw0603,100K 1% 0603,CRCW0603100KFKEA,R43 R63 R283,05 CPU MISC + JTAG.SchDoc;02 SYSTEM POWER.SchDoc
boundary_devices-nitrogen8m_som,2,vishay-crcw0603,100R 1% 0603,CRCW0603100RFKEA,R49 R50,05 CPU MISC + JTAG.SchDoc
boundary_devices-nitrogen8m_som,1,vishay-crcw0603,200K 1% 0603,CRCW0603200KFKEA,R282,02 SYSTEM POWER.SchDoc
boundary_devices-nitrogen8m_som,2,vishay-crcw0603,22R 1% 0603,CRCW060322R0FKEA,R100 R140,09 RGMII.SchDoc;EMMC.SchDoc
boundary_devices-nitrogen8m_som,1,vishay-crcw0603,24K 1% 0603,CRCW060324K0FKEA,R272,02 SYSTEM POWER.SchDoc
boundary_devices-nitrogen8m_som,1,vishay-crcw0603,33K 1% 0603,CRCW060333K0FKEA,R271,02 SYSTEM POWER.SchDoc
boundary_devices-nitrogen8m_som,2,vishay-crcw0603,33R 1% 0603,CRCW060333R0FKEA,R89 R94,08 IOCONNECTOR.SchDoc
boundary_devices-nitrogen8m_som,8,vishay-crcw0603,4.7K 1% 0603,CRCW06034K70FKEA,R35 R36 R37 R38 R39 R40 R41 R42,03 CPU IO1.SchDoc
boundary_devices-nitrogen8m_som,2,vishay-crcw0603,49.9R 1% 0603,CRCW060349R9FKEA,R87 R88,04 CPU IO2.SchDoc
boundary_devices-nitrogen8m_som,1,vishay-crcw0603,499R 1% 0603,CRCW0603499RFKEA,R503,04 CPU IO2.SchDoc
boundary_devices-nitrogen8m_som,1,vishay-crcw0603,75K 1% 0603,CRCW060375K0FKEA,R269,02 SYSTEM POWER.SchDoc
boundary_devices-nitrogen8m_som,1,vishay-ihlp1212bz,1.5UH  3.8A,IHLP1212BZER1R5M11,L33,02 SYSTEM POWER.SchDoc
boundary_devices-nitrogen8m_som,23,yageo-ac0603,10K 1% 0603,AC0603FR-0710KL,R45 R46 R57 R58 R60 R82 R99 R105 R240 R241 R242 R243 R244 R245 R246 R247 R279 R280 R281 R284 R286 R287 R288,09 RGMII.SchDoc;05 CPU MISC + JTAG.SchDoc;02 SYSTEM POWER.SchDoc;03 CPU IO1.SchDoc
boundary_devices-nitrogen8m_som,2,yageo-ac0603,49.9K 1% 0603,AC0603FR-0749K9L,R268 R515,04 CPU IO2.SchDoc;02 SYSTEM POWER.SchDoc
boundary_devices-nitrogen8m_som,2,yageo-af0402,150R 0.063W 1% 0402,AF0402FR-07150RL,R30 R31,06 LPDDR4.SchDoc
boundary_devices-nitrogen8m_som,11,yageo-cc0201x7r,0.0047UF 6.3V X7R 10% 0201,CC0201KRX7R5BB472,C131 C132 C140 C141 C142 C143 C144 C145 C146 C147 C148,01 CPU POWER.SchDoc
boundary_devices-nitrogen8m_som,4,yageo-rc0603,200R 1% 0603,RC0603FR-07200RL,R501 R502 R504 R506,04 CPU IO2.SchDoc
boundary_devices-nitrogen8m_som,1,yageo-rc0603,390R 0.1W 1% 0603,RC0603FR-07390RL,R97,01 CPU POWER.SchDoc
boundary_devices-nitrogen8m_som,1,boundary_devices-nitrogen8m-som-pcb,,,,nitrogen8m-som-fake-gerber\nitrogen8m-som-fake-job.gbrjob
boundary_devices-nitrogen8m_som,0.002636558184,unknown-solder-paste-100g,,,,nitrogen8m-som-fake-gerber\nitrogen8m-som-fake-job.gbrjob