Device.slug,amount,Part.slug,value,part-number,references,source
mnt-MREFATBS20R01,1,hirose-fh126,Conn_01x06_Male,FH12-6S-0.5SH(55),J1,reform2-trackball-sensor.csv
mnt-MREFATBS20R01,1,pcbway-mnt_reform_trackball_sensor_pcb,Trackball Sensor PCB,MREFATBS20R01,,reform2-trackball-sensor-d3-gerbers\reform2-trackball-sensor-job.gbrjob
mnt-MREFATBS20R01,1,pixart_imaging-PAT9125EL,PAT9125EL,PAT9125EL,U1,reform2-trackball-sensor.csv
mnt-MREFATBS20R01,1,taiyo_yuden-mk107,10uF,LMK107BBJ106KALT,C3,reform2-trackball-sensor.csv
mnt-MREFATBS20R01,1,tdk-c1608np0,1uF,C1608X8L1C105K080AC,C1,reform2-trackball-sensor.csv
mnt-MREFATBS20R01,1,yageo-cc0603x7r,0.1uF,CC0603JPX7R9BB104,C2,reform2-trackball-sensor.csv
mnt-MREFATBS20R01,0.00034145384,unknown-solder-paste-100g,,,,reform2-trackball-sensor-d3-gerbers\reform2-trackball-sensor-job.gbrjob