Device.slug,amount,Part.slug,value,part-number,references,source
small-fake-device,1,microtech-CDF,,,,"R1,R2,R3,R4,R5,R6,R7,R8: microtech GmbH, Thick film series - Standard, Type CDF. Manufactured in Germany."
small-fake-device,1,vishay-cerca_0603,27pF,VJ0603A270KXACW1BC,,"C1,C2: Vishay, 27pF, maybe VJ0603A270KXACW1BC. Manufactured in Israel."
small-fake-device,1,nichia-led,,NSPG-510BS,,"D1: Nichia (Japan), green LED, diameter 5mm, probabaly NSPG-510BS or NSPE-510DS, here substituted with 3mm red LED. Manufactured in Japan."
small-fake-device,1,frolyt-EKSU,10uF,EKSU,,C4: Frolyt bipolar EKSU C7 50V 10uF - https://www.frolyt.de/wp-content/uploads/RoHS_Umbrella_radial.pdf. Manufactured in Germany.
small-fake-device,1,wima-MKS2D031001A00,0.1uF,MKS2D031001A00,,"C5: WIMA, MKS2D031001A00, 0.1uF, 20% tolerance, 63V, Metallisierte Polyester (PET)- Kondensatoren im Rastermaß 5 mm (lead spacing). Manufactured in Germany."
